/eos/lyoeos.in2p3.fr/grid/cms/store/data/Run2017D/SingleMuon/NANOAOD/UL2017_MiniAODv2_NanoAODv9-v1/130000/011177D3-1202-7B4F-95A5-50A7E6FF680D.root
/eos/lyoeos.in2p3.fr/grid/cms/store/data/Run2017D/SingleMuon/NANOAOD/UL2017_MiniAODv2_NanoAODv9-v1/130000/05A83B8C-D600-F945-9228-C5A5300C6B23.root
/eos/lyoeos.in2p3.fr/grid/cms/store/data/Run2017D/SingleMuon/NANOAOD/UL2017_MiniAODv2_NanoAODv9-v1/130000/0B93F069-5F5B-6445-89CE-3C8FB0242F9A.root
/eos/lyoeos.in2p3.fr/grid/cms/store/data/Run2017D/SingleMuon/NANOAOD/UL2017_MiniAODv2_NanoAODv9-v1/130000/2BAC4DA2-AA9F-A944-85F9-820983777304.root
/eos/lyoeos.in2p3.fr/grid/cms/store/data/Run2017D/SingleMuon/NANOAOD/UL2017_MiniAODv2_NanoAODv9-v1/130000/2D040150-E58B-5248-B835-532BF05DD349.root
/eos/lyoeos.in2p3.fr/grid/cms/store/data/Run2017D/SingleMuon/NANOAOD/UL2017_MiniAODv2_NanoAODv9-v1/130000/30E871AF-A2DF-5546-B85B-5B36C3F8A915.root
/eos/lyoeos.in2p3.fr/grid/cms/store/data/Run2017D/SingleMuon/NANOAOD/UL2017_MiniAODv2_NanoAODv9-v1/130000/31A4E998-9618-1546-8771-857960D37069.root
/eos/lyoeos.in2p3.fr/grid/cms/store/data/Run2017D/SingleMuon/NANOAOD/UL2017_MiniAODv2_NanoAODv9-v1/130000/33E9FD68-3E1F-7E43-8E75-7A93A184B084.root
/eos/lyoeos.in2p3.fr/grid/cms/store/data/Run2017D/SingleMuon/NANOAOD/UL2017_MiniAODv2_NanoAODv9-v1/130000/36BA73CB-25DD-1B4C-9019-2649AA0C7E69.root
/eos/lyoeos.in2p3.fr/grid/cms/store/data/Run2017D/SingleMuon/NANOAOD/UL2017_MiniAODv2_NanoAODv9-v1/130000/3CCAA194-693C-1740-87D0-3E611A28346F.root
/eos/lyoeos.in2p3.fr/grid/cms/store/data/Run2017D/SingleMuon/NANOAOD/UL2017_MiniAODv2_NanoAODv9-v1/130000/3DC48157-96FA-764F-AF3C-CE55B96B7544.root
/eos/lyoeos.in2p3.fr/grid/cms/store/data/Run2017D/SingleMuon/NANOAOD/UL2017_MiniAODv2_NanoAODv9-v1/130000/46F82024-1F5A-4D43-B24C-6915CB9C71C9.root
/eos/lyoeos.in2p3.fr/grid/cms/store/data/Run2017D/SingleMuon/NANOAOD/UL2017_MiniAODv2_NanoAODv9-v1/130000/493AEDDE-9CB2-9C43-BEC7-C61ECFAC52BA.root
/eos/lyoeos.in2p3.fr/grid/cms/store/data/Run2017D/SingleMuon/NANOAOD/UL2017_MiniAODv2_NanoAODv9-v1/130000/4D098C77-5553-004E-BB9D-FCAD0808C3B6.root
/eos/lyoeos.in2p3.fr/grid/cms/store/data/Run2017D/SingleMuon/NANOAOD/UL2017_MiniAODv2_NanoAODv9-v1/130000/507335E0-8D51-6446-B62D-C6AD5AF39292.root
/eos/lyoeos.in2p3.fr/grid/cms/store/data/Run2017D/SingleMuon/NANOAOD/UL2017_MiniAODv2_NanoAODv9-v1/130000/5A8AC390-4855-3749-8387-A7B7D2EA83B8.root
/eos/lyoeos.in2p3.fr/grid/cms/store/data/Run2017D/SingleMuon/NANOAOD/UL2017_MiniAODv2_NanoAODv9-v1/130000/5E36AF99-E86E-BD42-9D88-6065F35E8D77.root
/eos/lyoeos.in2p3.fr/grid/cms/store/data/Run2017D/SingleMuon/NANOAOD/UL2017_MiniAODv2_NanoAODv9-v1/130000/61BE61A5-C0E5-2841-B073-1EDD5893EDC3.root
/eos/lyoeos.in2p3.fr/grid/cms/store/data/Run2017D/SingleMuon/NANOAOD/UL2017_MiniAODv2_NanoAODv9-v1/130000/69A8A2CA-5AA3-0C4F-A8AB-FAD180AEBDF5.root
/eos/lyoeos.in2p3.fr/grid/cms/store/data/Run2017D/SingleMuon/NANOAOD/UL2017_MiniAODv2_NanoAODv9-v1/130000/6E240E82-9565-CA45-950C-7DFE701BA18D.root
/eos/lyoeos.in2p3.fr/grid/cms/store/data/Run2017D/SingleMuon/NANOAOD/UL2017_MiniAODv2_NanoAODv9-v1/130000/7F31036E-5256-8645-8059-4A2E67D825FB.root
/eos/lyoeos.in2p3.fr/grid/cms/store/data/Run2017D/SingleMuon/NANOAOD/UL2017_MiniAODv2_NanoAODv9-v1/130000/83D2C75F-9522-1546-B450-EF34069E6878.root
/eos/lyoeos.in2p3.fr/grid/cms/store/data/Run2017D/SingleMuon/NANOAOD/UL2017_MiniAODv2_NanoAODv9-v1/130000/849F11F2-9CB2-5646-AD0F-8BF8BC453CBD.root
/eos/lyoeos.in2p3.fr/grid/cms/store/data/Run2017D/SingleMuon/NANOAOD/UL2017_MiniAODv2_NanoAODv9-v1/130000/96155212-809E-504E-86A6-9CB7ACD0B50D.root
/eos/lyoeos.in2p3.fr/grid/cms/store/data/Run2017D/SingleMuon/NANOAOD/UL2017_MiniAODv2_NanoAODv9-v1/130000/A488139C-9DEA-3F42-9965-AD01EB02617D.root
/eos/lyoeos.in2p3.fr/grid/cms/store/data/Run2017D/SingleMuon/NANOAOD/UL2017_MiniAODv2_NanoAODv9-v1/130000/A85EB5FE-5F7F-7947-A070-1FC00B3A4591.root
/eos/lyoeos.in2p3.fr/grid/cms/store/data/Run2017D/SingleMuon/NANOAOD/UL2017_MiniAODv2_NanoAODv9-v1/130000/AFEBEBDA-028B-D04F-935B-1C322001AFCA.root
/eos/lyoeos.in2p3.fr/grid/cms/store/data/Run2017D/SingleMuon/NANOAOD/UL2017_MiniAODv2_NanoAODv9-v1/130000/B4978536-0629-2345-8976-7E5B54D9BAEA.root
/eos/lyoeos.in2p3.fr/grid/cms/store/data/Run2017D/SingleMuon/NANOAOD/UL2017_MiniAODv2_NanoAODv9-v1/130000/BACA54AE-1F30-0A4D-92D5-2C51DA31C073.root
/eos/lyoeos.in2p3.fr/grid/cms/store/data/Run2017D/SingleMuon/NANOAOD/UL2017_MiniAODv2_NanoAODv9-v1/130000/BD7A35BF-C64B-4048-B415-BD916DABF1A7.root
/eos/lyoeos.in2p3.fr/grid/cms/store/data/Run2017D/SingleMuon/NANOAOD/UL2017_MiniAODv2_NanoAODv9-v1/130000/C197C598-02EC-5745-A920-6F1895936B14.root
/eos/lyoeos.in2p3.fr/grid/cms/store/data/Run2017D/SingleMuon/NANOAOD/UL2017_MiniAODv2_NanoAODv9-v1/130000/D2102CDC-B333-1C4E-B203-06245B694082.root
/eos/lyoeos.in2p3.fr/grid/cms/store/data/Run2017D/SingleMuon/NANOAOD/UL2017_MiniAODv2_NanoAODv9-v1/130000/D8CF33F7-0DA3-E748-BF01-8FE2564C9209.root
/eos/lyoeos.in2p3.fr/grid/cms/store/data/Run2017D/SingleMuon/NANOAOD/UL2017_MiniAODv2_NanoAODv9-v1/130000/E175BDFB-DCDC-944F-8DA8-5BF6284B9622.root
/eos/lyoeos.in2p3.fr/grid/cms/store/data/Run2017D/SingleMuon/NANOAOD/UL2017_MiniAODv2_NanoAODv9-v1/130000/E2FBF2FC-65D4-B843-A2F3-F2689CEA3FD0.root
/eos/lyoeos.in2p3.fr/grid/cms/store/data/Run2017D/SingleMuon/NANOAOD/UL2017_MiniAODv2_NanoAODv9-v1/130000/E3CC7361-C042-334A-A9E6-CAEFC3E23FD5.root
/eos/lyoeos.in2p3.fr/grid/cms/store/data/Run2017D/SingleMuon/NANOAOD/UL2017_MiniAODv2_NanoAODv9-v1/130000/EDE2D253-49CA-0D4A-8A2A-75848946AF4A.root
/eos/lyoeos.in2p3.fr/grid/cms/store/data/Run2017D/SingleMuon/NANOAOD/UL2017_MiniAODv2_NanoAODv9-v1/130000/F0354DE8-62E8-FD4E-BC48-E7A75229001C.root
/eos/lyoeos.in2p3.fr/grid/cms/store/data/Run2017D/SingleMuon/NANOAOD/UL2017_MiniAODv2_NanoAODv9-v1/130000/F0C90512-4738-634D-8937-DC53E16F025B.root
/eos/lyoeos.in2p3.fr/grid/cms/store/data/Run2017D/SingleMuon/NANOAOD/UL2017_MiniAODv2_NanoAODv9-v1/130000/F225EAF3-76E3-8E47-963D-9B51AE034E58.root
/eos/lyoeos.in2p3.fr/grid/cms/store/data/Run2017D/SingleMuon/NANOAOD/UL2017_MiniAODv2_NanoAODv9-v1/130000/F6442D50-8AC1-1F48-8487-6FF83F63BFEE.root
/eos/lyoeos.in2p3.fr/grid/cms/store/data/Run2017D/SingleMuon/NANOAOD/UL2017_MiniAODv2_NanoAODv9-v1/130000/FFEF515E-3281-8B4C-ABFB-AEBF9C550263.root
/eos/lyoeos.in2p3.fr/grid/cms/store/data/Run2017D/SingleMuon/NANOAOD/UL2017_MiniAODv2_NanoAODv9-v1/270000/0C6931D3-C64F-9041-BC20-9A4704975506.root
/eos/lyoeos.in2p3.fr/grid/cms/store/data/Run2017D/SingleMuon/NANOAOD/UL2017_MiniAODv2_NanoAODv9-v1/280000/24762D51-130A-9347-8C7D-4EC79808C907.root
/eos/lyoeos.in2p3.fr/grid/cms/store/data/Run2017D/SingleMuon/NANOAOD/UL2017_MiniAODv2_NanoAODv9-v1/280000/674C5D99-E99F-5248-9542-5A07DA9CEC68.root
/eos/lyoeos.in2p3.fr/grid/cms/store/data/Run2017D/SingleMuon/NANOAOD/UL2017_MiniAODv2_NanoAODv9-v1/280000/81933544-19A8-BD47-A9E6-9C18167EDEB9.root
/eos/lyoeos.in2p3.fr/grid/cms/store/data/Run2017D/SingleMuon/NANOAOD/UL2017_MiniAODv2_NanoAODv9-v1/280000/C8E9C703-2DE7-BD49-B971-11B65AA3756B.root
