/eos/lyoeos.in2p3.fr/grid/cms/store/data/Run2017D/SingleElectron/NANOAOD/UL2017_MiniAODv2_NanoAODv9-v1/120000/1DCECCB7-D2E5-DF43-AC8A-68E4E7905AD7.root
/eos/lyoeos.in2p3.fr/grid/cms/store/data/Run2017D/SingleElectron/NANOAOD/UL2017_MiniAODv2_NanoAODv9-v1/120000/31E82F2A-CB2B-0D43-82E6-9FF74A9A9AF1.root
/eos/lyoeos.in2p3.fr/grid/cms/store/data/Run2017D/SingleElectron/NANOAOD/UL2017_MiniAODv2_NanoAODv9-v1/120000/5FD70421-0E3A-5E47-9DCB-392102E300F9.root
/eos/lyoeos.in2p3.fr/grid/cms/store/data/Run2017D/SingleElectron/NANOAOD/UL2017_MiniAODv2_NanoAODv9-v1/120000/97732B6B-F38E-5743-A44B-ABF5C27C1CFA.root
/eos/lyoeos.in2p3.fr/grid/cms/store/data/Run2017D/SingleElectron/NANOAOD/UL2017_MiniAODv2_NanoAODv9-v1/120000/BF7A9F3C-7E20-A54C-A34B-CB404C05A3FD.root
/eos/lyoeos.in2p3.fr/grid/cms/store/data/Run2017D/SingleElectron/NANOAOD/UL2017_MiniAODv2_NanoAODv9-v1/120000/E3BD1811-1B24-D340-B81F-E8548A21B401.root
/eos/lyoeos.in2p3.fr/grid/cms/store/data/Run2017D/SingleElectron/NANOAOD/UL2017_MiniAODv2_NanoAODv9-v1/1210000/5C93A992-314F-9E4E-AC09-EACC21646D8C.root
/eos/lyoeos.in2p3.fr/grid/cms/store/data/Run2017D/SingleElectron/NANOAOD/UL2017_MiniAODv2_NanoAODv9-v1/130000/20DCD7BE-8F6E-5C46-8BF1-AEDE998AAC79.root
/eos/lyoeos.in2p3.fr/grid/cms/store/data/Run2017D/SingleElectron/NANOAOD/UL2017_MiniAODv2_NanoAODv9-v1/130000/2D1E0335-2E2E-154B-A6A7-C8ED02B68982.root
/eos/lyoeos.in2p3.fr/grid/cms/store/data/Run2017D/SingleElectron/NANOAOD/UL2017_MiniAODv2_NanoAODv9-v1/130000/2D74C115-B3F5-3545-9E22-A5F11E228833.root
/eos/lyoeos.in2p3.fr/grid/cms/store/data/Run2017D/SingleElectron/NANOAOD/UL2017_MiniAODv2_NanoAODv9-v1/130000/349BA267-6312-4B4E-A012-17A4592F585E.root
/eos/lyoeos.in2p3.fr/grid/cms/store/data/Run2017D/SingleElectron/NANOAOD/UL2017_MiniAODv2_NanoAODv9-v1/130000/4CA366E2-751D-D74A-802B-01D22E0B4474.root
/eos/lyoeos.in2p3.fr/grid/cms/store/data/Run2017D/SingleElectron/NANOAOD/UL2017_MiniAODv2_NanoAODv9-v1/130000/513C1551-FA6F-3948-BF82-D6170654FDA7.root
/eos/lyoeos.in2p3.fr/grid/cms/store/data/Run2017D/SingleElectron/NANOAOD/UL2017_MiniAODv2_NanoAODv9-v1/130000/52F93130-49B4-274F-A370-F4C66C91B576.root
/eos/lyoeos.in2p3.fr/grid/cms/store/data/Run2017D/SingleElectron/NANOAOD/UL2017_MiniAODv2_NanoAODv9-v1/130000/57E738D6-2331-1E43-8D78-F3095E506019.root
/eos/lyoeos.in2p3.fr/grid/cms/store/data/Run2017D/SingleElectron/NANOAOD/UL2017_MiniAODv2_NanoAODv9-v1/130000/63BEA57D-403D-E24A-BF37-C0F08138E7A4.root
/eos/lyoeos.in2p3.fr/grid/cms/store/data/Run2017D/SingleElectron/NANOAOD/UL2017_MiniAODv2_NanoAODv9-v1/130000/7038A6AF-F902-194B-81D3-1E8C38BE2BF6.root
/eos/lyoeos.in2p3.fr/grid/cms/store/data/Run2017D/SingleElectron/NANOAOD/UL2017_MiniAODv2_NanoAODv9-v1/130000/71BB7A8D-6EBC-0841-944A-539EA91416E0.root
/eos/lyoeos.in2p3.fr/grid/cms/store/data/Run2017D/SingleElectron/NANOAOD/UL2017_MiniAODv2_NanoAODv9-v1/130000/76D7521D-DF06-514D-8368-CAE622C356C9.root
/eos/lyoeos.in2p3.fr/grid/cms/store/data/Run2017D/SingleElectron/NANOAOD/UL2017_MiniAODv2_NanoAODv9-v1/130000/7D47C649-80DF-0C45-AEE5-6E572A3C0D4E.root
/eos/lyoeos.in2p3.fr/grid/cms/store/data/Run2017D/SingleElectron/NANOAOD/UL2017_MiniAODv2_NanoAODv9-v1/130000/7F4644F8-9491-0243-A7BB-127F5147D079.root
/eos/lyoeos.in2p3.fr/grid/cms/store/data/Run2017D/SingleElectron/NANOAOD/UL2017_MiniAODv2_NanoAODv9-v1/130000/8DE5C5A4-8BEA-B44E-99D5-D19E408DA577.root
/eos/lyoeos.in2p3.fr/grid/cms/store/data/Run2017D/SingleElectron/NANOAOD/UL2017_MiniAODv2_NanoAODv9-v1/130000/A4E609CA-C3D1-6943-903A-74D03F0A6BD9.root
/eos/lyoeos.in2p3.fr/grid/cms/store/data/Run2017D/SingleElectron/NANOAOD/UL2017_MiniAODv2_NanoAODv9-v1/130000/AEC188FE-4772-904E-8DF7-7A5A278F64F5.root
/eos/lyoeos.in2p3.fr/grid/cms/store/data/Run2017D/SingleElectron/NANOAOD/UL2017_MiniAODv2_NanoAODv9-v1/130000/B9323FC9-FD72-AE4D-B09D-B6871FBA050C.root
/eos/lyoeos.in2p3.fr/grid/cms/store/data/Run2017D/SingleElectron/NANOAOD/UL2017_MiniAODv2_NanoAODv9-v1/130000/C7D54FEE-336E-4741-A69E-E9516E21CD97.root
/eos/lyoeos.in2p3.fr/grid/cms/store/data/Run2017D/SingleElectron/NANOAOD/UL2017_MiniAODv2_NanoAODv9-v1/130000/D215FBC0-4A54-B242-B9CB-4871E8BD1463.root
/eos/lyoeos.in2p3.fr/grid/cms/store/data/Run2017D/SingleElectron/NANOAOD/UL2017_MiniAODv2_NanoAODv9-v1/130000/DCAC19FA-F054-A244-AE06-8D961E145445.root
/eos/lyoeos.in2p3.fr/grid/cms/store/data/Run2017D/SingleElectron/NANOAOD/UL2017_MiniAODv2_NanoAODv9-v1/130000/E31FF45F-C9B3-7D40-ACEF-125883204F4A.root
/eos/lyoeos.in2p3.fr/grid/cms/store/data/Run2017D/SingleElectron/NANOAOD/UL2017_MiniAODv2_NanoAODv9-v1/130000/E4260887-89C3-8541-9EE9-297C0C8036E1.root
/eos/lyoeos.in2p3.fr/grid/cms/store/data/Run2017D/SingleElectron/NANOAOD/UL2017_MiniAODv2_NanoAODv9-v1/130000/F0B7E011-6AAF-A34B-9385-736E973A6A15.root
/eos/lyoeos.in2p3.fr/grid/cms/store/data/Run2017D/SingleElectron/NANOAOD/UL2017_MiniAODv2_NanoAODv9-v1/130000/F1B9FFB0-8672-EE41-AA2E-36DBB6CD00EA.root
/eos/lyoeos.in2p3.fr/grid/cms/store/data/Run2017D/SingleElectron/NANOAOD/UL2017_MiniAODv2_NanoAODv9-v1/270000/46A3FED0-70EA-4840-9F5E-B0D83A25CB52.root
/eos/lyoeos.in2p3.fr/grid/cms/store/data/Run2017D/SingleElectron/NANOAOD/UL2017_MiniAODv2_NanoAODv9-v1/270000/576D63EA-5E13-C443-AFE7-12F9F7C6EBE7.root
/eos/lyoeos.in2p3.fr/grid/cms/store/data/Run2017D/SingleElectron/NANOAOD/UL2017_MiniAODv2_NanoAODv9-v1/270000/CAC5184A-09E2-9747-B927-4CE1F0431CED.root
/eos/lyoeos.in2p3.fr/grid/cms/store/data/Run2017D/SingleElectron/NANOAOD/UL2017_MiniAODv2_NanoAODv9-v1/270000/D7D1A5E4-EBBF-F64A-9F7E-92300BD435CD.root
/eos/lyoeos.in2p3.fr/grid/cms/store/data/Run2017D/SingleElectron/NANOAOD/UL2017_MiniAODv2_NanoAODv9-v1/270000/FB87710A-CF14-E440-8840-791CDF4DD59A.root
