/eos/lyoeos.in2p3.fr/grid/cms/store/data/Run2017B/DoubleEG/NANOAOD/UL2017_MiniAODv2_NanoAODv9-v1/70000/0225EEA5-0498-B146-AF9C-BF73DAB33D47.root
/eos/lyoeos.in2p3.fr/grid/cms/store/data/Run2017B/DoubleEG/NANOAOD/UL2017_MiniAODv2_NanoAODv9-v1/70000/04646CDD-F24C-DA40-BCC8-6EB722486EAF.root
/eos/lyoeos.in2p3.fr/grid/cms/store/data/Run2017B/DoubleEG/NANOAOD/UL2017_MiniAODv2_NanoAODv9-v1/70000/0E5E3581-6C20-9D44-B44C-576C11B72848.root
/eos/lyoeos.in2p3.fr/grid/cms/store/data/Run2017B/DoubleEG/NANOAOD/UL2017_MiniAODv2_NanoAODv9-v1/70000/24720636-3AA8-2148-A316-3B5FBCE2393F.root
/eos/lyoeos.in2p3.fr/grid/cms/store/data/Run2017B/DoubleEG/NANOAOD/UL2017_MiniAODv2_NanoAODv9-v1/70000/2A428A4E-12E5-3449-8E0F-9DA6C64A7449.root
/eos/lyoeos.in2p3.fr/grid/cms/store/data/Run2017B/DoubleEG/NANOAOD/UL2017_MiniAODv2_NanoAODv9-v1/70000/3A77A223-60EF-024E-89AF-A03783DC4F63.root
/eos/lyoeos.in2p3.fr/grid/cms/store/data/Run2017B/DoubleEG/NANOAOD/UL2017_MiniAODv2_NanoAODv9-v1/70000/3BD1CFE1-4A90-9847-870C-A41A991D32BF.root
/eos/lyoeos.in2p3.fr/grid/cms/store/data/Run2017B/DoubleEG/NANOAOD/UL2017_MiniAODv2_NanoAODv9-v1/70000/4BC53825-C4CC-264D-B251-87375F80A49E.root
/eos/lyoeos.in2p3.fr/grid/cms/store/data/Run2017B/DoubleEG/NANOAOD/UL2017_MiniAODv2_NanoAODv9-v1/70000/69432CB2-C0EC-A740-814C-A54884D56D47.root
/eos/lyoeos.in2p3.fr/grid/cms/store/data/Run2017B/DoubleEG/NANOAOD/UL2017_MiniAODv2_NanoAODv9-v1/70000/6F9B46E2-2909-4542-82F8-CE10CFD1E9D0.root
/eos/lyoeos.in2p3.fr/grid/cms/store/data/Run2017B/DoubleEG/NANOAOD/UL2017_MiniAODv2_NanoAODv9-v1/70000/7A429C85-6612-7243-B53D-7F51DF0E3E7C.root
/eos/lyoeos.in2p3.fr/grid/cms/store/data/Run2017B/DoubleEG/NANOAOD/UL2017_MiniAODv2_NanoAODv9-v1/70000/82D6D545-7176-3543-9713-219EA839BBA8.root
/eos/lyoeos.in2p3.fr/grid/cms/store/data/Run2017B/DoubleEG/NANOAOD/UL2017_MiniAODv2_NanoAODv9-v1/70000/83110FE1-A540-3A4B-A81C-2454A017C471.root
/eos/lyoeos.in2p3.fr/grid/cms/store/data/Run2017B/DoubleEG/NANOAOD/UL2017_MiniAODv2_NanoAODv9-v1/70000/875C8DD7-4035-9149-84F8-B387EDB8BAD0.root
/eos/lyoeos.in2p3.fr/grid/cms/store/data/Run2017B/DoubleEG/NANOAOD/UL2017_MiniAODv2_NanoAODv9-v1/70000/8819C001-BE30-DC43-86C1-58AC5C250838.root
/eos/lyoeos.in2p3.fr/grid/cms/store/data/Run2017B/DoubleEG/NANOAOD/UL2017_MiniAODv2_NanoAODv9-v1/70000/8939430E-0EF1-D045-BAE9-FB60D6FF7BAF.root
/eos/lyoeos.in2p3.fr/grid/cms/store/data/Run2017B/DoubleEG/NANOAOD/UL2017_MiniAODv2_NanoAODv9-v1/70000/9A993A1B-A7F1-FA4F-A4ED-2FA1513602E5.root
/eos/lyoeos.in2p3.fr/grid/cms/store/data/Run2017B/DoubleEG/NANOAOD/UL2017_MiniAODv2_NanoAODv9-v1/70000/9F4A8DB6-E93C-FF41-B610-05A753DA66D4.root
/eos/lyoeos.in2p3.fr/grid/cms/store/data/Run2017B/DoubleEG/NANOAOD/UL2017_MiniAODv2_NanoAODv9-v1/70000/A5303F52-EE2B-404B-B24A-42D937140830.root
/eos/lyoeos.in2p3.fr/grid/cms/store/data/Run2017B/DoubleEG/NANOAOD/UL2017_MiniAODv2_NanoAODv9-v1/70000/A58D69B2-30E1-A841-BC4B-7181EE4319A8.root
/eos/lyoeos.in2p3.fr/grid/cms/store/data/Run2017B/DoubleEG/NANOAOD/UL2017_MiniAODv2_NanoAODv9-v1/70000/A6BDB723-8B6B-0246-A9AE-2848CE22BFDD.root
/eos/lyoeos.in2p3.fr/grid/cms/store/data/Run2017B/DoubleEG/NANOAOD/UL2017_MiniAODv2_NanoAODv9-v1/70000/AA934002-6CA2-C141-B724-728F9542256D.root
/eos/lyoeos.in2p3.fr/grid/cms/store/data/Run2017B/DoubleEG/NANOAOD/UL2017_MiniAODv2_NanoAODv9-v1/70000/AFE0400F-6E99-CE4D-9CAD-2097A259E910.root
/eos/lyoeos.in2p3.fr/grid/cms/store/data/Run2017B/DoubleEG/NANOAOD/UL2017_MiniAODv2_NanoAODv9-v1/70000/B26B3614-D124-DA45-960D-CF1F18370B6A.root
/eos/lyoeos.in2p3.fr/grid/cms/store/data/Run2017B/DoubleEG/NANOAOD/UL2017_MiniAODv2_NanoAODv9-v1/70000/B447F7D4-DA4E-014D-867B-92B0A492FE76.root
/eos/lyoeos.in2p3.fr/grid/cms/store/data/Run2017B/DoubleEG/NANOAOD/UL2017_MiniAODv2_NanoAODv9-v1/70000/BB7E632C-9672-4E4C-867D-590E69A1269C.root
/eos/lyoeos.in2p3.fr/grid/cms/store/data/Run2017B/DoubleEG/NANOAOD/UL2017_MiniAODv2_NanoAODv9-v1/70000/CB6E503B-873E-5F4D-85A1-BCA368E0395F.root
/eos/lyoeos.in2p3.fr/grid/cms/store/data/Run2017B/DoubleEG/NANOAOD/UL2017_MiniAODv2_NanoAODv9-v1/70000/CFCA7A3D-1FCD-1644-97A4-27F303DDA461.root
/eos/lyoeos.in2p3.fr/grid/cms/store/data/Run2017B/DoubleEG/NANOAOD/UL2017_MiniAODv2_NanoAODv9-v1/70000/D3707E68-5015-C240-B8A6-4134B9387B09.root
