/eos/lyoeos.in2p3.fr/grid/cms/store/data/Run2017F/SingleMuon/NANOAOD/UL2017_MiniAODv2_NanoAODv9-v1/120000/00580B06-8FE2-9745-AFB9-0396DB7EE43B.root
/eos/lyoeos.in2p3.fr/grid/cms/store/data/Run2017F/SingleMuon/NANOAOD/UL2017_MiniAODv2_NanoAODv9-v1/120000/00BCFD47-03AE-1141-96E6-94E8CDEAA239.root
/eos/lyoeos.in2p3.fr/grid/cms/store/data/Run2017F/SingleMuon/NANOAOD/UL2017_MiniAODv2_NanoAODv9-v1/120000/06E01F32-C26A-2147-88BD-3388E9FBBF06.root
/eos/lyoeos.in2p3.fr/grid/cms/store/data/Run2017F/SingleMuon/NANOAOD/UL2017_MiniAODv2_NanoAODv9-v1/120000/09ABC876-B944-DE48-9C75-6E022C6015DE.root
/eos/lyoeos.in2p3.fr/grid/cms/store/data/Run2017F/SingleMuon/NANOAOD/UL2017_MiniAODv2_NanoAODv9-v1/120000/09C84590-520A-3244-8CFC-EE157AFF76E5.root
/eos/lyoeos.in2p3.fr/grid/cms/store/data/Run2017F/SingleMuon/NANOAOD/UL2017_MiniAODv2_NanoAODv9-v1/120000/0BC74691-8B79-954F-919A-F1648839AA5F.root
/eos/lyoeos.in2p3.fr/grid/cms/store/data/Run2017F/SingleMuon/NANOAOD/UL2017_MiniAODv2_NanoAODv9-v1/120000/10351EDE-1773-AB47-9F0B-9B1E26EECC28.root
/eos/lyoeos.in2p3.fr/grid/cms/store/data/Run2017F/SingleMuon/NANOAOD/UL2017_MiniAODv2_NanoAODv9-v1/120000/10841045-1680-4441-BE1D-520CC15A8A59.root
/eos/lyoeos.in2p3.fr/grid/cms/store/data/Run2017F/SingleMuon/NANOAOD/UL2017_MiniAODv2_NanoAODv9-v1/120000/13E8097C-6B31-E141-9FB8-38F2E6F0D804.root
/eos/lyoeos.in2p3.fr/grid/cms/store/data/Run2017F/SingleMuon/NANOAOD/UL2017_MiniAODv2_NanoAODv9-v1/120000/145B1D28-0081-054E-86E6-965368912821.root
/eos/lyoeos.in2p3.fr/grid/cms/store/data/Run2017F/SingleMuon/NANOAOD/UL2017_MiniAODv2_NanoAODv9-v1/120000/16C05F11-77EE-7D41-A037-00023AB633B1.root
/eos/lyoeos.in2p3.fr/grid/cms/store/data/Run2017F/SingleMuon/NANOAOD/UL2017_MiniAODv2_NanoAODv9-v1/120000/1F39C95E-3DFF-3A4D-87EF-58DE0E5AF85A.root
/eos/lyoeos.in2p3.fr/grid/cms/store/data/Run2017F/SingleMuon/NANOAOD/UL2017_MiniAODv2_NanoAODv9-v1/120000/235B32CB-C126-C540-9560-5D2572910ED9.root
/eos/lyoeos.in2p3.fr/grid/cms/store/data/Run2017F/SingleMuon/NANOAOD/UL2017_MiniAODv2_NanoAODv9-v1/120000/23941842-1959-D34F-9291-E07636C64387.root
/eos/lyoeos.in2p3.fr/grid/cms/store/data/Run2017F/SingleMuon/NANOAOD/UL2017_MiniAODv2_NanoAODv9-v1/120000/2989A80C-0330-B14F-A057-D4458E0A8BC2.root
/eos/lyoeos.in2p3.fr/grid/cms/store/data/Run2017F/SingleMuon/NANOAOD/UL2017_MiniAODv2_NanoAODv9-v1/120000/2C2BB23F-DEED-1145-856F-DAFBDD7C8E40.root
/eos/lyoeos.in2p3.fr/grid/cms/store/data/Run2017F/SingleMuon/NANOAOD/UL2017_MiniAODv2_NanoAODv9-v1/120000/2D33F703-3F36-B04A-B673-8355C0A94CCB.root
/eos/lyoeos.in2p3.fr/grid/cms/store/data/Run2017F/SingleMuon/NANOAOD/UL2017_MiniAODv2_NanoAODv9-v1/120000/3588A921-C57F-7C46-BF22-721F1A6E0F0B.root
/eos/lyoeos.in2p3.fr/grid/cms/store/data/Run2017F/SingleMuon/NANOAOD/UL2017_MiniAODv2_NanoAODv9-v1/120000/3825CE12-1D69-F345-90E0-FD1CFF4A2986.root
/eos/lyoeos.in2p3.fr/grid/cms/store/data/Run2017F/SingleMuon/NANOAOD/UL2017_MiniAODv2_NanoAODv9-v1/120000/3A646D56-27F8-D24A-AD9E-F173644A87A2.root
/eos/lyoeos.in2p3.fr/grid/cms/store/data/Run2017F/SingleMuon/NANOAOD/UL2017_MiniAODv2_NanoAODv9-v1/120000/3F6434AD-ABC9-694E-88FE-3C91F360D39B.root
/eos/lyoeos.in2p3.fr/grid/cms/store/data/Run2017F/SingleMuon/NANOAOD/UL2017_MiniAODv2_NanoAODv9-v1/120000/411755CC-576D-7446-A499-0C4C48F87230.root
/eos/lyoeos.in2p3.fr/grid/cms/store/data/Run2017F/SingleMuon/NANOAOD/UL2017_MiniAODv2_NanoAODv9-v1/120000/42040E61-7BE1-FE4A-875A-E7561CED3950.root
/eos/lyoeos.in2p3.fr/grid/cms/store/data/Run2017F/SingleMuon/NANOAOD/UL2017_MiniAODv2_NanoAODv9-v1/120000/4220CE15-8587-8D4E-B5DA-9A7E2B7A66A8.root
/eos/lyoeos.in2p3.fr/grid/cms/store/data/Run2017F/SingleMuon/NANOAOD/UL2017_MiniAODv2_NanoAODv9-v1/120000/45EE92FF-B2B8-B346-BB49-AB9FB78E5C35.root
/eos/lyoeos.in2p3.fr/grid/cms/store/data/Run2017F/SingleMuon/NANOAOD/UL2017_MiniAODv2_NanoAODv9-v1/120000/47DC91ED-8660-394D-B76B-ECD9A0A06061.root
/eos/lyoeos.in2p3.fr/grid/cms/store/data/Run2017F/SingleMuon/NANOAOD/UL2017_MiniAODv2_NanoAODv9-v1/120000/4F223630-9610-5C4D-B74E-006FE6903B8B.root
/eos/lyoeos.in2p3.fr/grid/cms/store/data/Run2017F/SingleMuon/NANOAOD/UL2017_MiniAODv2_NanoAODv9-v1/120000/50FFD058-8706-5241-AEE8-927D1C4C29FB.root
/eos/lyoeos.in2p3.fr/grid/cms/store/data/Run2017F/SingleMuon/NANOAOD/UL2017_MiniAODv2_NanoAODv9-v1/120000/5770B8E0-C002-3145-8E84-8E912F05E89B.root
/eos/lyoeos.in2p3.fr/grid/cms/store/data/Run2017F/SingleMuon/NANOAOD/UL2017_MiniAODv2_NanoAODv9-v1/120000/5A0722F2-7121-5C49-B372-D794C633E56F.root
/eos/lyoeos.in2p3.fr/grid/cms/store/data/Run2017F/SingleMuon/NANOAOD/UL2017_MiniAODv2_NanoAODv9-v1/120000/5F62FC95-A01C-8147-8A0F-F7DC0C438CDA.root
/eos/lyoeos.in2p3.fr/grid/cms/store/data/Run2017F/SingleMuon/NANOAOD/UL2017_MiniAODv2_NanoAODv9-v1/120000/624DA7B1-6334-F94E-9666-17498DCD02AE.root
/eos/lyoeos.in2p3.fr/grid/cms/store/data/Run2017F/SingleMuon/NANOAOD/UL2017_MiniAODv2_NanoAODv9-v1/120000/6919B4D6-6E36-CC46-B73D-5CD028389FD4.root
/eos/lyoeos.in2p3.fr/grid/cms/store/data/Run2017F/SingleMuon/NANOAOD/UL2017_MiniAODv2_NanoAODv9-v1/120000/6D86AAD9-F187-6D4B-9B26-175F6EEE13BA.root
/eos/lyoeos.in2p3.fr/grid/cms/store/data/Run2017F/SingleMuon/NANOAOD/UL2017_MiniAODv2_NanoAODv9-v1/120000/6FE5EF24-7C10-614F-BA84-1D80D5B80F5A.root
/eos/lyoeos.in2p3.fr/grid/cms/store/data/Run2017F/SingleMuon/NANOAOD/UL2017_MiniAODv2_NanoAODv9-v1/120000/7C02E4C9-F8B9-0049-8593-139A22D22411.root
/eos/lyoeos.in2p3.fr/grid/cms/store/data/Run2017F/SingleMuon/NANOAOD/UL2017_MiniAODv2_NanoAODv9-v1/120000/82436312-AB4C-D547-839F-30F79025E9FF.root
/eos/lyoeos.in2p3.fr/grid/cms/store/data/Run2017F/SingleMuon/NANOAOD/UL2017_MiniAODv2_NanoAODv9-v1/120000/88FFAAB2-C49F-2746-80FC-262F106560A9.root
/eos/lyoeos.in2p3.fr/grid/cms/store/data/Run2017F/SingleMuon/NANOAOD/UL2017_MiniAODv2_NanoAODv9-v1/120000/8C9FAC44-6380-4748-9FC4-32D1A8B2FC7C.root
/eos/lyoeos.in2p3.fr/grid/cms/store/data/Run2017F/SingleMuon/NANOAOD/UL2017_MiniAODv2_NanoAODv9-v1/120000/8CF32784-8ACB-6B41-9DF8-B96AD7D0621D.root
/eos/lyoeos.in2p3.fr/grid/cms/store/data/Run2017F/SingleMuon/NANOAOD/UL2017_MiniAODv2_NanoAODv9-v1/120000/8F1AF51B-87F8-5741-9852-78BF5F767677.root
/eos/lyoeos.in2p3.fr/grid/cms/store/data/Run2017F/SingleMuon/NANOAOD/UL2017_MiniAODv2_NanoAODv9-v1/120000/944E6637-FB32-0D41-984A-CDC5699BE527.root
/eos/lyoeos.in2p3.fr/grid/cms/store/data/Run2017F/SingleMuon/NANOAOD/UL2017_MiniAODv2_NanoAODv9-v1/120000/948101D5-7C6F-CE4F-9509-1B5DA74F6680.root
/eos/lyoeos.in2p3.fr/grid/cms/store/data/Run2017F/SingleMuon/NANOAOD/UL2017_MiniAODv2_NanoAODv9-v1/120000/97D68592-17AB-7445-8E75-63D330C32032.root
/eos/lyoeos.in2p3.fr/grid/cms/store/data/Run2017F/SingleMuon/NANOAOD/UL2017_MiniAODv2_NanoAODv9-v1/120000/9EB5F0D1-2574-0F4D-BA40-548055340F5E.root
/eos/lyoeos.in2p3.fr/grid/cms/store/data/Run2017F/SingleMuon/NANOAOD/UL2017_MiniAODv2_NanoAODv9-v1/120000/A494D99C-4EBB-AB4E-992F-716E25ED0786.root
/eos/lyoeos.in2p3.fr/grid/cms/store/data/Run2017F/SingleMuon/NANOAOD/UL2017_MiniAODv2_NanoAODv9-v1/120000/A650B2BD-EB88-9545-BAB0-46FDB23C97BD.root
/eos/lyoeos.in2p3.fr/grid/cms/store/data/Run2017F/SingleMuon/NANOAOD/UL2017_MiniAODv2_NanoAODv9-v1/120000/B2635A61-359F-DE44-9CD8-AF1D6177C93A.root
/eos/lyoeos.in2p3.fr/grid/cms/store/data/Run2017F/SingleMuon/NANOAOD/UL2017_MiniAODv2_NanoAODv9-v1/120000/B27165CA-AAFB-B34E-A6E8-DD9CB5DB996A.root
/eos/lyoeos.in2p3.fr/grid/cms/store/data/Run2017F/SingleMuon/NANOAOD/UL2017_MiniAODv2_NanoAODv9-v1/120000/BC8073AF-CAAA-484A-B3F0-4724FF1B962E.root
/eos/lyoeos.in2p3.fr/grid/cms/store/data/Run2017F/SingleMuon/NANOAOD/UL2017_MiniAODv2_NanoAODv9-v1/120000/C416595A-562C-4F49-A6D1-122FE7192DF3.root
/eos/lyoeos.in2p3.fr/grid/cms/store/data/Run2017F/SingleMuon/NANOAOD/UL2017_MiniAODv2_NanoAODv9-v1/120000/CD9DAA64-CB2C-1D40-8000-0B0E15B712C6.root
/eos/lyoeos.in2p3.fr/grid/cms/store/data/Run2017F/SingleMuon/NANOAOD/UL2017_MiniAODv2_NanoAODv9-v1/120000/D243CD5E-CA37-1F46-BA5E-CF615B6A9261.root
/eos/lyoeos.in2p3.fr/grid/cms/store/data/Run2017F/SingleMuon/NANOAOD/UL2017_MiniAODv2_NanoAODv9-v1/120000/D8D1734C-646F-9A4F-B6E6-E0F4677235C3.root
/eos/lyoeos.in2p3.fr/grid/cms/store/data/Run2017F/SingleMuon/NANOAOD/UL2017_MiniAODv2_NanoAODv9-v1/120000/DC79C0AE-35B2-694C-B2E1-F505104E0439.root
/eos/lyoeos.in2p3.fr/grid/cms/store/data/Run2017F/SingleMuon/NANOAOD/UL2017_MiniAODv2_NanoAODv9-v1/120000/DDC5F60F-0F0B-AC42-8711-1552D51CB2A5.root
/eos/lyoeos.in2p3.fr/grid/cms/store/data/Run2017F/SingleMuon/NANOAOD/UL2017_MiniAODv2_NanoAODv9-v1/120000/E35DA848-B117-CC42-BCB9-A5B50640FBF8.root
/eos/lyoeos.in2p3.fr/grid/cms/store/data/Run2017F/SingleMuon/NANOAOD/UL2017_MiniAODv2_NanoAODv9-v1/120000/E540DF0D-BBF8-CA4F-9560-69ADFC15E2B9.root
/eos/lyoeos.in2p3.fr/grid/cms/store/data/Run2017F/SingleMuon/NANOAOD/UL2017_MiniAODv2_NanoAODv9-v1/120000/EB3C855A-FD35-FD48-AA51-130E5385BD46.root
/eos/lyoeos.in2p3.fr/grid/cms/store/data/Run2017F/SingleMuon/NANOAOD/UL2017_MiniAODv2_NanoAODv9-v1/120000/F2107572-A7F3-C841-AC53-A541A940143D.root
/eos/lyoeos.in2p3.fr/grid/cms/store/data/Run2017F/SingleMuon/NANOAOD/UL2017_MiniAODv2_NanoAODv9-v1/120000/F425B79F-66E9-9840-8285-9A5EFE53D1B9.root
/eos/lyoeos.in2p3.fr/grid/cms/store/data/Run2017F/SingleMuon/NANOAOD/UL2017_MiniAODv2_NanoAODv9-v1/120000/F5965FC3-2085-EC4C-A2CB-A28228CD242C.root
/eos/lyoeos.in2p3.fr/grid/cms/store/data/Run2017F/SingleMuon/NANOAOD/UL2017_MiniAODv2_NanoAODv9-v1/120000/F7C79753-8A17-254C-ACAA-F374B7075038.root
/eos/lyoeos.in2p3.fr/grid/cms/store/data/Run2017F/SingleMuon/NANOAOD/UL2017_MiniAODv2_NanoAODv9-v1/120000/FE2C9D05-9EDB-E745-A828-96D116D619D1.root
/eos/lyoeos.in2p3.fr/grid/cms/store/data/Run2017F/SingleMuon/NANOAOD/UL2017_MiniAODv2_NanoAODv9-v1/2810000/8975CB0E-157E-9345-8C54-EBC401F7787D.root
/eos/lyoeos.in2p3.fr/grid/cms/store/data/Run2017F/SingleMuon/NANOAOD/UL2017_MiniAODv2_NanoAODv9-v1/70000/05CB9E42-D5CA-1C4D-8E1D-A58926638037.root
/eos/lyoeos.in2p3.fr/grid/cms/store/data/Run2017F/SingleMuon/NANOAOD/UL2017_MiniAODv2_NanoAODv9-v1/70000/060DFA7E-9960-194F-A042-BB71691DAE26.root
/eos/lyoeos.in2p3.fr/grid/cms/store/data/Run2017F/SingleMuon/NANOAOD/UL2017_MiniAODv2_NanoAODv9-v1/70000/098E81CE-AA6C-9C4E-9DE9-8DE927DBD43A.root
/eos/lyoeos.in2p3.fr/grid/cms/store/data/Run2017F/SingleMuon/NANOAOD/UL2017_MiniAODv2_NanoAODv9-v1/70000/12763537-4D81-614C-929C-1D4584F3862C.root
/eos/lyoeos.in2p3.fr/grid/cms/store/data/Run2017F/SingleMuon/NANOAOD/UL2017_MiniAODv2_NanoAODv9-v1/70000/13E539D5-E826-924F-A182-9F2C7D602EDF.root
/eos/lyoeos.in2p3.fr/grid/cms/store/data/Run2017F/SingleMuon/NANOAOD/UL2017_MiniAODv2_NanoAODv9-v1/70000/1F0CBF60-56DC-634A-980D-85DD3F3B0669.root
/eos/lyoeos.in2p3.fr/grid/cms/store/data/Run2017F/SingleMuon/NANOAOD/UL2017_MiniAODv2_NanoAODv9-v1/70000/2361E15E-A4D4-5444-A5A0-B4B75F1674DA.root
/eos/lyoeos.in2p3.fr/grid/cms/store/data/Run2017F/SingleMuon/NANOAOD/UL2017_MiniAODv2_NanoAODv9-v1/70000/27E3E726-23EE-6744-95B5-692CF9A7A115.root
/eos/lyoeos.in2p3.fr/grid/cms/store/data/Run2017F/SingleMuon/NANOAOD/UL2017_MiniAODv2_NanoAODv9-v1/70000/2D83BB0D-417E-3947-B19F-CE5855C6AE9F.root
/eos/lyoeos.in2p3.fr/grid/cms/store/data/Run2017F/SingleMuon/NANOAOD/UL2017_MiniAODv2_NanoAODv9-v1/70000/2DB49388-3945-644E-8C7F-6797465430D6.root
/eos/lyoeos.in2p3.fr/grid/cms/store/data/Run2017F/SingleMuon/NANOAOD/UL2017_MiniAODv2_NanoAODv9-v1/70000/32854775-9365-4A4F-A81A-D69D626BF6C9.root
/eos/lyoeos.in2p3.fr/grid/cms/store/data/Run2017F/SingleMuon/NANOAOD/UL2017_MiniAODv2_NanoAODv9-v1/70000/43CAB6DE-DFEB-7F4C-9EDA-4FF4C11A8251.root
/eos/lyoeos.in2p3.fr/grid/cms/store/data/Run2017F/SingleMuon/NANOAOD/UL2017_MiniAODv2_NanoAODv9-v1/70000/43D45F2F-2EF7-924E-AB8B-8A09543CBFE2.root
/eos/lyoeos.in2p3.fr/grid/cms/store/data/Run2017F/SingleMuon/NANOAOD/UL2017_MiniAODv2_NanoAODv9-v1/70000/4933804D-64D9-2B45-97FA-64807A5FBFE2.root
/eos/lyoeos.in2p3.fr/grid/cms/store/data/Run2017F/SingleMuon/NANOAOD/UL2017_MiniAODv2_NanoAODv9-v1/70000/49D2BF27-3C44-114B-B73F-025A5AEEDB6C.root
/eos/lyoeos.in2p3.fr/grid/cms/store/data/Run2017F/SingleMuon/NANOAOD/UL2017_MiniAODv2_NanoAODv9-v1/70000/4C82197E-D39D-FB40-87C3-775DD872CB3C.root
/eos/lyoeos.in2p3.fr/grid/cms/store/data/Run2017F/SingleMuon/NANOAOD/UL2017_MiniAODv2_NanoAODv9-v1/70000/4D191380-E19E-8344-A04E-B99E8BA59F76.root
/eos/lyoeos.in2p3.fr/grid/cms/store/data/Run2017F/SingleMuon/NANOAOD/UL2017_MiniAODv2_NanoAODv9-v1/70000/4FC84F6A-DA32-4845-95A8-4D2F2EB2CB96.root
/eos/lyoeos.in2p3.fr/grid/cms/store/data/Run2017F/SingleMuon/NANOAOD/UL2017_MiniAODv2_NanoAODv9-v1/70000/586A6A3A-FB79-E549-81D8-6CE78FEEBBD9.root
/eos/lyoeos.in2p3.fr/grid/cms/store/data/Run2017F/SingleMuon/NANOAOD/UL2017_MiniAODv2_NanoAODv9-v1/70000/5908FBED-1EAA-0B44-93B9-CBBD4E039031.root
/eos/lyoeos.in2p3.fr/grid/cms/store/data/Run2017F/SingleMuon/NANOAOD/UL2017_MiniAODv2_NanoAODv9-v1/70000/62316665-0CEF-8A47-8435-080409A4BA03.root
/eos/lyoeos.in2p3.fr/grid/cms/store/data/Run2017F/SingleMuon/NANOAOD/UL2017_MiniAODv2_NanoAODv9-v1/70000/63979B5D-003F-2E4A-8257-2D1CE0399E45.root
/eos/lyoeos.in2p3.fr/grid/cms/store/data/Run2017F/SingleMuon/NANOAOD/UL2017_MiniAODv2_NanoAODv9-v1/70000/66BC8418-587D-8E4A-9306-7A5D58FDE28F.root
/eos/lyoeos.in2p3.fr/grid/cms/store/data/Run2017F/SingleMuon/NANOAOD/UL2017_MiniAODv2_NanoAODv9-v1/70000/6A31DBC8-3B12-D846-B6CB-FADD8EC5968A.root
/eos/lyoeos.in2p3.fr/grid/cms/store/data/Run2017F/SingleMuon/NANOAOD/UL2017_MiniAODv2_NanoAODv9-v1/70000/6EAAC6CC-7459-3E4E-929F-BBC36A4EDF34.root
/eos/lyoeos.in2p3.fr/grid/cms/store/data/Run2017F/SingleMuon/NANOAOD/UL2017_MiniAODv2_NanoAODv9-v1/70000/7DD043B0-7BA1-4D46-B5D2-AA9AFEEC44D5.root
/eos/lyoeos.in2p3.fr/grid/cms/store/data/Run2017F/SingleMuon/NANOAOD/UL2017_MiniAODv2_NanoAODv9-v1/70000/88B1921A-18F5-3847-A293-A091AE3298C3.root
/eos/lyoeos.in2p3.fr/grid/cms/store/data/Run2017F/SingleMuon/NANOAOD/UL2017_MiniAODv2_NanoAODv9-v1/70000/8A36269D-886B-C34C-A3F6-834B35219543.root
/eos/lyoeos.in2p3.fr/grid/cms/store/data/Run2017F/SingleMuon/NANOAOD/UL2017_MiniAODv2_NanoAODv9-v1/70000/8ED1676C-D06A-8349-9E8B-F453765A3C55.root
/eos/lyoeos.in2p3.fr/grid/cms/store/data/Run2017F/SingleMuon/NANOAOD/UL2017_MiniAODv2_NanoAODv9-v1/70000/959D3CD3-9AEC-094C-86E9-3631C361FDD0.root
/eos/lyoeos.in2p3.fr/grid/cms/store/data/Run2017F/SingleMuon/NANOAOD/UL2017_MiniAODv2_NanoAODv9-v1/70000/971EC61F-933C-9047-8591-63433C021279.root
/eos/lyoeos.in2p3.fr/grid/cms/store/data/Run2017F/SingleMuon/NANOAOD/UL2017_MiniAODv2_NanoAODv9-v1/70000/97470436-0BE9-444D-95D1-D2CF0252AA0D.root
/eos/lyoeos.in2p3.fr/grid/cms/store/data/Run2017F/SingleMuon/NANOAOD/UL2017_MiniAODv2_NanoAODv9-v1/70000/AD7D908F-C77D-054C-9BC3-632A2DDE36BA.root
/eos/lyoeos.in2p3.fr/grid/cms/store/data/Run2017F/SingleMuon/NANOAOD/UL2017_MiniAODv2_NanoAODv9-v1/70000/B05797C1-3B39-274B-8C5C-C0FC46A1D867.root
/eos/lyoeos.in2p3.fr/grid/cms/store/data/Run2017F/SingleMuon/NANOAOD/UL2017_MiniAODv2_NanoAODv9-v1/70000/B7B68CFE-598D-CC40-A728-ADF4E4F7E253.root
/eos/lyoeos.in2p3.fr/grid/cms/store/data/Run2017F/SingleMuon/NANOAOD/UL2017_MiniAODv2_NanoAODv9-v1/70000/C915C996-47CB-524A-94C5-B5A12216FA8A.root
/eos/lyoeos.in2p3.fr/grid/cms/store/data/Run2017F/SingleMuon/NANOAOD/UL2017_MiniAODv2_NanoAODv9-v1/70000/D178DD31-F942-C349-A6C0-9D45A5C3AF36.root
/eos/lyoeos.in2p3.fr/grid/cms/store/data/Run2017F/SingleMuon/NANOAOD/UL2017_MiniAODv2_NanoAODv9-v1/70000/DA6ED5FE-A2E9-ED43-ACDE-1D5B9FC7F3F3.root
/eos/lyoeos.in2p3.fr/grid/cms/store/data/Run2017F/SingleMuon/NANOAOD/UL2017_MiniAODv2_NanoAODv9-v1/70000/E31598A1-DF54-8846-B20B-6579230D64C6.root
/eos/lyoeos.in2p3.fr/grid/cms/store/data/Run2017F/SingleMuon/NANOAOD/UL2017_MiniAODv2_NanoAODv9-v1/70000/E756D53A-A879-374A-B6A7-F0E718FA81D7.root
/eos/lyoeos.in2p3.fr/grid/cms/store/data/Run2017F/SingleMuon/NANOAOD/UL2017_MiniAODv2_NanoAODv9-v1/70000/E81A216D-77EF-BA46-8CD0-F5181432E0B6.root
/eos/lyoeos.in2p3.fr/grid/cms/store/data/Run2017F/SingleMuon/NANOAOD/UL2017_MiniAODv2_NanoAODv9-v1/70000/EA647035-48A7-7347-B03F-A662098B8E77.root
/eos/lyoeos.in2p3.fr/grid/cms/store/data/Run2017F/SingleMuon/NANOAOD/UL2017_MiniAODv2_NanoAODv9-v1/70000/EAA78B71-F906-7E41-AD95-AE7D308FCF44.root
/eos/lyoeos.in2p3.fr/grid/cms/store/data/Run2017F/SingleMuon/NANOAOD/UL2017_MiniAODv2_NanoAODv9-v1/70000/EBED4E36-03EF-5443-B577-2BE1ECD6743A.root
/eos/lyoeos.in2p3.fr/grid/cms/store/data/Run2017F/SingleMuon/NANOAOD/UL2017_MiniAODv2_NanoAODv9-v1/70000/F1DADF35-E4FE-0549-B061-AA63FE0AE9BF.root
/eos/lyoeos.in2p3.fr/grid/cms/store/data/Run2017F/SingleMuon/NANOAOD/UL2017_MiniAODv2_NanoAODv9-v1/70000/F28FF9EA-7E9B-174D-912F-0D632F140229.root
/eos/lyoeos.in2p3.fr/grid/cms/store/data/Run2017F/SingleMuon/NANOAOD/UL2017_MiniAODv2_NanoAODv9-v1/70000/F2B47807-DA91-5C46-B764-32D3786AF46E.root
/eos/lyoeos.in2p3.fr/grid/cms/store/data/Run2017F/SingleMuon/NANOAOD/UL2017_MiniAODv2_NanoAODv9-v1/70000/F96EC581-6F34-2749-9D01-F2A45A3DF552.root
/eos/lyoeos.in2p3.fr/grid/cms/store/data/Run2017F/SingleMuon/NANOAOD/UL2017_MiniAODv2_NanoAODv9-v1/70000/FC0DFC16-1564-4D4C-BA3D-E79CCAE9A092.root
/eos/lyoeos.in2p3.fr/grid/cms/store/data/Run2017F/SingleMuon/NANOAOD/UL2017_MiniAODv2_NanoAODv9-v1/70000/FE8EA623-2765-BD41-828F-FB7C54DDECAC.root
