/eos/lyoeos.in2p3.fr/grid/cms/store/data/Run2017F/SingleElectron/NANOAOD/UL2017_MiniAODv2_NanoAODv9-v1/120000/03370C44-0BE5-8A48-8D61-755DD5F87687.root
/eos/lyoeos.in2p3.fr/grid/cms/store/data/Run2017F/SingleElectron/NANOAOD/UL2017_MiniAODv2_NanoAODv9-v1/120000/09368324-0E3B-7341-969A-5C51BF90FE53.root
/eos/lyoeos.in2p3.fr/grid/cms/store/data/Run2017F/SingleElectron/NANOAOD/UL2017_MiniAODv2_NanoAODv9-v1/120000/0FE62338-6862-4742-AD1F-3527F17F1258.root
/eos/lyoeos.in2p3.fr/grid/cms/store/data/Run2017F/SingleElectron/NANOAOD/UL2017_MiniAODv2_NanoAODv9-v1/120000/2364594B-65E7-9447-9BE6-E15EECF954F9.root
/eos/lyoeos.in2p3.fr/grid/cms/store/data/Run2017F/SingleElectron/NANOAOD/UL2017_MiniAODv2_NanoAODv9-v1/120000/25B6FB9D-29A6-7048-BE18-23A9D0418583.root
/eos/lyoeos.in2p3.fr/grid/cms/store/data/Run2017F/SingleElectron/NANOAOD/UL2017_MiniAODv2_NanoAODv9-v1/120000/2C39E52F-5BFA-FB49-A386-C79CF1343E05.root
/eos/lyoeos.in2p3.fr/grid/cms/store/data/Run2017F/SingleElectron/NANOAOD/UL2017_MiniAODv2_NanoAODv9-v1/120000/2E4EA680-7699-ED48-8339-789503E03AB7.root
/eos/lyoeos.in2p3.fr/grid/cms/store/data/Run2017F/SingleElectron/NANOAOD/UL2017_MiniAODv2_NanoAODv9-v1/120000/32DDE6CB-DAFE-2A4A-80BE-9076C9254897.root
/eos/lyoeos.in2p3.fr/grid/cms/store/data/Run2017F/SingleElectron/NANOAOD/UL2017_MiniAODv2_NanoAODv9-v1/120000/3B75FE60-5A68-3443-82EE-3C8813D856C2.root
/eos/lyoeos.in2p3.fr/grid/cms/store/data/Run2017F/SingleElectron/NANOAOD/UL2017_MiniAODv2_NanoAODv9-v1/120000/43B21CD5-D7F4-224C-ADA3-436669D0C8FD.root
/eos/lyoeos.in2p3.fr/grid/cms/store/data/Run2017F/SingleElectron/NANOAOD/UL2017_MiniAODv2_NanoAODv9-v1/120000/53F81236-4833-8141-9B8F-CFE2F4FF89E3.root
/eos/lyoeos.in2p3.fr/grid/cms/store/data/Run2017F/SingleElectron/NANOAOD/UL2017_MiniAODv2_NanoAODv9-v1/120000/5A36A6F5-0CD8-7D4D-86D4-AB6F9F672E21.root
/eos/lyoeos.in2p3.fr/grid/cms/store/data/Run2017F/SingleElectron/NANOAOD/UL2017_MiniAODv2_NanoAODv9-v1/120000/5A447EFB-8996-4249-8F49-A805EFC39CC6.root
/eos/lyoeos.in2p3.fr/grid/cms/store/data/Run2017F/SingleElectron/NANOAOD/UL2017_MiniAODv2_NanoAODv9-v1/120000/625F3685-EB13-1E4A-BDC3-C38386181B28.root
/eos/lyoeos.in2p3.fr/grid/cms/store/data/Run2017F/SingleElectron/NANOAOD/UL2017_MiniAODv2_NanoAODv9-v1/120000/687DDD3D-8A00-DA4A-AA20-08A61BB4FAF6.root
/eos/lyoeos.in2p3.fr/grid/cms/store/data/Run2017F/SingleElectron/NANOAOD/UL2017_MiniAODv2_NanoAODv9-v1/120000/6C59AFF6-2285-5244-828C-6B41895D5158.root
/eos/lyoeos.in2p3.fr/grid/cms/store/data/Run2017F/SingleElectron/NANOAOD/UL2017_MiniAODv2_NanoAODv9-v1/120000/787F6F68-09EF-A745-A162-39356C2EF0D2.root
/eos/lyoeos.in2p3.fr/grid/cms/store/data/Run2017F/SingleElectron/NANOAOD/UL2017_MiniAODv2_NanoAODv9-v1/120000/7990B7C4-0663-9247-8A1A-7938463EE83B.root
/eos/lyoeos.in2p3.fr/grid/cms/store/data/Run2017F/SingleElectron/NANOAOD/UL2017_MiniAODv2_NanoAODv9-v1/120000/82A8CB8F-B4D7-8B47-A355-0913B9837955.root
/eos/lyoeos.in2p3.fr/grid/cms/store/data/Run2017F/SingleElectron/NANOAOD/UL2017_MiniAODv2_NanoAODv9-v1/120000/83A0B05F-BA13-0849-B0FE-F5E958F2DE35.root
/eos/lyoeos.in2p3.fr/grid/cms/store/data/Run2017F/SingleElectron/NANOAOD/UL2017_MiniAODv2_NanoAODv9-v1/120000/83AEB212-93FF-6E4F-9763-1565F01FD851.root
/eos/lyoeos.in2p3.fr/grid/cms/store/data/Run2017F/SingleElectron/NANOAOD/UL2017_MiniAODv2_NanoAODv9-v1/120000/85777DFB-B0B6-7F45-BC1B-4C3FE30F781A.root
/eos/lyoeos.in2p3.fr/grid/cms/store/data/Run2017F/SingleElectron/NANOAOD/UL2017_MiniAODv2_NanoAODv9-v1/120000/887496A9-0A66-4745-9B93-1B9457E206E3.root
/eos/lyoeos.in2p3.fr/grid/cms/store/data/Run2017F/SingleElectron/NANOAOD/UL2017_MiniAODv2_NanoAODv9-v1/120000/89991698-A564-1D41-A5E9-8E836FBAE5BF.root
/eos/lyoeos.in2p3.fr/grid/cms/store/data/Run2017F/SingleElectron/NANOAOD/UL2017_MiniAODv2_NanoAODv9-v1/120000/8F18231C-E8BE-0B4D-9E85-4BEE739F8534.root
/eos/lyoeos.in2p3.fr/grid/cms/store/data/Run2017F/SingleElectron/NANOAOD/UL2017_MiniAODv2_NanoAODv9-v1/120000/9B97AFAF-F3D5-574C-BD64-2A31E111E7EB.root
/eos/lyoeos.in2p3.fr/grid/cms/store/data/Run2017F/SingleElectron/NANOAOD/UL2017_MiniAODv2_NanoAODv9-v1/120000/9BBE6608-9BDB-6E49-BBAF-A7E67CAF96C7.root
/eos/lyoeos.in2p3.fr/grid/cms/store/data/Run2017F/SingleElectron/NANOAOD/UL2017_MiniAODv2_NanoAODv9-v1/120000/9D93FBDF-C9F8-7643-A257-765D00B20ACB.root
/eos/lyoeos.in2p3.fr/grid/cms/store/data/Run2017F/SingleElectron/NANOAOD/UL2017_MiniAODv2_NanoAODv9-v1/120000/A1837A70-F02C-B544-88F7-884A84C2BED6.root
/eos/lyoeos.in2p3.fr/grid/cms/store/data/Run2017F/SingleElectron/NANOAOD/UL2017_MiniAODv2_NanoAODv9-v1/120000/A1853F00-0022-EA4D-A585-57FB2C0F7035.root
/eos/lyoeos.in2p3.fr/grid/cms/store/data/Run2017F/SingleElectron/NANOAOD/UL2017_MiniAODv2_NanoAODv9-v1/120000/A2884ADD-F775-494F-9A4D-1CDFDEC6B958.root
/eos/lyoeos.in2p3.fr/grid/cms/store/data/Run2017F/SingleElectron/NANOAOD/UL2017_MiniAODv2_NanoAODv9-v1/120000/AD559F6C-D830-974B-A1E3-350FB51DE99A.root
/eos/lyoeos.in2p3.fr/grid/cms/store/data/Run2017F/SingleElectron/NANOAOD/UL2017_MiniAODv2_NanoAODv9-v1/120000/B5CC728C-62BA-5C43-BB97-CAD9CE8C6032.root
/eos/lyoeos.in2p3.fr/grid/cms/store/data/Run2017F/SingleElectron/NANOAOD/UL2017_MiniAODv2_NanoAODv9-v1/120000/B759A711-D65C-CF4C-822E-C8E6DA8D64F0.root
/eos/lyoeos.in2p3.fr/grid/cms/store/data/Run2017F/SingleElectron/NANOAOD/UL2017_MiniAODv2_NanoAODv9-v1/120000/C35417EA-21B0-7448-967B-FCC21B59F245.root
/eos/lyoeos.in2p3.fr/grid/cms/store/data/Run2017F/SingleElectron/NANOAOD/UL2017_MiniAODv2_NanoAODv9-v1/120000/C516E90F-F423-744F-B29F-C340262EE205.root
/eos/lyoeos.in2p3.fr/grid/cms/store/data/Run2017F/SingleElectron/NANOAOD/UL2017_MiniAODv2_NanoAODv9-v1/120000/C5E3595E-2901-234C-BD6C-D701670B19D3.root
/eos/lyoeos.in2p3.fr/grid/cms/store/data/Run2017F/SingleElectron/NANOAOD/UL2017_MiniAODv2_NanoAODv9-v1/120000/C68E8C0B-CAE8-D14A-B007-DEC00B15B35C.root
/eos/lyoeos.in2p3.fr/grid/cms/store/data/Run2017F/SingleElectron/NANOAOD/UL2017_MiniAODv2_NanoAODv9-v1/120000/C7EDF40E-F11B-2C4B-B97D-BDE2C94A5BCF.root
/eos/lyoeos.in2p3.fr/grid/cms/store/data/Run2017F/SingleElectron/NANOAOD/UL2017_MiniAODv2_NanoAODv9-v1/120000/CED5C45E-FC70-9F46-AD1E-F64DC25A15F0.root
/eos/lyoeos.in2p3.fr/grid/cms/store/data/Run2017F/SingleElectron/NANOAOD/UL2017_MiniAODv2_NanoAODv9-v1/120000/D8C6DA9A-577B-2340-A204-CA904F5861A5.root
/eos/lyoeos.in2p3.fr/grid/cms/store/data/Run2017F/SingleElectron/NANOAOD/UL2017_MiniAODv2_NanoAODv9-v1/120000/E0F90798-0BB7-FB4C-88B6-7B01C5A29429.root
/eos/lyoeos.in2p3.fr/grid/cms/store/data/Run2017F/SingleElectron/NANOAOD/UL2017_MiniAODv2_NanoAODv9-v1/120000/E23AFC79-7A4F-4944-B8B7-9A615AA2F9FE.root
/eos/lyoeos.in2p3.fr/grid/cms/store/data/Run2017F/SingleElectron/NANOAOD/UL2017_MiniAODv2_NanoAODv9-v1/120000/E5C2DD08-1314-6C48-A85C-76EF4550FE5C.root
/eos/lyoeos.in2p3.fr/grid/cms/store/data/Run2017F/SingleElectron/NANOAOD/UL2017_MiniAODv2_NanoAODv9-v1/120000/EABC1349-29BE-3546-A2E8-F0548EFECEE8.root
/eos/lyoeos.in2p3.fr/grid/cms/store/data/Run2017F/SingleElectron/NANOAOD/UL2017_MiniAODv2_NanoAODv9-v1/120000/F302B85D-9B6D-8345-9A95-E810964BBCB2.root
/eos/lyoeos.in2p3.fr/grid/cms/store/data/Run2017F/SingleElectron/NANOAOD/UL2017_MiniAODv2_NanoAODv9-v1/120000/F3DDD0A0-D9D6-C94A-98E1-207533AB9847.root
/eos/lyoeos.in2p3.fr/grid/cms/store/data/Run2017F/SingleElectron/NANOAOD/UL2017_MiniAODv2_NanoAODv9-v1/120000/F7082F2F-5A06-A243-8707-5A9A1598ED2E.root
/eos/lyoeos.in2p3.fr/grid/cms/store/data/Run2017F/SingleElectron/NANOAOD/UL2017_MiniAODv2_NanoAODv9-v1/120000/FBD2DCE0-42BD-E34E-B4E2-15939EFA48A8.root
/eos/lyoeos.in2p3.fr/grid/cms/store/data/Run2017F/SingleElectron/NANOAOD/UL2017_MiniAODv2_NanoAODv9-v1/70000/2AFF6ABD-D106-1642-9281-EF342B1C6B19.root
/eos/lyoeos.in2p3.fr/grid/cms/store/data/Run2017F/SingleElectron/NANOAOD/UL2017_MiniAODv2_NanoAODv9-v1/70000/2CF1F12A-F27A-AA48-B10F-B1414E63073B.root
/eos/lyoeos.in2p3.fr/grid/cms/store/data/Run2017F/SingleElectron/NANOAOD/UL2017_MiniAODv2_NanoAODv9-v1/70000/2FD0C5F8-F6BC-D649-BD6D-EAE81BCB53A3.root
/eos/lyoeos.in2p3.fr/grid/cms/store/data/Run2017F/SingleElectron/NANOAOD/UL2017_MiniAODv2_NanoAODv9-v1/70000/3CCFC802-97AF-3243-A6BA-6FFD22ED1BBA.root
/eos/lyoeos.in2p3.fr/grid/cms/store/data/Run2017F/SingleElectron/NANOAOD/UL2017_MiniAODv2_NanoAODv9-v1/70000/4AD4E183-FEBC-594B-9FC2-003228D09391.root
/eos/lyoeos.in2p3.fr/grid/cms/store/data/Run2017F/SingleElectron/NANOAOD/UL2017_MiniAODv2_NanoAODv9-v1/70000/7B833F39-B612-C448-84AF-8F79C12B66F1.root
/eos/lyoeos.in2p3.fr/grid/cms/store/data/Run2017F/SingleElectron/NANOAOD/UL2017_MiniAODv2_NanoAODv9-v1/70000/92E917D0-B809-5444-94FC-2B4485300FE3.root
/eos/lyoeos.in2p3.fr/grid/cms/store/data/Run2017F/SingleElectron/NANOAOD/UL2017_MiniAODv2_NanoAODv9-v1/70000/96EEC782-6B29-3E42-A2EA-4DB1D6917400.root
/eos/lyoeos.in2p3.fr/grid/cms/store/data/Run2017F/SingleElectron/NANOAOD/UL2017_MiniAODv2_NanoAODv9-v1/70000/99EE01B5-0EAE-134F-A736-C4310BCE1E86.root
/eos/lyoeos.in2p3.fr/grid/cms/store/data/Run2017F/SingleElectron/NANOAOD/UL2017_MiniAODv2_NanoAODv9-v1/70000/A55B0A83-F283-6440-A542-5009E7E20456.root
/eos/lyoeos.in2p3.fr/grid/cms/store/data/Run2017F/SingleElectron/NANOAOD/UL2017_MiniAODv2_NanoAODv9-v1/70000/C752657C-1C65-0D48-81E1-845DE15405A3.root
/eos/lyoeos.in2p3.fr/grid/cms/store/data/Run2017F/SingleElectron/NANOAOD/UL2017_MiniAODv2_NanoAODv9-v1/70000/CB31ACE8-6939-FF43-A31D-D9CB594E4575.root
/eos/lyoeos.in2p3.fr/grid/cms/store/data/Run2017F/SingleElectron/NANOAOD/UL2017_MiniAODv2_NanoAODv9-v1/70000/CC6EA19C-8181-6A4D-A95E-EA29B6A3AA2D.root
/eos/lyoeos.in2p3.fr/grid/cms/store/data/Run2017F/SingleElectron/NANOAOD/UL2017_MiniAODv2_NanoAODv9-v1/70000/D4B4F2B5-279A-AD44-BCAC-10C96558CA01.root
/eos/lyoeos.in2p3.fr/grid/cms/store/data/Run2017F/SingleElectron/NANOAOD/UL2017_MiniAODv2_NanoAODv9-v1/70000/D60F482D-C098-C241-984D-5BF74A5CAA6F.root
/eos/lyoeos.in2p3.fr/grid/cms/store/data/Run2017F/SingleElectron/NANOAOD/UL2017_MiniAODv2_NanoAODv9-v1/70000/D6930A1F-E21C-B54E-9B28-39D52FDA11AE.root
/eos/lyoeos.in2p3.fr/grid/cms/store/data/Run2017F/SingleElectron/NANOAOD/UL2017_MiniAODv2_NanoAODv9-v1/70000/D8F0FDFD-6815-304B-9E62-9A4A0BE868B8.root
