/eos/lyoeos.in2p3.fr/grid/cms/store/data/Run2017C/SingleMuon/NANOAOD/UL2017_MiniAODv2_NanoAODv9-v1/120000/037CED2F-27B3-DB4A-9A9D-C588589EDCE7.root
/eos/lyoeos.in2p3.fr/grid/cms/store/data/Run2017C/SingleMuon/NANOAOD/UL2017_MiniAODv2_NanoAODv9-v1/120000/056C66FC-4143-4546-9861-D089AFFB4E55.root
/eos/lyoeos.in2p3.fr/grid/cms/store/data/Run2017C/SingleMuon/NANOAOD/UL2017_MiniAODv2_NanoAODv9-v1/120000/074E69F8-A568-8943-A5AB-50E2CF9173A7.root
/eos/lyoeos.in2p3.fr/grid/cms/store/data/Run2017C/SingleMuon/NANOAOD/UL2017_MiniAODv2_NanoAODv9-v1/120000/0B7C0438-686C-BF4C-B242-F14B9A793740.root
/eos/lyoeos.in2p3.fr/grid/cms/store/data/Run2017C/SingleMuon/NANOAOD/UL2017_MiniAODv2_NanoAODv9-v1/120000/0C427E31-C7D9-2443-813A-8B0098C302FC.root
/eos/lyoeos.in2p3.fr/grid/cms/store/data/Run2017C/SingleMuon/NANOAOD/UL2017_MiniAODv2_NanoAODv9-v1/120000/0DC741CB-575B-E84A-ACB3-BE1C8743ECB6.root
/eos/lyoeos.in2p3.fr/grid/cms/store/data/Run2017C/SingleMuon/NANOAOD/UL2017_MiniAODv2_NanoAODv9-v1/120000/129D64EA-D48A-1545-8F99-4F8C1BE5F8A0.root
/eos/lyoeos.in2p3.fr/grid/cms/store/data/Run2017C/SingleMuon/NANOAOD/UL2017_MiniAODv2_NanoAODv9-v1/120000/174F6BA0-0F5E-414F-AC8F-6032F4E27ADC.root
/eos/lyoeos.in2p3.fr/grid/cms/store/data/Run2017C/SingleMuon/NANOAOD/UL2017_MiniAODv2_NanoAODv9-v1/120000/1A25F893-B82A-7D41-A5F4-52D823768937.root
/eos/lyoeos.in2p3.fr/grid/cms/store/data/Run2017C/SingleMuon/NANOAOD/UL2017_MiniAODv2_NanoAODv9-v1/120000/1A8F2638-C242-B14E-8393-0F9C9D758208.root
/eos/lyoeos.in2p3.fr/grid/cms/store/data/Run2017C/SingleMuon/NANOAOD/UL2017_MiniAODv2_NanoAODv9-v1/120000/1B37B34B-8870-F041-AA3F-D65BFCDCF448.root
/eos/lyoeos.in2p3.fr/grid/cms/store/data/Run2017C/SingleMuon/NANOAOD/UL2017_MiniAODv2_NanoAODv9-v1/120000/1BB16114-6AA1-4148-825F-908D5E2DE5BC.root
/eos/lyoeos.in2p3.fr/grid/cms/store/data/Run2017C/SingleMuon/NANOAOD/UL2017_MiniAODv2_NanoAODv9-v1/120000/207CCE26-DC07-5044-8A9A-030EEFC53333.root
/eos/lyoeos.in2p3.fr/grid/cms/store/data/Run2017C/SingleMuon/NANOAOD/UL2017_MiniAODv2_NanoAODv9-v1/120000/21997ECA-3DDC-6942-AD63-02BDE5251965.root
/eos/lyoeos.in2p3.fr/grid/cms/store/data/Run2017C/SingleMuon/NANOAOD/UL2017_MiniAODv2_NanoAODv9-v1/120000/2A1A6BD3-2584-8949-B2BF-1AACB88CFA16.root
/eos/lyoeos.in2p3.fr/grid/cms/store/data/Run2017C/SingleMuon/NANOAOD/UL2017_MiniAODv2_NanoAODv9-v1/120000/2DB3754F-EABA-DB46-B6D8-2F7CFC9B17B5.root
/eos/lyoeos.in2p3.fr/grid/cms/store/data/Run2017C/SingleMuon/NANOAOD/UL2017_MiniAODv2_NanoAODv9-v1/120000/2EDB5FE3-C74C-1E47-AB1E-FB3F7E76C7FD.root
/eos/lyoeos.in2p3.fr/grid/cms/store/data/Run2017C/SingleMuon/NANOAOD/UL2017_MiniAODv2_NanoAODv9-v1/120000/32E62B3E-3D17-C343-879D-37E73EED9343.root
/eos/lyoeos.in2p3.fr/grid/cms/store/data/Run2017C/SingleMuon/NANOAOD/UL2017_MiniAODv2_NanoAODv9-v1/120000/380FF574-5C41-4747-97FA-E27A07951E6F.root
/eos/lyoeos.in2p3.fr/grid/cms/store/data/Run2017C/SingleMuon/NANOAOD/UL2017_MiniAODv2_NanoAODv9-v1/120000/38319027-8E83-0940-9F46-4C5FEA8686D7.root
/eos/lyoeos.in2p3.fr/grid/cms/store/data/Run2017C/SingleMuon/NANOAOD/UL2017_MiniAODv2_NanoAODv9-v1/120000/39B828D1-1388-A043-B23A-9478F66960D9.root
/eos/lyoeos.in2p3.fr/grid/cms/store/data/Run2017C/SingleMuon/NANOAOD/UL2017_MiniAODv2_NanoAODv9-v1/120000/3C55AC5E-8A50-8948-8ABD-29F54836F82A.root
/eos/lyoeos.in2p3.fr/grid/cms/store/data/Run2017C/SingleMuon/NANOAOD/UL2017_MiniAODv2_NanoAODv9-v1/120000/3CCCA3DB-F7FF-8C46-91C1-BAA16C653D9C.root
/eos/lyoeos.in2p3.fr/grid/cms/store/data/Run2017C/SingleMuon/NANOAOD/UL2017_MiniAODv2_NanoAODv9-v1/120000/4CC23361-9A06-2448-93D5-697E519B53FE.root
/eos/lyoeos.in2p3.fr/grid/cms/store/data/Run2017C/SingleMuon/NANOAOD/UL2017_MiniAODv2_NanoAODv9-v1/120000/5402745D-C982-E648-9BBF-543CF6381439.root
/eos/lyoeos.in2p3.fr/grid/cms/store/data/Run2017C/SingleMuon/NANOAOD/UL2017_MiniAODv2_NanoAODv9-v1/120000/5845D827-7A23-814C-9959-D2E210050921.root
/eos/lyoeos.in2p3.fr/grid/cms/store/data/Run2017C/SingleMuon/NANOAOD/UL2017_MiniAODv2_NanoAODv9-v1/120000/5DF30FA6-3C07-564C-8F36-56B203C20C3A.root
/eos/lyoeos.in2p3.fr/grid/cms/store/data/Run2017C/SingleMuon/NANOAOD/UL2017_MiniAODv2_NanoAODv9-v1/120000/5DF45635-03B2-DF49-9AD0-540F36CC9055.root
/eos/lyoeos.in2p3.fr/grid/cms/store/data/Run2017C/SingleMuon/NANOAOD/UL2017_MiniAODv2_NanoAODv9-v1/120000/63C15391-E55C-F046-9628-AF96B5FEE01D.root
/eos/lyoeos.in2p3.fr/grid/cms/store/data/Run2017C/SingleMuon/NANOAOD/UL2017_MiniAODv2_NanoAODv9-v1/120000/69D90C6D-3CCD-C846-8A39-A019DB3731BF.root
/eos/lyoeos.in2p3.fr/grid/cms/store/data/Run2017C/SingleMuon/NANOAOD/UL2017_MiniAODv2_NanoAODv9-v1/120000/6BAE6F15-A140-494C-9104-36D06F70141E.root
/eos/lyoeos.in2p3.fr/grid/cms/store/data/Run2017C/SingleMuon/NANOAOD/UL2017_MiniAODv2_NanoAODv9-v1/120000/6E216A64-90D5-054F-B228-7CED37253E2A.root
/eos/lyoeos.in2p3.fr/grid/cms/store/data/Run2017C/SingleMuon/NANOAOD/UL2017_MiniAODv2_NanoAODv9-v1/120000/7369A357-B5DB-F443-8757-27692F1C9137.root
/eos/lyoeos.in2p3.fr/grid/cms/store/data/Run2017C/SingleMuon/NANOAOD/UL2017_MiniAODv2_NanoAODv9-v1/120000/76D40472-1718-E044-9D2B-0E7EC90601EF.root
/eos/lyoeos.in2p3.fr/grid/cms/store/data/Run2017C/SingleMuon/NANOAOD/UL2017_MiniAODv2_NanoAODv9-v1/120000/7A3645C9-A2DD-2E41-914D-EBD57E46D505.root
/eos/lyoeos.in2p3.fr/grid/cms/store/data/Run2017C/SingleMuon/NANOAOD/UL2017_MiniAODv2_NanoAODv9-v1/120000/7CC8826E-7C2D-644A-B679-1FDECBE47B8B.root
/eos/lyoeos.in2p3.fr/grid/cms/store/data/Run2017C/SingleMuon/NANOAOD/UL2017_MiniAODv2_NanoAODv9-v1/120000/7E80D270-F763-F249-8A92-AACCFFC54969.root
/eos/lyoeos.in2p3.fr/grid/cms/store/data/Run2017C/SingleMuon/NANOAOD/UL2017_MiniAODv2_NanoAODv9-v1/120000/7F6FEC55-C13F-874E-9524-29E31AA95F95.root
/eos/lyoeos.in2p3.fr/grid/cms/store/data/Run2017C/SingleMuon/NANOAOD/UL2017_MiniAODv2_NanoAODv9-v1/120000/89D47A79-B466-E140-8B32-91E700870022.root
/eos/lyoeos.in2p3.fr/grid/cms/store/data/Run2017C/SingleMuon/NANOAOD/UL2017_MiniAODv2_NanoAODv9-v1/120000/90500340-DC51-F442-B439-9358F0A90D6D.root
/eos/lyoeos.in2p3.fr/grid/cms/store/data/Run2017C/SingleMuon/NANOAOD/UL2017_MiniAODv2_NanoAODv9-v1/120000/952367DC-A138-7648-A7EB-139618AF22AE.root
/eos/lyoeos.in2p3.fr/grid/cms/store/data/Run2017C/SingleMuon/NANOAOD/UL2017_MiniAODv2_NanoAODv9-v1/120000/9DD6BEBB-06AA-0846-BAB1-C59D73061F64.root
/eos/lyoeos.in2p3.fr/grid/cms/store/data/Run2017C/SingleMuon/NANOAOD/UL2017_MiniAODv2_NanoAODv9-v1/120000/9FCF3CE7-4F8B-4546-87FF-2934518535BF.root
/eos/lyoeos.in2p3.fr/grid/cms/store/data/Run2017C/SingleMuon/NANOAOD/UL2017_MiniAODv2_NanoAODv9-v1/120000/A8CE1859-3C54-3943-BC16-F350B5A4DC94.root
/eos/lyoeos.in2p3.fr/grid/cms/store/data/Run2017C/SingleMuon/NANOAOD/UL2017_MiniAODv2_NanoAODv9-v1/120000/AC3C9286-0B8A-914B-B6C9-63B9A645017F.root
/eos/lyoeos.in2p3.fr/grid/cms/store/data/Run2017C/SingleMuon/NANOAOD/UL2017_MiniAODv2_NanoAODv9-v1/120000/AC4FA9AB-9623-AF43-B34D-465F937301E9.root
/eos/lyoeos.in2p3.fr/grid/cms/store/data/Run2017C/SingleMuon/NANOAOD/UL2017_MiniAODv2_NanoAODv9-v1/120000/ADA2018B-BC41-DB47-BAE0-42B678A706F9.root
/eos/lyoeos.in2p3.fr/grid/cms/store/data/Run2017C/SingleMuon/NANOAOD/UL2017_MiniAODv2_NanoAODv9-v1/120000/AEA1E420-51F1-D44F-A59E-A4F11A49C29C.root
/eos/lyoeos.in2p3.fr/grid/cms/store/data/Run2017C/SingleMuon/NANOAOD/UL2017_MiniAODv2_NanoAODv9-v1/120000/B2111DB7-C4AD-E745-8EEE-C03FC8FC3B98.root
/eos/lyoeos.in2p3.fr/grid/cms/store/data/Run2017C/SingleMuon/NANOAOD/UL2017_MiniAODv2_NanoAODv9-v1/120000/B4251A9B-592E-3449-9B13-E7FD246EBDCA.root
/eos/lyoeos.in2p3.fr/grid/cms/store/data/Run2017C/SingleMuon/NANOAOD/UL2017_MiniAODv2_NanoAODv9-v1/120000/BD218B13-1EEE-2B40-B4D0-98339A2E3DC4.root
/eos/lyoeos.in2p3.fr/grid/cms/store/data/Run2017C/SingleMuon/NANOAOD/UL2017_MiniAODv2_NanoAODv9-v1/120000/C17BC474-4019-BA48-B88C-F6A9E3488F93.root
/eos/lyoeos.in2p3.fr/grid/cms/store/data/Run2017C/SingleMuon/NANOAOD/UL2017_MiniAODv2_NanoAODv9-v1/120000/C1AEE075-3557-E247-AAE3-53B77C93597D.root
/eos/lyoeos.in2p3.fr/grid/cms/store/data/Run2017C/SingleMuon/NANOAOD/UL2017_MiniAODv2_NanoAODv9-v1/120000/DA9E56C7-88E1-A84D-ACA6-88438092A671.root
/eos/lyoeos.in2p3.fr/grid/cms/store/data/Run2017C/SingleMuon/NANOAOD/UL2017_MiniAODv2_NanoAODv9-v1/120000/DB0F7773-7A6A-2E4F-BBBF-272AFAF338C3.root
/eos/lyoeos.in2p3.fr/grid/cms/store/data/Run2017C/SingleMuon/NANOAOD/UL2017_MiniAODv2_NanoAODv9-v1/120000/DCB2DA38-960E-074C-B6A5-D747049BFD81.root
/eos/lyoeos.in2p3.fr/grid/cms/store/data/Run2017C/SingleMuon/NANOAOD/UL2017_MiniAODv2_NanoAODv9-v1/120000/DF472B42-1010-084D-A63C-2D67D6667F56.root
/eos/lyoeos.in2p3.fr/grid/cms/store/data/Run2017C/SingleMuon/NANOAOD/UL2017_MiniAODv2_NanoAODv9-v1/120000/E3A46DF9-7217-8E43-A706-829339804649.root
/eos/lyoeos.in2p3.fr/grid/cms/store/data/Run2017C/SingleMuon/NANOAOD/UL2017_MiniAODv2_NanoAODv9-v1/120000/E7A78C86-A1E1-DB45-A25E-DED2815C3BA6.root
/eos/lyoeos.in2p3.fr/grid/cms/store/data/Run2017C/SingleMuon/NANOAOD/UL2017_MiniAODv2_NanoAODv9-v1/120000/EC0FDB43-2EFE-014B-B1BC-5C63236003D2.root
/eos/lyoeos.in2p3.fr/grid/cms/store/data/Run2017C/SingleMuon/NANOAOD/UL2017_MiniAODv2_NanoAODv9-v1/120000/ECC4861E-7579-8147-A556-FDFDD653CF22.root
/eos/lyoeos.in2p3.fr/grid/cms/store/data/Run2017C/SingleMuon/NANOAOD/UL2017_MiniAODv2_NanoAODv9-v1/120000/EE45720C-76B4-8146-AEC7-91A4C65FDA7A.root
/eos/lyoeos.in2p3.fr/grid/cms/store/data/Run2017C/SingleMuon/NANOAOD/UL2017_MiniAODv2_NanoAODv9-v1/120000/F1F1D25B-BAC5-5541-9596-83FD4880D3DC.root
/eos/lyoeos.in2p3.fr/grid/cms/store/data/Run2017C/SingleMuon/NANOAOD/UL2017_MiniAODv2_NanoAODv9-v1/120000/F869701C-EAD1-BA49-938F-4984CD0236CF.root
/eos/lyoeos.in2p3.fr/grid/cms/store/data/Run2017C/SingleMuon/NANOAOD/UL2017_MiniAODv2_NanoAODv9-v1/120000/FCD47A9D-364D-EA47-B016-A3BD69D56CF3.root
/eos/lyoeos.in2p3.fr/grid/cms/store/data/Run2017C/SingleMuon/NANOAOD/UL2017_MiniAODv2_NanoAODv9-v1/120000/FCF03900-FC3B-9E4F-8262-5555D46F27AF.root
/eos/lyoeos.in2p3.fr/grid/cms/store/data/Run2017C/SingleMuon/NANOAOD/UL2017_MiniAODv2_NanoAODv9-v1/130000/FCD09E58-605A-E346-B3E7-BDFBF75C4243.root
/eos/lyoeos.in2p3.fr/grid/cms/store/data/Run2017C/SingleMuon/NANOAOD/UL2017_MiniAODv2_NanoAODv9-v1/270000/8C75C27C-1DE2-8446-8264-AB3EE6503939.root
/eos/lyoeos.in2p3.fr/grid/cms/store/data/Run2017C/SingleMuon/NANOAOD/UL2017_MiniAODv2_NanoAODv9-v1/280000/16A0F114-8E08-4D4C-99F9-04A1FDDEC21F.root
/eos/lyoeos.in2p3.fr/grid/cms/store/data/Run2017C/SingleMuon/NANOAOD/UL2017_MiniAODv2_NanoAODv9-v1/280000/1BE922E1-8F0F-8746-BBC9-F43BE689AFB2.root
/eos/lyoeos.in2p3.fr/grid/cms/store/data/Run2017C/SingleMuon/NANOAOD/UL2017_MiniAODv2_NanoAODv9-v1/280000/361FF1AA-229A-244B-BEAB-F2561B8772F9.root
/eos/lyoeos.in2p3.fr/grid/cms/store/data/Run2017C/SingleMuon/NANOAOD/UL2017_MiniAODv2_NanoAODv9-v1/280000/3E907D3A-4377-B34A-8E64-98B619EDE1F7.root
/eos/lyoeos.in2p3.fr/grid/cms/store/data/Run2017C/SingleMuon/NANOAOD/UL2017_MiniAODv2_NanoAODv9-v1/280000/47B0106F-4541-FF4F-ADC1-083BE37240FA.root
/eos/lyoeos.in2p3.fr/grid/cms/store/data/Run2017C/SingleMuon/NANOAOD/UL2017_MiniAODv2_NanoAODv9-v1/280000/9C4B8A76-4AF5-264A-A867-B083D52BC7D2.root
/eos/lyoeos.in2p3.fr/grid/cms/store/data/Run2017C/SingleMuon/NANOAOD/UL2017_MiniAODv2_NanoAODv9-v1/280000/B6546381-156E-2B4A-8506-D0ED531F0E81.root
/eos/lyoeos.in2p3.fr/grid/cms/store/data/Run2017C/SingleMuon/NANOAOD/UL2017_MiniAODv2_NanoAODv9-v1/280000/BC5C703F-4822-4049-80D7-53A6A8F80D53.root
/eos/lyoeos.in2p3.fr/grid/cms/store/data/Run2017C/SingleMuon/NANOAOD/UL2017_MiniAODv2_NanoAODv9-v1/280000/D7F37935-785D-F347-90EB-480B887199A0.root
/eos/lyoeos.in2p3.fr/grid/cms/store/data/Run2017C/SingleMuon/NANOAOD/UL2017_MiniAODv2_NanoAODv9-v1/70000/0062F3F2-D658-2645-99E8-E1147AA77078.root
/eos/lyoeos.in2p3.fr/grid/cms/store/data/Run2017C/SingleMuon/NANOAOD/UL2017_MiniAODv2_NanoAODv9-v1/70000/0FE80560-8295-2644-AE32-ECD4282A93A9.root
/eos/lyoeos.in2p3.fr/grid/cms/store/data/Run2017C/SingleMuon/NANOAOD/UL2017_MiniAODv2_NanoAODv9-v1/70000/1129052F-8742-A94D-ACBF-B1E571476E88.root
/eos/lyoeos.in2p3.fr/grid/cms/store/data/Run2017C/SingleMuon/NANOAOD/UL2017_MiniAODv2_NanoAODv9-v1/70000/12DFBDC7-6EBB-2D49-B2C3-13D776246F1F.root
/eos/lyoeos.in2p3.fr/grid/cms/store/data/Run2017C/SingleMuon/NANOAOD/UL2017_MiniAODv2_NanoAODv9-v1/70000/1428BB77-8B26-544C-8C00-78DAD0FB8BF1.root
/eos/lyoeos.in2p3.fr/grid/cms/store/data/Run2017C/SingleMuon/NANOAOD/UL2017_MiniAODv2_NanoAODv9-v1/70000/1613D32B-2B69-2D44-89BE-438A1A3A4B69.root
/eos/lyoeos.in2p3.fr/grid/cms/store/data/Run2017C/SingleMuon/NANOAOD/UL2017_MiniAODv2_NanoAODv9-v1/70000/176DD72C-1600-3D4B-9225-51711E604926.root
/eos/lyoeos.in2p3.fr/grid/cms/store/data/Run2017C/SingleMuon/NANOAOD/UL2017_MiniAODv2_NanoAODv9-v1/70000/1FC31189-6DCB-5D49-B405-D6D9EE3060C4.root
/eos/lyoeos.in2p3.fr/grid/cms/store/data/Run2017C/SingleMuon/NANOAOD/UL2017_MiniAODv2_NanoAODv9-v1/70000/219BEC44-663E-3243-84A2-F0C5ACB44389.root
/eos/lyoeos.in2p3.fr/grid/cms/store/data/Run2017C/SingleMuon/NANOAOD/UL2017_MiniAODv2_NanoAODv9-v1/70000/24EE277C-E731-8542-98A5-5E66ECD0A88A.root
/eos/lyoeos.in2p3.fr/grid/cms/store/data/Run2017C/SingleMuon/NANOAOD/UL2017_MiniAODv2_NanoAODv9-v1/70000/287F801D-07B9-D34D-8FF0-DBADA569FA01.root
/eos/lyoeos.in2p3.fr/grid/cms/store/data/Run2017C/SingleMuon/NANOAOD/UL2017_MiniAODv2_NanoAODv9-v1/70000/2B55F59D-9B48-F946-8277-C4C887444F54.root
/eos/lyoeos.in2p3.fr/grid/cms/store/data/Run2017C/SingleMuon/NANOAOD/UL2017_MiniAODv2_NanoAODv9-v1/70000/3494AA99-BF4B-4C49-9CAE-9368DF2143E5.root
/eos/lyoeos.in2p3.fr/grid/cms/store/data/Run2017C/SingleMuon/NANOAOD/UL2017_MiniAODv2_NanoAODv9-v1/70000/49CBFA78-9E0E-1E49-8269-2CB3B70196AE.root
/eos/lyoeos.in2p3.fr/grid/cms/store/data/Run2017C/SingleMuon/NANOAOD/UL2017_MiniAODv2_NanoAODv9-v1/70000/52C52128-0790-264B-B472-035D9899BB44.root
/eos/lyoeos.in2p3.fr/grid/cms/store/data/Run2017C/SingleMuon/NANOAOD/UL2017_MiniAODv2_NanoAODv9-v1/70000/58DB1D96-6A6B-4745-A4A9-AEECC746F666.root
/eos/lyoeos.in2p3.fr/grid/cms/store/data/Run2017C/SingleMuon/NANOAOD/UL2017_MiniAODv2_NanoAODv9-v1/70000/6F6227FF-7662-7D43-B326-B7126E537B5E.root
/eos/lyoeos.in2p3.fr/grid/cms/store/data/Run2017C/SingleMuon/NANOAOD/UL2017_MiniAODv2_NanoAODv9-v1/70000/731FF60E-BEF6-9E4C-8635-59C39CE3D629.root
/eos/lyoeos.in2p3.fr/grid/cms/store/data/Run2017C/SingleMuon/NANOAOD/UL2017_MiniAODv2_NanoAODv9-v1/70000/77DB5C9B-177D-9547-8FA4-5EEC7D0DAA7F.root
/eos/lyoeos.in2p3.fr/grid/cms/store/data/Run2017C/SingleMuon/NANOAOD/UL2017_MiniAODv2_NanoAODv9-v1/70000/865F125A-3380-8148-9C61-F1AE67D5AF89.root
/eos/lyoeos.in2p3.fr/grid/cms/store/data/Run2017C/SingleMuon/NANOAOD/UL2017_MiniAODv2_NanoAODv9-v1/70000/8F0B7D58-31FE-934E-94E9-063922D28375.root
/eos/lyoeos.in2p3.fr/grid/cms/store/data/Run2017C/SingleMuon/NANOAOD/UL2017_MiniAODv2_NanoAODv9-v1/70000/91B05F7A-92DB-6A40-8B74-AE7411B3E92A.root
/eos/lyoeos.in2p3.fr/grid/cms/store/data/Run2017C/SingleMuon/NANOAOD/UL2017_MiniAODv2_NanoAODv9-v1/70000/9794DE08-71D9-1B45-B4CF-52B54CC09760.root
/eos/lyoeos.in2p3.fr/grid/cms/store/data/Run2017C/SingleMuon/NANOAOD/UL2017_MiniAODv2_NanoAODv9-v1/70000/9D9D824B-C7A6-FD42-BDAC-08A1F50E43D5.root
/eos/lyoeos.in2p3.fr/grid/cms/store/data/Run2017C/SingleMuon/NANOAOD/UL2017_MiniAODv2_NanoAODv9-v1/70000/B7BF8D5F-44D2-CC4D-84A6-D4AE86885813.root
/eos/lyoeos.in2p3.fr/grid/cms/store/data/Run2017C/SingleMuon/NANOAOD/UL2017_MiniAODv2_NanoAODv9-v1/70000/BE914169-E07C-264F-9524-88A070325710.root
/eos/lyoeos.in2p3.fr/grid/cms/store/data/Run2017C/SingleMuon/NANOAOD/UL2017_MiniAODv2_NanoAODv9-v1/70000/C08F30F7-F833-C040-BD31-F26A2357B292.root
/eos/lyoeos.in2p3.fr/grid/cms/store/data/Run2017C/SingleMuon/NANOAOD/UL2017_MiniAODv2_NanoAODv9-v1/70000/C3D07717-300C-EE4A-9C09-F1CDFFCE9164.root
/eos/lyoeos.in2p3.fr/grid/cms/store/data/Run2017C/SingleMuon/NANOAOD/UL2017_MiniAODv2_NanoAODv9-v1/70000/C9AB9AD1-8F70-BF45-B0EF-9E95163A50D2.root
/eos/lyoeos.in2p3.fr/grid/cms/store/data/Run2017C/SingleMuon/NANOAOD/UL2017_MiniAODv2_NanoAODv9-v1/70000/CB3ADA34-1A16-6347-8F6C-5523CC75D6CF.root
/eos/lyoeos.in2p3.fr/grid/cms/store/data/Run2017C/SingleMuon/NANOAOD/UL2017_MiniAODv2_NanoAODv9-v1/70000/CB8FD0E1-1087-E448-8ECA-E626C3B516A0.root
/eos/lyoeos.in2p3.fr/grid/cms/store/data/Run2017C/SingleMuon/NANOAOD/UL2017_MiniAODv2_NanoAODv9-v1/70000/CD6A540E-A274-D546-8CE5-015C46E88C91.root
/eos/lyoeos.in2p3.fr/grid/cms/store/data/Run2017C/SingleMuon/NANOAOD/UL2017_MiniAODv2_NanoAODv9-v1/70000/D3FDB078-6003-4A42-81C8-447E5242CC7F.root
/eos/lyoeos.in2p3.fr/grid/cms/store/data/Run2017C/SingleMuon/NANOAOD/UL2017_MiniAODv2_NanoAODv9-v1/70000/D5A8C317-CBD4-0A41-A7F5-96A795EB0839.root
/eos/lyoeos.in2p3.fr/grid/cms/store/data/Run2017C/SingleMuon/NANOAOD/UL2017_MiniAODv2_NanoAODv9-v1/70000/DFD9EF0E-335E-A54C-A468-F50B19A386EA.root
/eos/lyoeos.in2p3.fr/grid/cms/store/data/Run2017C/SingleMuon/NANOAOD/UL2017_MiniAODv2_NanoAODv9-v1/70000/E6E081AE-5696-9B42-84A5-71CD4085BD0A.root
/eos/lyoeos.in2p3.fr/grid/cms/store/data/Run2017C/SingleMuon/NANOAOD/UL2017_MiniAODv2_NanoAODv9-v1/70000/E7890834-CBF2-AB4F-9790-2B0DD603D26D.root
/eos/lyoeos.in2p3.fr/grid/cms/store/data/Run2017C/SingleMuon/NANOAOD/UL2017_MiniAODv2_NanoAODv9-v1/70000/EBE10B33-6E3B-AA4C-BD74-3616EC1DB825.root
/eos/lyoeos.in2p3.fr/grid/cms/store/data/Run2017C/SingleMuon/NANOAOD/UL2017_MiniAODv2_NanoAODv9-v1/70000/F96638CC-0C1E-F640-9855-5FB43BDB4901.root
/eos/lyoeos.in2p3.fr/grid/cms/store/data/Run2017C/SingleMuon/NANOAOD/UL2017_MiniAODv2_NanoAODv9-v1/70000/FAD93ED5-F96D-8147-A4EC-A3684526BB9C.root
