/eos/lyoeos.in2p3.fr/grid/cms/store/data/Run2017F/DoubleMuon/NANOAOD/UL2017_MiniAODv2_NanoAODv9-v1/110000/0EC8603F-D3EA-D246-A5A4-22CA94923AF5.root
/eos/lyoeos.in2p3.fr/grid/cms/store/data/Run2017F/DoubleMuon/NANOAOD/UL2017_MiniAODv2_NanoAODv9-v1/110000/C4B6008E-5ABE-C046-BE0B-745276F7205C.root
/eos/lyoeos.in2p3.fr/grid/cms/store/data/Run2017F/DoubleMuon/NANOAOD/UL2017_MiniAODv2_NanoAODv9-v1/1110000/E9BA35DA-0A36-4F4B-9325-4CEE6EF76CD9.root
/eos/lyoeos.in2p3.fr/grid/cms/store/data/Run2017F/DoubleMuon/NANOAOD/UL2017_MiniAODv2_NanoAODv9-v1/120000/00B8EACE-3874-C947-AD8A-18AB8AF22265.root
/eos/lyoeos.in2p3.fr/grid/cms/store/data/Run2017F/DoubleMuon/NANOAOD/UL2017_MiniAODv2_NanoAODv9-v1/120000/0669E78F-BD9A-114C-9A50-0A1D89B33C1C.root
/eos/lyoeos.in2p3.fr/grid/cms/store/data/Run2017F/DoubleMuon/NANOAOD/UL2017_MiniAODv2_NanoAODv9-v1/120000/0F76DD31-FDF6-1B46-A6B6-398C7D9BE891.root
/eos/lyoeos.in2p3.fr/grid/cms/store/data/Run2017F/DoubleMuon/NANOAOD/UL2017_MiniAODv2_NanoAODv9-v1/120000/14D68E99-6624-FB4A-B5A9-869F1D1875A6.root
/eos/lyoeos.in2p3.fr/grid/cms/store/data/Run2017F/DoubleMuon/NANOAOD/UL2017_MiniAODv2_NanoAODv9-v1/120000/16F764BE-E96D-A44D-B252-272721365F16.root
/eos/lyoeos.in2p3.fr/grid/cms/store/data/Run2017F/DoubleMuon/NANOAOD/UL2017_MiniAODv2_NanoAODv9-v1/120000/1D405C24-F4CA-3D42-97ED-7BA3B60C3F16.root
/eos/lyoeos.in2p3.fr/grid/cms/store/data/Run2017F/DoubleMuon/NANOAOD/UL2017_MiniAODv2_NanoAODv9-v1/120000/24903CD3-F6E8-1D40-8D8F-C2ADD7F8D1D2.root
/eos/lyoeos.in2p3.fr/grid/cms/store/data/Run2017F/DoubleMuon/NANOAOD/UL2017_MiniAODv2_NanoAODv9-v1/120000/24CF48AC-3430-EA4C-9F42-904F2A8F07EA.root
/eos/lyoeos.in2p3.fr/grid/cms/store/data/Run2017F/DoubleMuon/NANOAOD/UL2017_MiniAODv2_NanoAODv9-v1/120000/2F7A1D0B-8C46-3945-AE63-6F9BCB6EAFBE.root
/eos/lyoeos.in2p3.fr/grid/cms/store/data/Run2017F/DoubleMuon/NANOAOD/UL2017_MiniAODv2_NanoAODv9-v1/120000/350A5AF5-A3EC-1D45-A33E-00825B2AFC7F.root
/eos/lyoeos.in2p3.fr/grid/cms/store/data/Run2017F/DoubleMuon/NANOAOD/UL2017_MiniAODv2_NanoAODv9-v1/120000/35E98853-1C9E-864A-8986-5C47C86A4843.root
/eos/lyoeos.in2p3.fr/grid/cms/store/data/Run2017F/DoubleMuon/NANOAOD/UL2017_MiniAODv2_NanoAODv9-v1/120000/3A036AB3-2389-4C49-B53F-B5A67F1BDDEB.root
/eos/lyoeos.in2p3.fr/grid/cms/store/data/Run2017F/DoubleMuon/NANOAOD/UL2017_MiniAODv2_NanoAODv9-v1/120000/3C993ECD-B599-6B40-8CD2-40EE982EE107.root
/eos/lyoeos.in2p3.fr/grid/cms/store/data/Run2017F/DoubleMuon/NANOAOD/UL2017_MiniAODv2_NanoAODv9-v1/120000/466DE8C2-A48D-8E4E-B310-C5D24899A69A.root
/eos/lyoeos.in2p3.fr/grid/cms/store/data/Run2017F/DoubleMuon/NANOAOD/UL2017_MiniAODv2_NanoAODv9-v1/120000/4B07978E-7BE1-6545-8CFC-1C2A61C018E0.root
/eos/lyoeos.in2p3.fr/grid/cms/store/data/Run2017F/DoubleMuon/NANOAOD/UL2017_MiniAODv2_NanoAODv9-v1/120000/4F02BCFE-A898-AB4B-A14A-3C75E8CCF50B.root
/eos/lyoeos.in2p3.fr/grid/cms/store/data/Run2017F/DoubleMuon/NANOAOD/UL2017_MiniAODv2_NanoAODv9-v1/120000/503B7585-FE03-794D-B1B1-64351A4BC609.root
/eos/lyoeos.in2p3.fr/grid/cms/store/data/Run2017F/DoubleMuon/NANOAOD/UL2017_MiniAODv2_NanoAODv9-v1/120000/537461E9-C538-B74B-9AE0-0716D9447463.root
/eos/lyoeos.in2p3.fr/grid/cms/store/data/Run2017F/DoubleMuon/NANOAOD/UL2017_MiniAODv2_NanoAODv9-v1/120000/555DF7CD-9FB1-934F-9A2E-641D1DACFA91.root
/eos/lyoeos.in2p3.fr/grid/cms/store/data/Run2017F/DoubleMuon/NANOAOD/UL2017_MiniAODv2_NanoAODv9-v1/120000/58FBBD07-73D9-F44F-A579-7B2A0C7201C0.root
/eos/lyoeos.in2p3.fr/grid/cms/store/data/Run2017F/DoubleMuon/NANOAOD/UL2017_MiniAODv2_NanoAODv9-v1/120000/5AD542C7-A5BE-6D42-A6EE-3F80200E8D6C.root
/eos/lyoeos.in2p3.fr/grid/cms/store/data/Run2017F/DoubleMuon/NANOAOD/UL2017_MiniAODv2_NanoAODv9-v1/120000/5B1E2D57-6D86-C343-8A98-735A3540F6CF.root
/eos/lyoeos.in2p3.fr/grid/cms/store/data/Run2017F/DoubleMuon/NANOAOD/UL2017_MiniAODv2_NanoAODv9-v1/120000/5CA32CEB-9C52-2746-96C4-286984978FCB.root
/eos/lyoeos.in2p3.fr/grid/cms/store/data/Run2017F/DoubleMuon/NANOAOD/UL2017_MiniAODv2_NanoAODv9-v1/120000/5D46AC19-893E-0C4A-9BE8-81ED454926A0.root
/eos/lyoeos.in2p3.fr/grid/cms/store/data/Run2017F/DoubleMuon/NANOAOD/UL2017_MiniAODv2_NanoAODv9-v1/120000/5EFD19CE-639E-394C-B7F0-814A26F41780.root
/eos/lyoeos.in2p3.fr/grid/cms/store/data/Run2017F/DoubleMuon/NANOAOD/UL2017_MiniAODv2_NanoAODv9-v1/120000/6B8C7C01-2638-744A-8007-D8D3DD138E13.root
/eos/lyoeos.in2p3.fr/grid/cms/store/data/Run2017F/DoubleMuon/NANOAOD/UL2017_MiniAODv2_NanoAODv9-v1/120000/72621B9C-CE9C-D148-87E5-B60A1295B334.root
/eos/lyoeos.in2p3.fr/grid/cms/store/data/Run2017F/DoubleMuon/NANOAOD/UL2017_MiniAODv2_NanoAODv9-v1/120000/77174EDC-EA6C-2A45-AB2B-912E13285814.root
/eos/lyoeos.in2p3.fr/grid/cms/store/data/Run2017F/DoubleMuon/NANOAOD/UL2017_MiniAODv2_NanoAODv9-v1/120000/77355391-5AC8-7F4A-AC5E-46C99E103931.root
/eos/lyoeos.in2p3.fr/grid/cms/store/data/Run2017F/DoubleMuon/NANOAOD/UL2017_MiniAODv2_NanoAODv9-v1/120000/7C94E38B-F545-9D45-998A-3DC11C2E0B2B.root
/eos/lyoeos.in2p3.fr/grid/cms/store/data/Run2017F/DoubleMuon/NANOAOD/UL2017_MiniAODv2_NanoAODv9-v1/120000/8467F19F-C8A5-F342-860F-37B65B29EFA6.root
/eos/lyoeos.in2p3.fr/grid/cms/store/data/Run2017F/DoubleMuon/NANOAOD/UL2017_MiniAODv2_NanoAODv9-v1/120000/86D476F5-7801-6340-B358-3D6AD3B1C7F0.root
/eos/lyoeos.in2p3.fr/grid/cms/store/data/Run2017F/DoubleMuon/NANOAOD/UL2017_MiniAODv2_NanoAODv9-v1/120000/91F6F282-1307-5645-B143-2E4F9DB9865D.root
/eos/lyoeos.in2p3.fr/grid/cms/store/data/Run2017F/DoubleMuon/NANOAOD/UL2017_MiniAODv2_NanoAODv9-v1/120000/98364FDB-08D6-0242-ACC9-6161FFD8A695.root
/eos/lyoeos.in2p3.fr/grid/cms/store/data/Run2017F/DoubleMuon/NANOAOD/UL2017_MiniAODv2_NanoAODv9-v1/120000/99FF467F-2A2A-5149-B8BB-50B97BB95E29.root
/eos/lyoeos.in2p3.fr/grid/cms/store/data/Run2017F/DoubleMuon/NANOAOD/UL2017_MiniAODv2_NanoAODv9-v1/120000/9AB1661A-1B62-1E42-94B1-D65B372D1A95.root
/eos/lyoeos.in2p3.fr/grid/cms/store/data/Run2017F/DoubleMuon/NANOAOD/UL2017_MiniAODv2_NanoAODv9-v1/120000/9B5B8B4D-F925-CD4C-A472-148E3C691CE5.root
/eos/lyoeos.in2p3.fr/grid/cms/store/data/Run2017F/DoubleMuon/NANOAOD/UL2017_MiniAODv2_NanoAODv9-v1/120000/9D87DDCF-F17C-4049-98CA-686CC88CD969.root
/eos/lyoeos.in2p3.fr/grid/cms/store/data/Run2017F/DoubleMuon/NANOAOD/UL2017_MiniAODv2_NanoAODv9-v1/120000/A6086216-F3EE-4B4C-BEC2-11890F4B0206.root
/eos/lyoeos.in2p3.fr/grid/cms/store/data/Run2017F/DoubleMuon/NANOAOD/UL2017_MiniAODv2_NanoAODv9-v1/120000/A981EC80-FC60-884A-B607-AB75B0F00B48.root
/eos/lyoeos.in2p3.fr/grid/cms/store/data/Run2017F/DoubleMuon/NANOAOD/UL2017_MiniAODv2_NanoAODv9-v1/120000/AF37413C-8180-B54F-A905-C7DADD56A300.root
/eos/lyoeos.in2p3.fr/grid/cms/store/data/Run2017F/DoubleMuon/NANOAOD/UL2017_MiniAODv2_NanoAODv9-v1/120000/B04C7994-8101-3242-A226-1F810A828882.root
/eos/lyoeos.in2p3.fr/grid/cms/store/data/Run2017F/DoubleMuon/NANOAOD/UL2017_MiniAODv2_NanoAODv9-v1/120000/B10B6BED-694C-764E-BED3-DBCF3FC91D29.root
/eos/lyoeos.in2p3.fr/grid/cms/store/data/Run2017F/DoubleMuon/NANOAOD/UL2017_MiniAODv2_NanoAODv9-v1/120000/B2A2DEC2-CFD3-C649-B485-2B8DE18E4E50.root
/eos/lyoeos.in2p3.fr/grid/cms/store/data/Run2017F/DoubleMuon/NANOAOD/UL2017_MiniAODv2_NanoAODv9-v1/120000/B6A08F00-3DF6-9D47-90C9-12B096523C39.root
/eos/lyoeos.in2p3.fr/grid/cms/store/data/Run2017F/DoubleMuon/NANOAOD/UL2017_MiniAODv2_NanoAODv9-v1/120000/B7ED5C9B-092B-6940-8EBD-D03F7D46201C.root
/eos/lyoeos.in2p3.fr/grid/cms/store/data/Run2017F/DoubleMuon/NANOAOD/UL2017_MiniAODv2_NanoAODv9-v1/120000/BAC7B99B-6723-614C-8DDC-E582C4F84462.root
/eos/lyoeos.in2p3.fr/grid/cms/store/data/Run2017F/DoubleMuon/NANOAOD/UL2017_MiniAODv2_NanoAODv9-v1/120000/C259B4BF-B05F-EE40-96EC-38BADFF863BC.root
/eos/lyoeos.in2p3.fr/grid/cms/store/data/Run2017F/DoubleMuon/NANOAOD/UL2017_MiniAODv2_NanoAODv9-v1/120000/C42BEDAD-0209-EC4A-A8A0-E9B841B49D04.root
/eos/lyoeos.in2p3.fr/grid/cms/store/data/Run2017F/DoubleMuon/NANOAOD/UL2017_MiniAODv2_NanoAODv9-v1/120000/C95F6E22-1ECB-2740-87DC-BF40C48D1C4D.root
/eos/lyoeos.in2p3.fr/grid/cms/store/data/Run2017F/DoubleMuon/NANOAOD/UL2017_MiniAODv2_NanoAODv9-v1/120000/CE0D16CA-1A6C-2645-AE69-10110CD95EF2.root
/eos/lyoeos.in2p3.fr/grid/cms/store/data/Run2017F/DoubleMuon/NANOAOD/UL2017_MiniAODv2_NanoAODv9-v1/120000/D4865BB4-A044-D84B-923B-9F78A8F669CD.root
/eos/lyoeos.in2p3.fr/grid/cms/store/data/Run2017F/DoubleMuon/NANOAOD/UL2017_MiniAODv2_NanoAODv9-v1/120000/D5A4655C-69B7-C242-BF92-4EEFA0C5763A.root
/eos/lyoeos.in2p3.fr/grid/cms/store/data/Run2017F/DoubleMuon/NANOAOD/UL2017_MiniAODv2_NanoAODv9-v1/120000/E9290795-77E7-AF49-AD57-E3073A983D16.root
/eos/lyoeos.in2p3.fr/grid/cms/store/data/Run2017F/DoubleMuon/NANOAOD/UL2017_MiniAODv2_NanoAODv9-v1/120000/EA866F35-0078-BC40-8F8A-C2D3521BD790.root
/eos/lyoeos.in2p3.fr/grid/cms/store/data/Run2017F/DoubleMuon/NANOAOD/UL2017_MiniAODv2_NanoAODv9-v1/120000/ECB88C12-076B-D947-920B-89F914801B2A.root
/eos/lyoeos.in2p3.fr/grid/cms/store/data/Run2017F/DoubleMuon/NANOAOD/UL2017_MiniAODv2_NanoAODv9-v1/120000/F369A309-E4D4-FA45-B7BD-02C46C1178F0.root
