/eos/lyoeos.in2p3.fr/grid/cms/store/data/Run2017E/SingleElectron/NANOAOD/UL2017_MiniAODv2_NanoAODv9-v1/120000/048A8C0A-10E2-754D-8E40-5B8BC4A51823.root
/eos/lyoeos.in2p3.fr/grid/cms/store/data/Run2017E/SingleElectron/NANOAOD/UL2017_MiniAODv2_NanoAODv9-v1/120000/0E8B74C7-1AF5-1E4C-8FB2-032F482B2D84.root
/eos/lyoeos.in2p3.fr/grid/cms/store/data/Run2017E/SingleElectron/NANOAOD/UL2017_MiniAODv2_NanoAODv9-v1/120000/27BFAF40-9CC2-B347-B161-E42E2B85EB88.root
/eos/lyoeos.in2p3.fr/grid/cms/store/data/Run2017E/SingleElectron/NANOAOD/UL2017_MiniAODv2_NanoAODv9-v1/120000/28BF0316-6745-C649-8793-1BFAD2A80D5A.root
/eos/lyoeos.in2p3.fr/grid/cms/store/data/Run2017E/SingleElectron/NANOAOD/UL2017_MiniAODv2_NanoAODv9-v1/120000/2B7959E9-8D57-464E-A3CD-810305CAE0B4.root
/eos/lyoeos.in2p3.fr/grid/cms/store/data/Run2017E/SingleElectron/NANOAOD/UL2017_MiniAODv2_NanoAODv9-v1/120000/2CA5E928-B7F5-B547-898F-D1498D76E7F8.root
/eos/lyoeos.in2p3.fr/grid/cms/store/data/Run2017E/SingleElectron/NANOAOD/UL2017_MiniAODv2_NanoAODv9-v1/120000/3E04DC00-0CC0-7D4E-B5FB-FD03B6DB70D3.root
/eos/lyoeos.in2p3.fr/grid/cms/store/data/Run2017E/SingleElectron/NANOAOD/UL2017_MiniAODv2_NanoAODv9-v1/120000/41E08EE6-D441-FD46-9742-2EA28B1B2DB7.root
/eos/lyoeos.in2p3.fr/grid/cms/store/data/Run2017E/SingleElectron/NANOAOD/UL2017_MiniAODv2_NanoAODv9-v1/120000/43558FC9-B1A7-3E49-8510-9E645EAF7420.root
/eos/lyoeos.in2p3.fr/grid/cms/store/data/Run2017E/SingleElectron/NANOAOD/UL2017_MiniAODv2_NanoAODv9-v1/120000/471CD8B0-63B4-1449-8B81-4FF49A31C6EC.root
/eos/lyoeos.in2p3.fr/grid/cms/store/data/Run2017E/SingleElectron/NANOAOD/UL2017_MiniAODv2_NanoAODv9-v1/120000/4C327E03-05F1-5E48-9F16-D17FB6413E97.root
/eos/lyoeos.in2p3.fr/grid/cms/store/data/Run2017E/SingleElectron/NANOAOD/UL2017_MiniAODv2_NanoAODv9-v1/120000/4FFFB21E-6785-2243-A1EF-EDFA2CF7F1A8.root
/eos/lyoeos.in2p3.fr/grid/cms/store/data/Run2017E/SingleElectron/NANOAOD/UL2017_MiniAODv2_NanoAODv9-v1/120000/57956C33-1DE2-2043-A0BA-DC476B83D1BE.root
/eos/lyoeos.in2p3.fr/grid/cms/store/data/Run2017E/SingleElectron/NANOAOD/UL2017_MiniAODv2_NanoAODv9-v1/120000/607C0947-F194-4E4F-9767-8D8B3BA7EB18.root
/eos/lyoeos.in2p3.fr/grid/cms/store/data/Run2017E/SingleElectron/NANOAOD/UL2017_MiniAODv2_NanoAODv9-v1/120000/6D6F8DF9-A84C-D64E-A6C7-D5845B87B3C6.root
/eos/lyoeos.in2p3.fr/grid/cms/store/data/Run2017E/SingleElectron/NANOAOD/UL2017_MiniAODv2_NanoAODv9-v1/120000/71076304-A300-3A44-8B5A-0C378F4A9C2B.root
/eos/lyoeos.in2p3.fr/grid/cms/store/data/Run2017E/SingleElectron/NANOAOD/UL2017_MiniAODv2_NanoAODv9-v1/120000/7E7785DD-9B99-9046-89D4-2B8B95A9CA0D.root
/eos/lyoeos.in2p3.fr/grid/cms/store/data/Run2017E/SingleElectron/NANOAOD/UL2017_MiniAODv2_NanoAODv9-v1/120000/81FD2F79-4827-204B-8BF2-D59C2FF55BDF.root
/eos/lyoeos.in2p3.fr/grid/cms/store/data/Run2017E/SingleElectron/NANOAOD/UL2017_MiniAODv2_NanoAODv9-v1/120000/9C426B76-FFDF-394D-82AA-7237B7985622.root
/eos/lyoeos.in2p3.fr/grid/cms/store/data/Run2017E/SingleElectron/NANOAOD/UL2017_MiniAODv2_NanoAODv9-v1/120000/A761C3FD-6A03-C240-AF27-E013BF3AA09A.root
/eos/lyoeos.in2p3.fr/grid/cms/store/data/Run2017E/SingleElectron/NANOAOD/UL2017_MiniAODv2_NanoAODv9-v1/120000/A91B1299-50FD-A94C-A0C6-C0B38974CD0A.root
/eos/lyoeos.in2p3.fr/grid/cms/store/data/Run2017E/SingleElectron/NANOAOD/UL2017_MiniAODv2_NanoAODv9-v1/120000/AFAB2055-867F-6846-9B50-C8318A813360.root
/eos/lyoeos.in2p3.fr/grid/cms/store/data/Run2017E/SingleElectron/NANOAOD/UL2017_MiniAODv2_NanoAODv9-v1/120000/B544188E-B3C8-8949-AF62-452FB21B5539.root
/eos/lyoeos.in2p3.fr/grid/cms/store/data/Run2017E/SingleElectron/NANOAOD/UL2017_MiniAODv2_NanoAODv9-v1/120000/C8935834-CD14-6446-8321-2EE550B3170A.root
/eos/lyoeos.in2p3.fr/grid/cms/store/data/Run2017E/SingleElectron/NANOAOD/UL2017_MiniAODv2_NanoAODv9-v1/120000/CA4EB824-B73C-B642-92CF-FFFAD114174E.root
/eos/lyoeos.in2p3.fr/grid/cms/store/data/Run2017E/SingleElectron/NANOAOD/UL2017_MiniAODv2_NanoAODv9-v1/120000/D6E12DCF-DAD0-1642-89D6-A10B6317A39D.root
/eos/lyoeos.in2p3.fr/grid/cms/store/data/Run2017E/SingleElectron/NANOAOD/UL2017_MiniAODv2_NanoAODv9-v1/120000/D87C7D66-C802-194F-B4FF-499E486E0BDE.root
/eos/lyoeos.in2p3.fr/grid/cms/store/data/Run2017E/SingleElectron/NANOAOD/UL2017_MiniAODv2_NanoAODv9-v1/120000/E2492125-A222-1041-B558-2E49C962F72D.root
/eos/lyoeos.in2p3.fr/grid/cms/store/data/Run2017E/SingleElectron/NANOAOD/UL2017_MiniAODv2_NanoAODv9-v1/120000/E89F5EA0-77A7-1744-86D2-F4FB01C696E6.root
/eos/lyoeos.in2p3.fr/grid/cms/store/data/Run2017E/SingleElectron/NANOAOD/UL2017_MiniAODv2_NanoAODv9-v1/120000/EC3400F8-27F2-3342-8E9E-F4E4E5F39FCF.root
/eos/lyoeos.in2p3.fr/grid/cms/store/data/Run2017E/SingleElectron/NANOAOD/UL2017_MiniAODv2_NanoAODv9-v1/120000/EF786D6B-55E6-BC4C-A80D-B7D9010752D1.root
/eos/lyoeos.in2p3.fr/grid/cms/store/data/Run2017E/SingleElectron/NANOAOD/UL2017_MiniAODv2_NanoAODv9-v1/120000/F3136ED5-83D6-A244-A0E6-24D11F0D26E7.root
/eos/lyoeos.in2p3.fr/grid/cms/store/data/Run2017E/SingleElectron/NANOAOD/UL2017_MiniAODv2_NanoAODv9-v1/120000/FFD126DC-ADFD-4645-90A1-0C120255B245.root
/eos/lyoeos.in2p3.fr/grid/cms/store/data/Run2017E/SingleElectron/NANOAOD/UL2017_MiniAODv2_NanoAODv9-v1/280000/11AAA948-34AB-DF45-AA8F-E13247D30E4B.root
/eos/lyoeos.in2p3.fr/grid/cms/store/data/Run2017E/SingleElectron/NANOAOD/UL2017_MiniAODv2_NanoAODv9-v1/280000/24F65216-E62C-E14D-87BC-46F448E97E87.root
/eos/lyoeos.in2p3.fr/grid/cms/store/data/Run2017E/SingleElectron/NANOAOD/UL2017_MiniAODv2_NanoAODv9-v1/280000/3719FA6F-9E35-054C-B5F4-03D92D2765AE.root
/eos/lyoeos.in2p3.fr/grid/cms/store/data/Run2017E/SingleElectron/NANOAOD/UL2017_MiniAODv2_NanoAODv9-v1/280000/43E4E234-29DB-7A42-B893-AE4388B3750C.root
/eos/lyoeos.in2p3.fr/grid/cms/store/data/Run2017E/SingleElectron/NANOAOD/UL2017_MiniAODv2_NanoAODv9-v1/280000/5C7C378C-28E5-A24B-9F92-7A5C96971777.root
/eos/lyoeos.in2p3.fr/grid/cms/store/data/Run2017E/SingleElectron/NANOAOD/UL2017_MiniAODv2_NanoAODv9-v1/280000/6F356CD0-22FE-2E4A-BEA4-E06AAA29B420.root
/eos/lyoeos.in2p3.fr/grid/cms/store/data/Run2017E/SingleElectron/NANOAOD/UL2017_MiniAODv2_NanoAODv9-v1/280000/735B3CDC-DE62-8745-A9C8-7A52B2C1F8EA.root
/eos/lyoeos.in2p3.fr/grid/cms/store/data/Run2017E/SingleElectron/NANOAOD/UL2017_MiniAODv2_NanoAODv9-v1/280000/8ACCA269-D180-B542-9EEC-E169CE29DA1C.root
/eos/lyoeos.in2p3.fr/grid/cms/store/data/Run2017E/SingleElectron/NANOAOD/UL2017_MiniAODv2_NanoAODv9-v1/280000/994B40FF-5355-BD48-8A11-94F85D6743D8.root
/eos/lyoeos.in2p3.fr/grid/cms/store/data/Run2017E/SingleElectron/NANOAOD/UL2017_MiniAODv2_NanoAODv9-v1/280000/B3D986B0-5C57-A047-8F1B-709102428ECC.root
/eos/lyoeos.in2p3.fr/grid/cms/store/data/Run2017E/SingleElectron/NANOAOD/UL2017_MiniAODv2_NanoAODv9-v1/280000/B43E4B02-178D-784C-93CF-B8E420FC174E.root
/eos/lyoeos.in2p3.fr/grid/cms/store/data/Run2017E/SingleElectron/NANOAOD/UL2017_MiniAODv2_NanoAODv9-v1/280000/BF4611F2-B22D-2C44-90A4-EF58038189B5.root
/eos/lyoeos.in2p3.fr/grid/cms/store/data/Run2017E/SingleElectron/NANOAOD/UL2017_MiniAODv2_NanoAODv9-v1/280000/C1DF8B2F-E244-F944-AC09-DA8425B4209E.root
/eos/lyoeos.in2p3.fr/grid/cms/store/data/Run2017E/SingleElectron/NANOAOD/UL2017_MiniAODv2_NanoAODv9-v1/280000/C26F278F-7584-7848-BEE4-84AF7150D178.root
/eos/lyoeos.in2p3.fr/grid/cms/store/data/Run2017E/SingleElectron/NANOAOD/UL2017_MiniAODv2_NanoAODv9-v1/280000/C31969FE-E808-934C-9701-31FDA3BF78C0.root
/eos/lyoeos.in2p3.fr/grid/cms/store/data/Run2017E/SingleElectron/NANOAOD/UL2017_MiniAODv2_NanoAODv9-v1/280000/C4E012A5-227F-F548-9416-5C7F3C7478A8.root
/eos/lyoeos.in2p3.fr/grid/cms/store/data/Run2017E/SingleElectron/NANOAOD/UL2017_MiniAODv2_NanoAODv9-v1/280000/DC8AD694-C3DB-6D41-85A2-8BA2B8B933B7.root
/eos/lyoeos.in2p3.fr/grid/cms/store/data/Run2017E/SingleElectron/NANOAOD/UL2017_MiniAODv2_NanoAODv9-v1/280000/FE0DB6C8-5578-B34D-B15E-4C9E1BEECC17.root
