/eos/lyoeos.in2p3.fr/grid/cms/store/mc/RunIISummer20UL17NanoAODv9/QCD_Pt-15to20_EMEnriched_TuneCP5_13TeV-pythia8/NANOAODSIM/106X_mc2017_realistic_v9-v2/2430000/3D528BA5-C38D-914C-B239-02C1ABAAB4C8.root
/eos/lyoeos.in2p3.fr/grid/cms/store/mc/RunIISummer20UL17NanoAODv9/QCD_Pt-15to20_EMEnriched_TuneCP5_13TeV-pythia8/NANOAODSIM/106X_mc2017_realistic_v9-v2/2430000/7622700B-C767-494D-8759-C521209CBAFE.root
/eos/lyoeos.in2p3.fr/grid/cms/store/mc/RunIISummer20UL17NanoAODv9/QCD_Pt-15to20_EMEnriched_TuneCP5_13TeV-pythia8/NANOAODSIM/106X_mc2017_realistic_v9-v2/2430000/82DE2DC4-2F3D-A94B-8467-C5613EBBDC16.root
/eos/lyoeos.in2p3.fr/grid/cms/store/mc/RunIISummer20UL17NanoAODv9/QCD_Pt-15to20_EMEnriched_TuneCP5_13TeV-pythia8/NANOAODSIM/106X_mc2017_realistic_v9-v2/2430000/F4C441A1-2A05-544C-BF44-7B1276BBDBC4.root
/eos/lyoeos.in2p3.fr/grid/cms/store/mc/RunIISummer20UL17NanoAODv9/QCD_Pt-15to20_EMEnriched_TuneCP5_13TeV-pythia8/NANOAODSIM/106X_mc2017_realistic_v9-v2/2520000/7926EDEF-7692-E843-A481-040D789FEBCA.root
/eos/lyoeos.in2p3.fr/grid/cms/store/mc/RunIISummer20UL17NanoAODv9/QCD_Pt-15to20_EMEnriched_TuneCP5_13TeV-pythia8/NANOAODSIM/106X_mc2017_realistic_v9-v2/2530000/01F6E331-0A4F-8142-AC31-A193C87ADB49.root
/eos/lyoeos.in2p3.fr/grid/cms/store/mc/RunIISummer20UL17NanoAODv9/QCD_Pt-15to20_EMEnriched_TuneCP5_13TeV-pythia8/NANOAODSIM/106X_mc2017_realistic_v9-v2/2530000/06D1AEFB-336A-3448-8692-73FACF44BA4C.root
/eos/lyoeos.in2p3.fr/grid/cms/store/mc/RunIISummer20UL17NanoAODv9/QCD_Pt-15to20_EMEnriched_TuneCP5_13TeV-pythia8/NANOAODSIM/106X_mc2017_realistic_v9-v2/2530000/3EDE17DB-358B-D549-9556-0BF6A2701625.root
/eos/lyoeos.in2p3.fr/grid/cms/store/mc/RunIISummer20UL17NanoAODv9/QCD_Pt-15to20_EMEnriched_TuneCP5_13TeV-pythia8/NANOAODSIM/106X_mc2017_realistic_v9-v2/2530000/594DDE59-2DC3-6F42-8A04-5671674A1D3C.root
/eos/lyoeos.in2p3.fr/grid/cms/store/mc/RunIISummer20UL17NanoAODv9/QCD_Pt-15to20_EMEnriched_TuneCP5_13TeV-pythia8/NANOAODSIM/106X_mc2017_realistic_v9-v2/2530000/68E3D89C-261A-A547-87A1-4AD651CA86B6.root
/eos/lyoeos.in2p3.fr/grid/cms/store/mc/RunIISummer20UL17NanoAODv9/QCD_Pt-15to20_EMEnriched_TuneCP5_13TeV-pythia8/NANOAODSIM/106X_mc2017_realistic_v9-v2/2530000/6C8BC734-77B9-4340-90D9-E6612206B408.root
/eos/lyoeos.in2p3.fr/grid/cms/store/mc/RunIISummer20UL17NanoAODv9/QCD_Pt-15to20_EMEnriched_TuneCP5_13TeV-pythia8/NANOAODSIM/106X_mc2017_realistic_v9-v2/2530000/6FE4371D-B1A2-384A-B413-99591C201435.root
/eos/lyoeos.in2p3.fr/grid/cms/store/mc/RunIISummer20UL17NanoAODv9/QCD_Pt-15to20_EMEnriched_TuneCP5_13TeV-pythia8/NANOAODSIM/106X_mc2017_realistic_v9-v2/2530000/7BFE84F2-F4D1-3945-8A0B-15A7B87C5C1A.root
/eos/lyoeos.in2p3.fr/grid/cms/store/mc/RunIISummer20UL17NanoAODv9/QCD_Pt-15to20_EMEnriched_TuneCP5_13TeV-pythia8/NANOAODSIM/106X_mc2017_realistic_v9-v2/2530000/90E465FF-3794-8C42-A196-E8AC31BAE087.root
/eos/lyoeos.in2p3.fr/grid/cms/store/mc/RunIISummer20UL17NanoAODv9/QCD_Pt-15to20_EMEnriched_TuneCP5_13TeV-pythia8/NANOAODSIM/106X_mc2017_realistic_v9-v2/2530000/ACD17EED-13A5-7541-83A6-97FC191012E9.root
/eos/lyoeos.in2p3.fr/grid/cms/store/mc/RunIISummer20UL17NanoAODv9/QCD_Pt-15to20_EMEnriched_TuneCP5_13TeV-pythia8/NANOAODSIM/106X_mc2017_realistic_v9-v2/2530000/BD2A73A3-F256-4440-837B-F544073BC99D.root
/eos/lyoeos.in2p3.fr/grid/cms/store/mc/RunIISummer20UL17NanoAODv9/QCD_Pt-15to20_EMEnriched_TuneCP5_13TeV-pythia8/NANOAODSIM/106X_mc2017_realistic_v9-v2/2530000/C3661B98-9677-AD40-98C0-7AC1816414E6.root
/eos/lyoeos.in2p3.fr/grid/cms/store/mc/RunIISummer20UL17NanoAODv9/QCD_Pt-15to20_EMEnriched_TuneCP5_13TeV-pythia8/NANOAODSIM/106X_mc2017_realistic_v9-v2/2530000/C63DE609-29E0-D14D-BFD0-E72404E4F4A9.root
/eos/lyoeos.in2p3.fr/grid/cms/store/mc/RunIISummer20UL17NanoAODv9/QCD_Pt-15to20_EMEnriched_TuneCP5_13TeV-pythia8/NANOAODSIM/106X_mc2017_realistic_v9-v2/2530000/D82771CE-10F8-CC4D-89FD-12AD8FD67D6B.root
/eos/lyoeos.in2p3.fr/grid/cms/store/mc/RunIISummer20UL17NanoAODv9/QCD_Pt-15to20_EMEnriched_TuneCP5_13TeV-pythia8/NANOAODSIM/106X_mc2017_realistic_v9-v2/2530000/E3C243DF-844E-ED41-B800-04D286D83601.root
/eos/lyoeos.in2p3.fr/grid/cms/store/mc/RunIISummer20UL17NanoAODv9/QCD_Pt-15to20_EMEnriched_TuneCP5_13TeV-pythia8/NANOAODSIM/106X_mc2017_realistic_v9-v2/2530000/FF9663B6-20E6-B743-8F63-B597F42E8ED0.root
/eos/lyoeos.in2p3.fr/grid/cms/store/mc/RunIISummer20UL17NanoAODv9/QCD_Pt-15to20_EMEnriched_TuneCP5_13TeV-pythia8/NANOAODSIM/106X_mc2017_realistic_v9-v2/40000/D2079758-510C-8340-AAEF-DCA04291B880.root
/eos/lyoeos.in2p3.fr/grid/cms/store/mc/RunIISummer20UL17NanoAODv9/QCD_Pt-15to20_EMEnriched_TuneCP5_13TeV-pythia8/NANOAODSIM/106X_mc2017_realistic_v9-v2/50000/0BD37687-829A-2243-A29B-B30D484845FB.root
/eos/lyoeos.in2p3.fr/grid/cms/store/mc/RunIISummer20UL17NanoAODv9/QCD_Pt-15to20_EMEnriched_TuneCP5_13TeV-pythia8/NANOAODSIM/106X_mc2017_realistic_v9-v2/50000/3CFDC1CD-FF51-164D-8627-37EB86384475.root
/eos/lyoeos.in2p3.fr/grid/cms/store/mc/RunIISummer20UL17NanoAODv9/QCD_Pt-15to20_EMEnriched_TuneCP5_13TeV-pythia8/NANOAODSIM/106X_mc2017_realistic_v9-v2/50000/9FE18658-6184-184C-BF6C-01550A3FFCDD.root
