/eos/lyoeos.in2p3.fr/grid/cms/store/mc/RunIISummer20UL17NanoAODv9/QCD_Pt-800To1000_MuEnrichedPt5_TuneCP5_13TeV-pythia8/NANOAODSIM/106X_mc2017_realistic_v9-v2/2430000/015507B4-5CD1-964C-A9E3-C6F446C59B6A.root
/eos/lyoeos.in2p3.fr/grid/cms/store/mc/RunIISummer20UL17NanoAODv9/QCD_Pt-800To1000_MuEnrichedPt5_TuneCP5_13TeV-pythia8/NANOAODSIM/106X_mc2017_realistic_v9-v2/2430000/096C9446-AD10-5C47-A6DE-97FD67EE89BB.root
/eos/lyoeos.in2p3.fr/grid/cms/store/mc/RunIISummer20UL17NanoAODv9/QCD_Pt-800To1000_MuEnrichedPt5_TuneCP5_13TeV-pythia8/NANOAODSIM/106X_mc2017_realistic_v9-v2/2430000/32FA10A6-C878-B748-A973-59257FA3510F.root
/eos/lyoeos.in2p3.fr/grid/cms/store/mc/RunIISummer20UL17NanoAODv9/QCD_Pt-800To1000_MuEnrichedPt5_TuneCP5_13TeV-pythia8/NANOAODSIM/106X_mc2017_realistic_v9-v2/2430000/59AC740A-74E9-2D4C-9CEE-CAE672A696DC.root
/eos/lyoeos.in2p3.fr/grid/cms/store/mc/RunIISummer20UL17NanoAODv9/QCD_Pt-800To1000_MuEnrichedPt5_TuneCP5_13TeV-pythia8/NANOAODSIM/106X_mc2017_realistic_v9-v2/2430000/5EBFB643-351F-4041-BBD8-35577A694054.root
/eos/lyoeos.in2p3.fr/grid/cms/store/mc/RunIISummer20UL17NanoAODv9/QCD_Pt-800To1000_MuEnrichedPt5_TuneCP5_13TeV-pythia8/NANOAODSIM/106X_mc2017_realistic_v9-v2/2430000/65B07393-3F94-DA4D-AE65-2B59C187EFA9.root
/eos/lyoeos.in2p3.fr/grid/cms/store/mc/RunIISummer20UL17NanoAODv9/QCD_Pt-800To1000_MuEnrichedPt5_TuneCP5_13TeV-pythia8/NANOAODSIM/106X_mc2017_realistic_v9-v2/2430000/7673A441-94F3-D043-85E6-518283C3E15B.root
/eos/lyoeos.in2p3.fr/grid/cms/store/mc/RunIISummer20UL17NanoAODv9/QCD_Pt-800To1000_MuEnrichedPt5_TuneCP5_13TeV-pythia8/NANOAODSIM/106X_mc2017_realistic_v9-v2/2430000/AD0BACA1-13DB-D14F-AE22-340A4F4493F5.root
/eos/lyoeos.in2p3.fr/grid/cms/store/mc/RunIISummer20UL17NanoAODv9/QCD_Pt-800To1000_MuEnrichedPt5_TuneCP5_13TeV-pythia8/NANOAODSIM/106X_mc2017_realistic_v9-v2/2430000/B04D2EDD-A5FC-BC4E-96AA-411A7E3E9F3C.root
/eos/lyoeos.in2p3.fr/grid/cms/store/mc/RunIISummer20UL17NanoAODv9/QCD_Pt-800To1000_MuEnrichedPt5_TuneCP5_13TeV-pythia8/NANOAODSIM/106X_mc2017_realistic_v9-v2/2430000/BF099C94-EEF4-FD49-9AE2-383EEFC41554.root
/eos/lyoeos.in2p3.fr/grid/cms/store/mc/RunIISummer20UL17NanoAODv9/QCD_Pt-800To1000_MuEnrichedPt5_TuneCP5_13TeV-pythia8/NANOAODSIM/106X_mc2017_realistic_v9-v2/2430000/D360A5E9-8E35-3A46-9C52-E10027A45AAD.root
/eos/lyoeos.in2p3.fr/grid/cms/store/mc/RunIISummer20UL17NanoAODv9/QCD_Pt-800To1000_MuEnrichedPt5_TuneCP5_13TeV-pythia8/NANOAODSIM/106X_mc2017_realistic_v9-v2/2430000/F41B3D43-8EB0-BF41-9C82-8051C9860D66.root
/eos/lyoeos.in2p3.fr/grid/cms/store/mc/RunIISummer20UL17NanoAODv9/QCD_Pt-800To1000_MuEnrichedPt5_TuneCP5_13TeV-pythia8/NANOAODSIM/106X_mc2017_realistic_v9-v2/40000/01F81FDB-A6D1-6345-B15C-A544CB1B9A2C.root
/eos/lyoeos.in2p3.fr/grid/cms/store/mc/RunIISummer20UL17NanoAODv9/QCD_Pt-800To1000_MuEnrichedPt5_TuneCP5_13TeV-pythia8/NANOAODSIM/106X_mc2017_realistic_v9-v2/40000/0783233D-2712-134A-B5FA-2500ECABCED1.root
/eos/lyoeos.in2p3.fr/grid/cms/store/mc/RunIISummer20UL17NanoAODv9/QCD_Pt-800To1000_MuEnrichedPt5_TuneCP5_13TeV-pythia8/NANOAODSIM/106X_mc2017_realistic_v9-v2/40000/08835A06-FF0D-8342-A42E-857888E08819.root
/eos/lyoeos.in2p3.fr/grid/cms/store/mc/RunIISummer20UL17NanoAODv9/QCD_Pt-800To1000_MuEnrichedPt5_TuneCP5_13TeV-pythia8/NANOAODSIM/106X_mc2017_realistic_v9-v2/40000/095DEF50-C21B-554E-A33E-ECE2B0980339.root
/eos/lyoeos.in2p3.fr/grid/cms/store/mc/RunIISummer20UL17NanoAODv9/QCD_Pt-800To1000_MuEnrichedPt5_TuneCP5_13TeV-pythia8/NANOAODSIM/106X_mc2017_realistic_v9-v2/40000/099029A9-75BA-3D4B-B7B5-1E72FA2AF42E.root
/eos/lyoeos.in2p3.fr/grid/cms/store/mc/RunIISummer20UL17NanoAODv9/QCD_Pt-800To1000_MuEnrichedPt5_TuneCP5_13TeV-pythia8/NANOAODSIM/106X_mc2017_realistic_v9-v2/40000/14FED582-2E36-AF4D-8900-07206CFB0F49.root
/eos/lyoeos.in2p3.fr/grid/cms/store/mc/RunIISummer20UL17NanoAODv9/QCD_Pt-800To1000_MuEnrichedPt5_TuneCP5_13TeV-pythia8/NANOAODSIM/106X_mc2017_realistic_v9-v2/40000/2631D0E7-331A-424B-9D02-EF3E84DD36CB.root
/eos/lyoeos.in2p3.fr/grid/cms/store/mc/RunIISummer20UL17NanoAODv9/QCD_Pt-800To1000_MuEnrichedPt5_TuneCP5_13TeV-pythia8/NANOAODSIM/106X_mc2017_realistic_v9-v2/40000/2C93E9DA-716C-CD44-B734-30FD4333DA99.root
/eos/lyoeos.in2p3.fr/grid/cms/store/mc/RunIISummer20UL17NanoAODv9/QCD_Pt-800To1000_MuEnrichedPt5_TuneCP5_13TeV-pythia8/NANOAODSIM/106X_mc2017_realistic_v9-v2/40000/2D216E33-A69F-724B-8854-78100DC0AE6C.root
/eos/lyoeos.in2p3.fr/grid/cms/store/mc/RunIISummer20UL17NanoAODv9/QCD_Pt-800To1000_MuEnrichedPt5_TuneCP5_13TeV-pythia8/NANOAODSIM/106X_mc2017_realistic_v9-v2/40000/329049F8-F6E8-1345-8039-026F1C4DAE94.root
/eos/lyoeos.in2p3.fr/grid/cms/store/mc/RunIISummer20UL17NanoAODv9/QCD_Pt-800To1000_MuEnrichedPt5_TuneCP5_13TeV-pythia8/NANOAODSIM/106X_mc2017_realistic_v9-v2/40000/3563FC62-0094-7948-AF3D-895A227949B6.root
/eos/lyoeos.in2p3.fr/grid/cms/store/mc/RunIISummer20UL17NanoAODv9/QCD_Pt-800To1000_MuEnrichedPt5_TuneCP5_13TeV-pythia8/NANOAODSIM/106X_mc2017_realistic_v9-v2/40000/36DC67F2-E8B9-A546-9DFF-952FBC606FEA.root
/eos/lyoeos.in2p3.fr/grid/cms/store/mc/RunIISummer20UL17NanoAODv9/QCD_Pt-800To1000_MuEnrichedPt5_TuneCP5_13TeV-pythia8/NANOAODSIM/106X_mc2017_realistic_v9-v2/40000/371C7033-34C3-E040-BA82-F1B4584D50B1.root
/eos/lyoeos.in2p3.fr/grid/cms/store/mc/RunIISummer20UL17NanoAODv9/QCD_Pt-800To1000_MuEnrichedPt5_TuneCP5_13TeV-pythia8/NANOAODSIM/106X_mc2017_realistic_v9-v2/40000/37C22482-FD11-CC42-9884-F74EF089E744.root
/eos/lyoeos.in2p3.fr/grid/cms/store/mc/RunIISummer20UL17NanoAODv9/QCD_Pt-800To1000_MuEnrichedPt5_TuneCP5_13TeV-pythia8/NANOAODSIM/106X_mc2017_realistic_v9-v2/40000/384158D7-2FDD-3C49-9A4C-65B29F88A433.root
/eos/lyoeos.in2p3.fr/grid/cms/store/mc/RunIISummer20UL17NanoAODv9/QCD_Pt-800To1000_MuEnrichedPt5_TuneCP5_13TeV-pythia8/NANOAODSIM/106X_mc2017_realistic_v9-v2/40000/3C4DA285-67B7-5E45-BD18-E0F2DA9A1749.root
/eos/lyoeos.in2p3.fr/grid/cms/store/mc/RunIISummer20UL17NanoAODv9/QCD_Pt-800To1000_MuEnrichedPt5_TuneCP5_13TeV-pythia8/NANOAODSIM/106X_mc2017_realistic_v9-v2/40000/402BEABD-7485-C74F-800D-28142F42E63A.root
/eos/lyoeos.in2p3.fr/grid/cms/store/mc/RunIISummer20UL17NanoAODv9/QCD_Pt-800To1000_MuEnrichedPt5_TuneCP5_13TeV-pythia8/NANOAODSIM/106X_mc2017_realistic_v9-v2/40000/4112F27C-4F27-A940-A59C-7C4DFB518CEE.root
/eos/lyoeos.in2p3.fr/grid/cms/store/mc/RunIISummer20UL17NanoAODv9/QCD_Pt-800To1000_MuEnrichedPt5_TuneCP5_13TeV-pythia8/NANOAODSIM/106X_mc2017_realistic_v9-v2/40000/467F5577-9B7F-454D-9638-1BC0F35F06BA.root
/eos/lyoeos.in2p3.fr/grid/cms/store/mc/RunIISummer20UL17NanoAODv9/QCD_Pt-800To1000_MuEnrichedPt5_TuneCP5_13TeV-pythia8/NANOAODSIM/106X_mc2017_realistic_v9-v2/40000/4749505B-6233-5740-BBA3-1ABFA7F7B6F1.root
/eos/lyoeos.in2p3.fr/grid/cms/store/mc/RunIISummer20UL17NanoAODv9/QCD_Pt-800To1000_MuEnrichedPt5_TuneCP5_13TeV-pythia8/NANOAODSIM/106X_mc2017_realistic_v9-v2/40000/4AA7F8DC-3022-2147-A519-CEF26901D078.root
/eos/lyoeos.in2p3.fr/grid/cms/store/mc/RunIISummer20UL17NanoAODv9/QCD_Pt-800To1000_MuEnrichedPt5_TuneCP5_13TeV-pythia8/NANOAODSIM/106X_mc2017_realistic_v9-v2/40000/4CF1F0E3-75CF-C84E-BB94-9036E02468BD.root
/eos/lyoeos.in2p3.fr/grid/cms/store/mc/RunIISummer20UL17NanoAODv9/QCD_Pt-800To1000_MuEnrichedPt5_TuneCP5_13TeV-pythia8/NANOAODSIM/106X_mc2017_realistic_v9-v2/40000/50E44DCD-B524-874B-8A99-2002586EEB07.root
/eos/lyoeos.in2p3.fr/grid/cms/store/mc/RunIISummer20UL17NanoAODv9/QCD_Pt-800To1000_MuEnrichedPt5_TuneCP5_13TeV-pythia8/NANOAODSIM/106X_mc2017_realistic_v9-v2/40000/5225223C-C81C-5644-ABD1-56824DDCD114.root
/eos/lyoeos.in2p3.fr/grid/cms/store/mc/RunIISummer20UL17NanoAODv9/QCD_Pt-800To1000_MuEnrichedPt5_TuneCP5_13TeV-pythia8/NANOAODSIM/106X_mc2017_realistic_v9-v2/40000/5595C5AD-C2A2-4E4B-A33B-83F7E8E56471.root
/eos/lyoeos.in2p3.fr/grid/cms/store/mc/RunIISummer20UL17NanoAODv9/QCD_Pt-800To1000_MuEnrichedPt5_TuneCP5_13TeV-pythia8/NANOAODSIM/106X_mc2017_realistic_v9-v2/40000/574886E0-DC3D-384A-BBDC-216698CA0D3C.root
/eos/lyoeos.in2p3.fr/grid/cms/store/mc/RunIISummer20UL17NanoAODv9/QCD_Pt-800To1000_MuEnrichedPt5_TuneCP5_13TeV-pythia8/NANOAODSIM/106X_mc2017_realistic_v9-v2/40000/58689182-2248-8D42-918E-4546E70F8AD8.root
/eos/lyoeos.in2p3.fr/grid/cms/store/mc/RunIISummer20UL17NanoAODv9/QCD_Pt-800To1000_MuEnrichedPt5_TuneCP5_13TeV-pythia8/NANOAODSIM/106X_mc2017_realistic_v9-v2/40000/591EEADC-EBF2-0B4C-A489-19BA38303ABD.root
/eos/lyoeos.in2p3.fr/grid/cms/store/mc/RunIISummer20UL17NanoAODv9/QCD_Pt-800To1000_MuEnrichedPt5_TuneCP5_13TeV-pythia8/NANOAODSIM/106X_mc2017_realistic_v9-v2/40000/5E257805-5201-1649-9E19-6DA4F71ED44A.root
/eos/lyoeos.in2p3.fr/grid/cms/store/mc/RunIISummer20UL17NanoAODv9/QCD_Pt-800To1000_MuEnrichedPt5_TuneCP5_13TeV-pythia8/NANOAODSIM/106X_mc2017_realistic_v9-v2/40000/5ECC9794-644B-D34B-A546-D367666F0B9D.root
/eos/lyoeos.in2p3.fr/grid/cms/store/mc/RunIISummer20UL17NanoAODv9/QCD_Pt-800To1000_MuEnrichedPt5_TuneCP5_13TeV-pythia8/NANOAODSIM/106X_mc2017_realistic_v9-v2/40000/5F56B626-396B-A941-BDFA-82E46209DBDD.root
/eos/lyoeos.in2p3.fr/grid/cms/store/mc/RunIISummer20UL17NanoAODv9/QCD_Pt-800To1000_MuEnrichedPt5_TuneCP5_13TeV-pythia8/NANOAODSIM/106X_mc2017_realistic_v9-v2/40000/62EBA23E-A2E2-E64A-BF11-7273DFD77CB4.root
/eos/lyoeos.in2p3.fr/grid/cms/store/mc/RunIISummer20UL17NanoAODv9/QCD_Pt-800To1000_MuEnrichedPt5_TuneCP5_13TeV-pythia8/NANOAODSIM/106X_mc2017_realistic_v9-v2/40000/6D0E62E9-AEB0-EC4F-99C7-A9CBC65A4D15.root
/eos/lyoeos.in2p3.fr/grid/cms/store/mc/RunIISummer20UL17NanoAODv9/QCD_Pt-800To1000_MuEnrichedPt5_TuneCP5_13TeV-pythia8/NANOAODSIM/106X_mc2017_realistic_v9-v2/40000/6EDA30CF-928E-7B47-9DE3-0FC08FFD0F7F.root
/eos/lyoeos.in2p3.fr/grid/cms/store/mc/RunIISummer20UL17NanoAODv9/QCD_Pt-800To1000_MuEnrichedPt5_TuneCP5_13TeV-pythia8/NANOAODSIM/106X_mc2017_realistic_v9-v2/40000/7122D8E7-FF87-CD4C-8096-6BE910CC9C72.root
/eos/lyoeos.in2p3.fr/grid/cms/store/mc/RunIISummer20UL17NanoAODv9/QCD_Pt-800To1000_MuEnrichedPt5_TuneCP5_13TeV-pythia8/NANOAODSIM/106X_mc2017_realistic_v9-v2/40000/7172A043-C51C-0E4F-951C-B2BA942E1189.root
/eos/lyoeos.in2p3.fr/grid/cms/store/mc/RunIISummer20UL17NanoAODv9/QCD_Pt-800To1000_MuEnrichedPt5_TuneCP5_13TeV-pythia8/NANOAODSIM/106X_mc2017_realistic_v9-v2/40000/723FDD28-787F-EB49-B282-24B53B102549.root
/eos/lyoeos.in2p3.fr/grid/cms/store/mc/RunIISummer20UL17NanoAODv9/QCD_Pt-800To1000_MuEnrichedPt5_TuneCP5_13TeV-pythia8/NANOAODSIM/106X_mc2017_realistic_v9-v2/40000/76D79E26-EDE1-274A-AD84-6C3EA4DCE97C.root
/eos/lyoeos.in2p3.fr/grid/cms/store/mc/RunIISummer20UL17NanoAODv9/QCD_Pt-800To1000_MuEnrichedPt5_TuneCP5_13TeV-pythia8/NANOAODSIM/106X_mc2017_realistic_v9-v2/40000/79DCBE64-F43D-C745-9252-788179D14445.root
/eos/lyoeos.in2p3.fr/grid/cms/store/mc/RunIISummer20UL17NanoAODv9/QCD_Pt-800To1000_MuEnrichedPt5_TuneCP5_13TeV-pythia8/NANOAODSIM/106X_mc2017_realistic_v9-v2/40000/7CFD3C07-EF04-AA4E-8549-FD43BE468678.root
/eos/lyoeos.in2p3.fr/grid/cms/store/mc/RunIISummer20UL17NanoAODv9/QCD_Pt-800To1000_MuEnrichedPt5_TuneCP5_13TeV-pythia8/NANOAODSIM/106X_mc2017_realistic_v9-v2/40000/7D0864F3-E2CC-D94C-A805-01268AE3AD99.root
/eos/lyoeos.in2p3.fr/grid/cms/store/mc/RunIISummer20UL17NanoAODv9/QCD_Pt-800To1000_MuEnrichedPt5_TuneCP5_13TeV-pythia8/NANOAODSIM/106X_mc2017_realistic_v9-v2/40000/84DB1684-3022-DD41-AF5F-E700B3E730C6.root
/eos/lyoeos.in2p3.fr/grid/cms/store/mc/RunIISummer20UL17NanoAODv9/QCD_Pt-800To1000_MuEnrichedPt5_TuneCP5_13TeV-pythia8/NANOAODSIM/106X_mc2017_realistic_v9-v2/40000/86879826-772E-DC41-A9BD-9C01D4B33099.root
/eos/lyoeos.in2p3.fr/grid/cms/store/mc/RunIISummer20UL17NanoAODv9/QCD_Pt-800To1000_MuEnrichedPt5_TuneCP5_13TeV-pythia8/NANOAODSIM/106X_mc2017_realistic_v9-v2/40000/8E2938E6-FE40-7544-8038-615DD0132D00.root
/eos/lyoeos.in2p3.fr/grid/cms/store/mc/RunIISummer20UL17NanoAODv9/QCD_Pt-800To1000_MuEnrichedPt5_TuneCP5_13TeV-pythia8/NANOAODSIM/106X_mc2017_realistic_v9-v2/40000/902DA744-8BB4-3B48-9981-A8A57E8BAD54.root
/eos/lyoeos.in2p3.fr/grid/cms/store/mc/RunIISummer20UL17NanoAODv9/QCD_Pt-800To1000_MuEnrichedPt5_TuneCP5_13TeV-pythia8/NANOAODSIM/106X_mc2017_realistic_v9-v2/40000/939B9C13-AD49-804C-A110-E993F1570837.root
/eos/lyoeos.in2p3.fr/grid/cms/store/mc/RunIISummer20UL17NanoAODv9/QCD_Pt-800To1000_MuEnrichedPt5_TuneCP5_13TeV-pythia8/NANOAODSIM/106X_mc2017_realistic_v9-v2/40000/95E3E72B-C985-BC41-B835-5694AA8B86C5.root
/eos/lyoeos.in2p3.fr/grid/cms/store/mc/RunIISummer20UL17NanoAODv9/QCD_Pt-800To1000_MuEnrichedPt5_TuneCP5_13TeV-pythia8/NANOAODSIM/106X_mc2017_realistic_v9-v2/40000/9C308A7A-17A7-2E42-A971-7DFAAD25AA19.root
/eos/lyoeos.in2p3.fr/grid/cms/store/mc/RunIISummer20UL17NanoAODv9/QCD_Pt-800To1000_MuEnrichedPt5_TuneCP5_13TeV-pythia8/NANOAODSIM/106X_mc2017_realistic_v9-v2/40000/9CF490F0-525C-8748-8D74-DEDEC335699C.root
/eos/lyoeos.in2p3.fr/grid/cms/store/mc/RunIISummer20UL17NanoAODv9/QCD_Pt-800To1000_MuEnrichedPt5_TuneCP5_13TeV-pythia8/NANOAODSIM/106X_mc2017_realistic_v9-v2/40000/9D231154-1514-484D-98F0-C00AB8D1473D.root
/eos/lyoeos.in2p3.fr/grid/cms/store/mc/RunIISummer20UL17NanoAODv9/QCD_Pt-800To1000_MuEnrichedPt5_TuneCP5_13TeV-pythia8/NANOAODSIM/106X_mc2017_realistic_v9-v2/40000/9ED8AFFB-EC3F-4F4F-BA67-2D3E3DBC1FD5.root
/eos/lyoeos.in2p3.fr/grid/cms/store/mc/RunIISummer20UL17NanoAODv9/QCD_Pt-800To1000_MuEnrichedPt5_TuneCP5_13TeV-pythia8/NANOAODSIM/106X_mc2017_realistic_v9-v2/40000/9FE2B069-D432-1E40-9DEB-969732621027.root
/eos/lyoeos.in2p3.fr/grid/cms/store/mc/RunIISummer20UL17NanoAODv9/QCD_Pt-800To1000_MuEnrichedPt5_TuneCP5_13TeV-pythia8/NANOAODSIM/106X_mc2017_realistic_v9-v2/40000/A18B7C69-D508-A24A-9F19-ED0E7BBC215E.root
/eos/lyoeos.in2p3.fr/grid/cms/store/mc/RunIISummer20UL17NanoAODv9/QCD_Pt-800To1000_MuEnrichedPt5_TuneCP5_13TeV-pythia8/NANOAODSIM/106X_mc2017_realistic_v9-v2/40000/A5158DA4-8DDD-1345-A7ED-A7D6ECA28D21.root
/eos/lyoeos.in2p3.fr/grid/cms/store/mc/RunIISummer20UL17NanoAODv9/QCD_Pt-800To1000_MuEnrichedPt5_TuneCP5_13TeV-pythia8/NANOAODSIM/106X_mc2017_realistic_v9-v2/40000/AA241441-B7BA-394D-A933-63693CB67665.root
/eos/lyoeos.in2p3.fr/grid/cms/store/mc/RunIISummer20UL17NanoAODv9/QCD_Pt-800To1000_MuEnrichedPt5_TuneCP5_13TeV-pythia8/NANOAODSIM/106X_mc2017_realistic_v9-v2/40000/AA27D52D-284F-4F4A-9F61-CBA472382CBB.root
/eos/lyoeos.in2p3.fr/grid/cms/store/mc/RunIISummer20UL17NanoAODv9/QCD_Pt-800To1000_MuEnrichedPt5_TuneCP5_13TeV-pythia8/NANOAODSIM/106X_mc2017_realistic_v9-v2/40000/AD1081EB-963D-C047-8E2D-92F9A13EADA0.root
/eos/lyoeos.in2p3.fr/grid/cms/store/mc/RunIISummer20UL17NanoAODv9/QCD_Pt-800To1000_MuEnrichedPt5_TuneCP5_13TeV-pythia8/NANOAODSIM/106X_mc2017_realistic_v9-v2/40000/BEBA35E8-6D9F-3B4C-A821-251C031D3D1A.root
/eos/lyoeos.in2p3.fr/grid/cms/store/mc/RunIISummer20UL17NanoAODv9/QCD_Pt-800To1000_MuEnrichedPt5_TuneCP5_13TeV-pythia8/NANOAODSIM/106X_mc2017_realistic_v9-v2/40000/C15BB854-5A92-F34A-B448-8C98EC5900B0.root
/eos/lyoeos.in2p3.fr/grid/cms/store/mc/RunIISummer20UL17NanoAODv9/QCD_Pt-800To1000_MuEnrichedPt5_TuneCP5_13TeV-pythia8/NANOAODSIM/106X_mc2017_realistic_v9-v2/40000/C3DA2589-FED1-5E42-8891-3FADBB46B884.root
/eos/lyoeos.in2p3.fr/grid/cms/store/mc/RunIISummer20UL17NanoAODv9/QCD_Pt-800To1000_MuEnrichedPt5_TuneCP5_13TeV-pythia8/NANOAODSIM/106X_mc2017_realistic_v9-v2/40000/C4356E08-F913-CC4A-A83B-9EA7AA9BC299.root
/eos/lyoeos.in2p3.fr/grid/cms/store/mc/RunIISummer20UL17NanoAODv9/QCD_Pt-800To1000_MuEnrichedPt5_TuneCP5_13TeV-pythia8/NANOAODSIM/106X_mc2017_realistic_v9-v2/40000/CC2A4858-0211-CC4B-AEB3-97F0FEFFECDA.root
/eos/lyoeos.in2p3.fr/grid/cms/store/mc/RunIISummer20UL17NanoAODv9/QCD_Pt-800To1000_MuEnrichedPt5_TuneCP5_13TeV-pythia8/NANOAODSIM/106X_mc2017_realistic_v9-v2/40000/CDED2A9E-0FDE-7043-BABC-3E822037BD01.root
/eos/lyoeos.in2p3.fr/grid/cms/store/mc/RunIISummer20UL17NanoAODv9/QCD_Pt-800To1000_MuEnrichedPt5_TuneCP5_13TeV-pythia8/NANOAODSIM/106X_mc2017_realistic_v9-v2/40000/CF8F4292-6C3A-F54E-9772-A071ACB926CF.root
/eos/lyoeos.in2p3.fr/grid/cms/store/mc/RunIISummer20UL17NanoAODv9/QCD_Pt-800To1000_MuEnrichedPt5_TuneCP5_13TeV-pythia8/NANOAODSIM/106X_mc2017_realistic_v9-v2/40000/D8A57EFF-B680-AC4B-840F-C1C7ABE36968.root
/eos/lyoeos.in2p3.fr/grid/cms/store/mc/RunIISummer20UL17NanoAODv9/QCD_Pt-800To1000_MuEnrichedPt5_TuneCP5_13TeV-pythia8/NANOAODSIM/106X_mc2017_realistic_v9-v2/40000/D9A52267-53E7-DD48-8D92-D561FD20CB59.root
/eos/lyoeos.in2p3.fr/grid/cms/store/mc/RunIISummer20UL17NanoAODv9/QCD_Pt-800To1000_MuEnrichedPt5_TuneCP5_13TeV-pythia8/NANOAODSIM/106X_mc2017_realistic_v9-v2/40000/D9C3786A-C99C-744F-B47A-EBB3555B1248.root
/eos/lyoeos.in2p3.fr/grid/cms/store/mc/RunIISummer20UL17NanoAODv9/QCD_Pt-800To1000_MuEnrichedPt5_TuneCP5_13TeV-pythia8/NANOAODSIM/106X_mc2017_realistic_v9-v2/40000/E075597E-853D-C143-9F16-8D7F9219D554.root
/eos/lyoeos.in2p3.fr/grid/cms/store/mc/RunIISummer20UL17NanoAODv9/QCD_Pt-800To1000_MuEnrichedPt5_TuneCP5_13TeV-pythia8/NANOAODSIM/106X_mc2017_realistic_v9-v2/40000/E4FF5884-4A8A-294D-96CB-B51B2C5B7038.root
/eos/lyoeos.in2p3.fr/grid/cms/store/mc/RunIISummer20UL17NanoAODv9/QCD_Pt-800To1000_MuEnrichedPt5_TuneCP5_13TeV-pythia8/NANOAODSIM/106X_mc2017_realistic_v9-v2/40000/E680E6EF-A049-E74B-990C-361D4F999B47.root
/eos/lyoeos.in2p3.fr/grid/cms/store/mc/RunIISummer20UL17NanoAODv9/QCD_Pt-800To1000_MuEnrichedPt5_TuneCP5_13TeV-pythia8/NANOAODSIM/106X_mc2017_realistic_v9-v2/40000/ED28A2F7-C043-B94C-912C-5C849C55F34C.root
/eos/lyoeos.in2p3.fr/grid/cms/store/mc/RunIISummer20UL17NanoAODv9/QCD_Pt-800To1000_MuEnrichedPt5_TuneCP5_13TeV-pythia8/NANOAODSIM/106X_mc2017_realistic_v9-v2/40000/EE4314AE-60B1-464B-B4DF-14E605739229.root
/eos/lyoeos.in2p3.fr/grid/cms/store/mc/RunIISummer20UL17NanoAODv9/QCD_Pt-800To1000_MuEnrichedPt5_TuneCP5_13TeV-pythia8/NANOAODSIM/106X_mc2017_realistic_v9-v2/40000/EEC806D4-78DF-6344-AAD4-563C6EA4BFF9.root
/eos/lyoeos.in2p3.fr/grid/cms/store/mc/RunIISummer20UL17NanoAODv9/QCD_Pt-800To1000_MuEnrichedPt5_TuneCP5_13TeV-pythia8/NANOAODSIM/106X_mc2017_realistic_v9-v2/40000/F1AF3543-5BD5-FD40-8DC0-9D674F758016.root
/eos/lyoeos.in2p3.fr/grid/cms/store/mc/RunIISummer20UL17NanoAODv9/QCD_Pt-800To1000_MuEnrichedPt5_TuneCP5_13TeV-pythia8/NANOAODSIM/106X_mc2017_realistic_v9-v2/40000/F46A16ED-6486-184F-8525-6555E6ABDC7A.root
/eos/lyoeos.in2p3.fr/grid/cms/store/mc/RunIISummer20UL17NanoAODv9/QCD_Pt-800To1000_MuEnrichedPt5_TuneCP5_13TeV-pythia8/NANOAODSIM/106X_mc2017_realistic_v9-v2/40000/F714C24D-9E33-D34E-871B-54F47E0ADDEC.root
/eos/lyoeos.in2p3.fr/grid/cms/store/mc/RunIISummer20UL17NanoAODv9/QCD_Pt-800To1000_MuEnrichedPt5_TuneCP5_13TeV-pythia8/NANOAODSIM/106X_mc2017_realistic_v9-v2/40000/FC213639-5BB8-BF44-AE80-CF171409A5F6.root
/eos/lyoeos.in2p3.fr/grid/cms/store/mc/RunIISummer20UL17NanoAODv9/QCD_Pt-800To1000_MuEnrichedPt5_TuneCP5_13TeV-pythia8/NANOAODSIM/106X_mc2017_realistic_v9-v2/40000/FC406927-010A-394D-9827-5D5C836CA1FD.root
/eos/lyoeos.in2p3.fr/grid/cms/store/mc/RunIISummer20UL17NanoAODv9/QCD_Pt-800To1000_MuEnrichedPt5_TuneCP5_13TeV-pythia8/NANOAODSIM/106X_mc2017_realistic_v9-v2/40000/FDF181C4-1552-FE4B-876E-A6C60ADB8667.root
/eos/lyoeos.in2p3.fr/grid/cms/store/mc/RunIISummer20UL17NanoAODv9/QCD_Pt-800To1000_MuEnrichedPt5_TuneCP5_13TeV-pythia8/NANOAODSIM/106X_mc2017_realistic_v9-v2/50000/0F0DF541-A9F5-1F4D-A383-2F6F1E082308.root
/eos/lyoeos.in2p3.fr/grid/cms/store/mc/RunIISummer20UL17NanoAODv9/QCD_Pt-800To1000_MuEnrichedPt5_TuneCP5_13TeV-pythia8/NANOAODSIM/106X_mc2017_realistic_v9-v2/50000/1C9EE1B8-D014-6E4D-B578-2464E28EAB02.root
/eos/lyoeos.in2p3.fr/grid/cms/store/mc/RunIISummer20UL17NanoAODv9/QCD_Pt-800To1000_MuEnrichedPt5_TuneCP5_13TeV-pythia8/NANOAODSIM/106X_mc2017_realistic_v9-v2/50000/20F4F27D-7228-874B-B573-46C261468665.root
/eos/lyoeos.in2p3.fr/grid/cms/store/mc/RunIISummer20UL17NanoAODv9/QCD_Pt-800To1000_MuEnrichedPt5_TuneCP5_13TeV-pythia8/NANOAODSIM/106X_mc2017_realistic_v9-v2/50000/2F0FCD3B-E2B9-994C-9B9E-52B976BA92A5.root
/eos/lyoeos.in2p3.fr/grid/cms/store/mc/RunIISummer20UL17NanoAODv9/QCD_Pt-800To1000_MuEnrichedPt5_TuneCP5_13TeV-pythia8/NANOAODSIM/106X_mc2017_realistic_v9-v2/50000/3EB199A2-70EF-A545-99CD-050B64CF1C74.root
/eos/lyoeos.in2p3.fr/grid/cms/store/mc/RunIISummer20UL17NanoAODv9/QCD_Pt-800To1000_MuEnrichedPt5_TuneCP5_13TeV-pythia8/NANOAODSIM/106X_mc2017_realistic_v9-v2/50000/4D5FDDA0-2D73-5343-812A-7E9DECCDB1BB.root
/eos/lyoeos.in2p3.fr/grid/cms/store/mc/RunIISummer20UL17NanoAODv9/QCD_Pt-800To1000_MuEnrichedPt5_TuneCP5_13TeV-pythia8/NANOAODSIM/106X_mc2017_realistic_v9-v2/50000/5BB2310A-04B9-054B-973E-9C5AFF3EDD72.root
/eos/lyoeos.in2p3.fr/grid/cms/store/mc/RunIISummer20UL17NanoAODv9/QCD_Pt-800To1000_MuEnrichedPt5_TuneCP5_13TeV-pythia8/NANOAODSIM/106X_mc2017_realistic_v9-v2/50000/843394E9-1D5C-1E41-A401-1FC8FB424442.root
/eos/lyoeos.in2p3.fr/grid/cms/store/mc/RunIISummer20UL17NanoAODv9/QCD_Pt-800To1000_MuEnrichedPt5_TuneCP5_13TeV-pythia8/NANOAODSIM/106X_mc2017_realistic_v9-v2/50000/AE5F0D7F-A963-1749-A623-7FD58E97EEDE.root
/eos/lyoeos.in2p3.fr/grid/cms/store/mc/RunIISummer20UL17NanoAODv9/QCD_Pt-800To1000_MuEnrichedPt5_TuneCP5_13TeV-pythia8/NANOAODSIM/106X_mc2017_realistic_v9-v2/50000/E14E926E-898A-0040-8EB0-67BD0F8A0A99.root
