/eos/lyoeos.in2p3.fr/grid/cms/store/mc/RunIISummer20UL17NanoAODv9/QCD_Pt-600To800_MuEnrichedPt5_TuneCP5_13TeV-pythia8/NANOAODSIM/106X_mc2017_realistic_v9-v2/2520000/16B90B94-503A-D445-9B48-3D7CE5FAB4CE.root
/eos/lyoeos.in2p3.fr/grid/cms/store/mc/RunIISummer20UL17NanoAODv9/QCD_Pt-600To800_MuEnrichedPt5_TuneCP5_13TeV-pythia8/NANOAODSIM/106X_mc2017_realistic_v9-v2/2520000/631A1705-FB14-594A-A5AA-506B91576B19.root
/eos/lyoeos.in2p3.fr/grid/cms/store/mc/RunIISummer20UL17NanoAODv9/QCD_Pt-600To800_MuEnrichedPt5_TuneCP5_13TeV-pythia8/NANOAODSIM/106X_mc2017_realistic_v9-v2/2530000/15BCAC4B-D31A-3C43-994A-875A088A202B.root
/eos/lyoeos.in2p3.fr/grid/cms/store/mc/RunIISummer20UL17NanoAODv9/QCD_Pt-600To800_MuEnrichedPt5_TuneCP5_13TeV-pythia8/NANOAODSIM/106X_mc2017_realistic_v9-v2/2530000/16CE170C-CC2C-1C46-ACD4-66845B103E26.root
/eos/lyoeos.in2p3.fr/grid/cms/store/mc/RunIISummer20UL17NanoAODv9/QCD_Pt-600To800_MuEnrichedPt5_TuneCP5_13TeV-pythia8/NANOAODSIM/106X_mc2017_realistic_v9-v2/2530000/16FCDE5C-781D-3A4C-87AA-3D3CC26693EB.root
/eos/lyoeos.in2p3.fr/grid/cms/store/mc/RunIISummer20UL17NanoAODv9/QCD_Pt-600To800_MuEnrichedPt5_TuneCP5_13TeV-pythia8/NANOAODSIM/106X_mc2017_realistic_v9-v2/2530000/1B55FC63-13F2-6F40-99EF-2DD5ED96B971.root
/eos/lyoeos.in2p3.fr/grid/cms/store/mc/RunIISummer20UL17NanoAODv9/QCD_Pt-600To800_MuEnrichedPt5_TuneCP5_13TeV-pythia8/NANOAODSIM/106X_mc2017_realistic_v9-v2/2530000/25B63B58-165C-1D4F-8C27-FCCC252323B4.root
/eos/lyoeos.in2p3.fr/grid/cms/store/mc/RunIISummer20UL17NanoAODv9/QCD_Pt-600To800_MuEnrichedPt5_TuneCP5_13TeV-pythia8/NANOAODSIM/106X_mc2017_realistic_v9-v2/2530000/27E3D419-EF3C-1242-880B-1D61FCC99B51.root
/eos/lyoeos.in2p3.fr/grid/cms/store/mc/RunIISummer20UL17NanoAODv9/QCD_Pt-600To800_MuEnrichedPt5_TuneCP5_13TeV-pythia8/NANOAODSIM/106X_mc2017_realistic_v9-v2/2530000/32B6EECD-B305-7B48-A4E9-7A0004A90D60.root
/eos/lyoeos.in2p3.fr/grid/cms/store/mc/RunIISummer20UL17NanoAODv9/QCD_Pt-600To800_MuEnrichedPt5_TuneCP5_13TeV-pythia8/NANOAODSIM/106X_mc2017_realistic_v9-v2/2530000/365E9DDF-5F12-A744-BAC5-4486A4FD6F81.root
/eos/lyoeos.in2p3.fr/grid/cms/store/mc/RunIISummer20UL17NanoAODv9/QCD_Pt-600To800_MuEnrichedPt5_TuneCP5_13TeV-pythia8/NANOAODSIM/106X_mc2017_realistic_v9-v2/2530000/450C4738-CA5F-F342-AE08-7B6E0E38176F.root
/eos/lyoeos.in2p3.fr/grid/cms/store/mc/RunIISummer20UL17NanoAODv9/QCD_Pt-600To800_MuEnrichedPt5_TuneCP5_13TeV-pythia8/NANOAODSIM/106X_mc2017_realistic_v9-v2/2530000/48E5654F-2F45-6941-9B9C-477081EED550.root
/eos/lyoeos.in2p3.fr/grid/cms/store/mc/RunIISummer20UL17NanoAODv9/QCD_Pt-600To800_MuEnrichedPt5_TuneCP5_13TeV-pythia8/NANOAODSIM/106X_mc2017_realistic_v9-v2/2530000/4F4F1542-5A96-404C-AE1B-309AC00CC0FD.root
/eos/lyoeos.in2p3.fr/grid/cms/store/mc/RunIISummer20UL17NanoAODv9/QCD_Pt-600To800_MuEnrichedPt5_TuneCP5_13TeV-pythia8/NANOAODSIM/106X_mc2017_realistic_v9-v2/2530000/55194216-2ABA-CB44-81CC-7674B0024EC4.root
/eos/lyoeos.in2p3.fr/grid/cms/store/mc/RunIISummer20UL17NanoAODv9/QCD_Pt-600To800_MuEnrichedPt5_TuneCP5_13TeV-pythia8/NANOAODSIM/106X_mc2017_realistic_v9-v2/2530000/5A908F44-1687-AD41-A8BF-87AF610163B8.root
/eos/lyoeos.in2p3.fr/grid/cms/store/mc/RunIISummer20UL17NanoAODv9/QCD_Pt-600To800_MuEnrichedPt5_TuneCP5_13TeV-pythia8/NANOAODSIM/106X_mc2017_realistic_v9-v2/2530000/5CBCB214-3202-6944-9E81-43DA7353BF45.root
/eos/lyoeos.in2p3.fr/grid/cms/store/mc/RunIISummer20UL17NanoAODv9/QCD_Pt-600To800_MuEnrichedPt5_TuneCP5_13TeV-pythia8/NANOAODSIM/106X_mc2017_realistic_v9-v2/2530000/5FFED26A-6F14-A340-AB94-1AB8B86934F0.root
/eos/lyoeos.in2p3.fr/grid/cms/store/mc/RunIISummer20UL17NanoAODv9/QCD_Pt-600To800_MuEnrichedPt5_TuneCP5_13TeV-pythia8/NANOAODSIM/106X_mc2017_realistic_v9-v2/2530000/63B34F84-7F8F-A449-83FF-183A911726E9.root
/eos/lyoeos.in2p3.fr/grid/cms/store/mc/RunIISummer20UL17NanoAODv9/QCD_Pt-600To800_MuEnrichedPt5_TuneCP5_13TeV-pythia8/NANOAODSIM/106X_mc2017_realistic_v9-v2/2530000/677307F7-C309-EC4A-B34C-B0EED2BDB0FB.root
/eos/lyoeos.in2p3.fr/grid/cms/store/mc/RunIISummer20UL17NanoAODv9/QCD_Pt-600To800_MuEnrichedPt5_TuneCP5_13TeV-pythia8/NANOAODSIM/106X_mc2017_realistic_v9-v2/2530000/6CFE07B2-4087-6746-B12B-309710BF8963.root
/eos/lyoeos.in2p3.fr/grid/cms/store/mc/RunIISummer20UL17NanoAODv9/QCD_Pt-600To800_MuEnrichedPt5_TuneCP5_13TeV-pythia8/NANOAODSIM/106X_mc2017_realistic_v9-v2/2530000/6EF2D920-2677-4F40-98C4-3AD0FADFB959.root
/eos/lyoeos.in2p3.fr/grid/cms/store/mc/RunIISummer20UL17NanoAODv9/QCD_Pt-600To800_MuEnrichedPt5_TuneCP5_13TeV-pythia8/NANOAODSIM/106X_mc2017_realistic_v9-v2/2530000/7B0A588E-B2BE-B742-A4EB-DD6F698DBD0F.root
/eos/lyoeos.in2p3.fr/grid/cms/store/mc/RunIISummer20UL17NanoAODv9/QCD_Pt-600To800_MuEnrichedPt5_TuneCP5_13TeV-pythia8/NANOAODSIM/106X_mc2017_realistic_v9-v2/2530000/804597C8-7E3C-AE4E-A32A-F4A6718FC5C2.root
/eos/lyoeos.in2p3.fr/grid/cms/store/mc/RunIISummer20UL17NanoAODv9/QCD_Pt-600To800_MuEnrichedPt5_TuneCP5_13TeV-pythia8/NANOAODSIM/106X_mc2017_realistic_v9-v2/2530000/87DDE3F1-6A13-B547-8763-DDA6D78852A1.root
/eos/lyoeos.in2p3.fr/grid/cms/store/mc/RunIISummer20UL17NanoAODv9/QCD_Pt-600To800_MuEnrichedPt5_TuneCP5_13TeV-pythia8/NANOAODSIM/106X_mc2017_realistic_v9-v2/2530000/8B2E5030-C4D9-E848-8AFB-FD61254E5FFF.root
/eos/lyoeos.in2p3.fr/grid/cms/store/mc/RunIISummer20UL17NanoAODv9/QCD_Pt-600To800_MuEnrichedPt5_TuneCP5_13TeV-pythia8/NANOAODSIM/106X_mc2017_realistic_v9-v2/2530000/95CCD27D-601C-344F-A668-EEFACE08045C.root
/eos/lyoeos.in2p3.fr/grid/cms/store/mc/RunIISummer20UL17NanoAODv9/QCD_Pt-600To800_MuEnrichedPt5_TuneCP5_13TeV-pythia8/NANOAODSIM/106X_mc2017_realistic_v9-v2/2530000/97CE08D6-F35B-5247-A2C0-40C1A3A00F39.root
/eos/lyoeos.in2p3.fr/grid/cms/store/mc/RunIISummer20UL17NanoAODv9/QCD_Pt-600To800_MuEnrichedPt5_TuneCP5_13TeV-pythia8/NANOAODSIM/106X_mc2017_realistic_v9-v2/2530000/A3023C92-4D17-0B49-904B-77408318422E.root
/eos/lyoeos.in2p3.fr/grid/cms/store/mc/RunIISummer20UL17NanoAODv9/QCD_Pt-600To800_MuEnrichedPt5_TuneCP5_13TeV-pythia8/NANOAODSIM/106X_mc2017_realistic_v9-v2/2530000/AA1F7F85-F3F7-6241-8F7B-3D0C24EA507F.root
/eos/lyoeos.in2p3.fr/grid/cms/store/mc/RunIISummer20UL17NanoAODv9/QCD_Pt-600To800_MuEnrichedPt5_TuneCP5_13TeV-pythia8/NANOAODSIM/106X_mc2017_realistic_v9-v2/2530000/AAF79BD1-79AC-7947-A0C0-8F0FCADF51C5.root
/eos/lyoeos.in2p3.fr/grid/cms/store/mc/RunIISummer20UL17NanoAODv9/QCD_Pt-600To800_MuEnrichedPt5_TuneCP5_13TeV-pythia8/NANOAODSIM/106X_mc2017_realistic_v9-v2/2530000/AD1CF6F3-9CC6-0A4E-BB40-519A7F9FCD57.root
/eos/lyoeos.in2p3.fr/grid/cms/store/mc/RunIISummer20UL17NanoAODv9/QCD_Pt-600To800_MuEnrichedPt5_TuneCP5_13TeV-pythia8/NANOAODSIM/106X_mc2017_realistic_v9-v2/2530000/AE1ED7EA-5F7A-9C43-A235-D7EED7E5D365.root
/eos/lyoeos.in2p3.fr/grid/cms/store/mc/RunIISummer20UL17NanoAODv9/QCD_Pt-600To800_MuEnrichedPt5_TuneCP5_13TeV-pythia8/NANOAODSIM/106X_mc2017_realistic_v9-v2/2530000/B042A1C9-A867-A842-9B1F-16E7847E58A3.root
/eos/lyoeos.in2p3.fr/grid/cms/store/mc/RunIISummer20UL17NanoAODv9/QCD_Pt-600To800_MuEnrichedPt5_TuneCP5_13TeV-pythia8/NANOAODSIM/106X_mc2017_realistic_v9-v2/2530000/B0DEDDA6-E454-CF49-BF05-08543B070EF4.root
/eos/lyoeos.in2p3.fr/grid/cms/store/mc/RunIISummer20UL17NanoAODv9/QCD_Pt-600To800_MuEnrichedPt5_TuneCP5_13TeV-pythia8/NANOAODSIM/106X_mc2017_realistic_v9-v2/2530000/BFEF212E-E021-B643-B3EE-9EC2ECBCF43D.root
/eos/lyoeos.in2p3.fr/grid/cms/store/mc/RunIISummer20UL17NanoAODv9/QCD_Pt-600To800_MuEnrichedPt5_TuneCP5_13TeV-pythia8/NANOAODSIM/106X_mc2017_realistic_v9-v2/2530000/C7EA5361-7B9E-2D4A-9D53-0C7A3CF20B58.root
/eos/lyoeos.in2p3.fr/grid/cms/store/mc/RunIISummer20UL17NanoAODv9/QCD_Pt-600To800_MuEnrichedPt5_TuneCP5_13TeV-pythia8/NANOAODSIM/106X_mc2017_realistic_v9-v2/2530000/CC125983-5159-1244-B6E3-D9218B16E200.root
/eos/lyoeos.in2p3.fr/grid/cms/store/mc/RunIISummer20UL17NanoAODv9/QCD_Pt-600To800_MuEnrichedPt5_TuneCP5_13TeV-pythia8/NANOAODSIM/106X_mc2017_realistic_v9-v2/2530000/D17F15F8-6C2A-FC44-A632-733FA6DF74C9.root
/eos/lyoeos.in2p3.fr/grid/cms/store/mc/RunIISummer20UL17NanoAODv9/QCD_Pt-600To800_MuEnrichedPt5_TuneCP5_13TeV-pythia8/NANOAODSIM/106X_mc2017_realistic_v9-v2/2530000/D32CDF65-9354-564E-A0E0-F35FBB77764E.root
/eos/lyoeos.in2p3.fr/grid/cms/store/mc/RunIISummer20UL17NanoAODv9/QCD_Pt-600To800_MuEnrichedPt5_TuneCP5_13TeV-pythia8/NANOAODSIM/106X_mc2017_realistic_v9-v2/2530000/D70EAF45-38EB-B540-8270-D6920D82A18E.root
/eos/lyoeos.in2p3.fr/grid/cms/store/mc/RunIISummer20UL17NanoAODv9/QCD_Pt-600To800_MuEnrichedPt5_TuneCP5_13TeV-pythia8/NANOAODSIM/106X_mc2017_realistic_v9-v2/2530000/D8A23D2F-A6A2-B84C-AC75-0184121B6AF7.root
/eos/lyoeos.in2p3.fr/grid/cms/store/mc/RunIISummer20UL17NanoAODv9/QCD_Pt-600To800_MuEnrichedPt5_TuneCP5_13TeV-pythia8/NANOAODSIM/106X_mc2017_realistic_v9-v2/2530000/DA071A1C-5C2C-D74E-BFB7-FF7AC8CCA9CE.root
/eos/lyoeos.in2p3.fr/grid/cms/store/mc/RunIISummer20UL17NanoAODv9/QCD_Pt-600To800_MuEnrichedPt5_TuneCP5_13TeV-pythia8/NANOAODSIM/106X_mc2017_realistic_v9-v2/2530000/DF1523DC-4C73-C84F-BC10-733FBEFA310D.root
/eos/lyoeos.in2p3.fr/grid/cms/store/mc/RunIISummer20UL17NanoAODv9/QCD_Pt-600To800_MuEnrichedPt5_TuneCP5_13TeV-pythia8/NANOAODSIM/106X_mc2017_realistic_v9-v2/2530000/DF2F24DC-1230-1B49-A50A-5953924E8D26.root
/eos/lyoeos.in2p3.fr/grid/cms/store/mc/RunIISummer20UL17NanoAODv9/QCD_Pt-600To800_MuEnrichedPt5_TuneCP5_13TeV-pythia8/NANOAODSIM/106X_mc2017_realistic_v9-v2/2530000/E6E2E823-CB8A-6248-87CD-F834A279749F.root
/eos/lyoeos.in2p3.fr/grid/cms/store/mc/RunIISummer20UL17NanoAODv9/QCD_Pt-600To800_MuEnrichedPt5_TuneCP5_13TeV-pythia8/NANOAODSIM/106X_mc2017_realistic_v9-v2/2530000/E9584B31-14C3-5A42-A455-7A930299D39A.root
/eos/lyoeos.in2p3.fr/grid/cms/store/mc/RunIISummer20UL17NanoAODv9/QCD_Pt-600To800_MuEnrichedPt5_TuneCP5_13TeV-pythia8/NANOAODSIM/106X_mc2017_realistic_v9-v2/2530000/EC9FD276-50E9-AE4D-AB67-3D72E7D7D110.root
/eos/lyoeos.in2p3.fr/grid/cms/store/mc/RunIISummer20UL17NanoAODv9/QCD_Pt-600To800_MuEnrichedPt5_TuneCP5_13TeV-pythia8/NANOAODSIM/106X_mc2017_realistic_v9-v2/2530000/EEABE613-E3F3-6D4E-B7D0-6429E408B901.root
/eos/lyoeos.in2p3.fr/grid/cms/store/mc/RunIISummer20UL17NanoAODv9/QCD_Pt-600To800_MuEnrichedPt5_TuneCP5_13TeV-pythia8/NANOAODSIM/106X_mc2017_realistic_v9-v2/2530000/F8FEBB75-6D67-8147-9DA0-05E6A20AB05C.root
/eos/lyoeos.in2p3.fr/grid/cms/store/mc/RunIISummer20UL17NanoAODv9/QCD_Pt-600To800_MuEnrichedPt5_TuneCP5_13TeV-pythia8/NANOAODSIM/106X_mc2017_realistic_v9-v2/2530000/F9AD2370-29D5-274B-9EBB-8E12C31BDB30.root
/eos/lyoeos.in2p3.fr/grid/cms/store/mc/RunIISummer20UL17NanoAODv9/QCD_Pt-600To800_MuEnrichedPt5_TuneCP5_13TeV-pythia8/NANOAODSIM/106X_mc2017_realistic_v9-v2/2530000/FA061533-46C7-8341-AEAC-1AB5F3E327E6.root
/eos/lyoeos.in2p3.fr/grid/cms/store/mc/RunIISummer20UL17NanoAODv9/QCD_Pt-600To800_MuEnrichedPt5_TuneCP5_13TeV-pythia8/NANOAODSIM/106X_mc2017_realistic_v9-v2/2530000/FC18D7A9-6115-A946-BDB0-6FDFDE7D432E.root
/eos/lyoeos.in2p3.fr/grid/cms/store/mc/RunIISummer20UL17NanoAODv9/QCD_Pt-600To800_MuEnrichedPt5_TuneCP5_13TeV-pythia8/NANOAODSIM/106X_mc2017_realistic_v9-v2/2540000/2D928FBF-07BF-0141-9C78-644F26F2AC09.root
/eos/lyoeos.in2p3.fr/grid/cms/store/mc/RunIISummer20UL17NanoAODv9/QCD_Pt-600To800_MuEnrichedPt5_TuneCP5_13TeV-pythia8/NANOAODSIM/106X_mc2017_realistic_v9-v2/260000/0199E358-8A15-164A-AF88-2779DFD20153.root
/eos/lyoeos.in2p3.fr/grid/cms/store/mc/RunIISummer20UL17NanoAODv9/QCD_Pt-600To800_MuEnrichedPt5_TuneCP5_13TeV-pythia8/NANOAODSIM/106X_mc2017_realistic_v9-v2/260000/5710CFC3-A1CD-224E-9A89-E84A329C1A29.root
/eos/lyoeos.in2p3.fr/grid/cms/store/mc/RunIISummer20UL17NanoAODv9/QCD_Pt-600To800_MuEnrichedPt5_TuneCP5_13TeV-pythia8/NANOAODSIM/106X_mc2017_realistic_v9-v2/260000/C180D840-DF16-1D4A-8133-52B9DE513787.root
/eos/lyoeos.in2p3.fr/grid/cms/store/mc/RunIISummer20UL17NanoAODv9/QCD_Pt-600To800_MuEnrichedPt5_TuneCP5_13TeV-pythia8/NANOAODSIM/106X_mc2017_realistic_v9-v2/260000/C9D308D8-E72E-024B-A39D-4866F2006D25.root
/eos/lyoeos.in2p3.fr/grid/cms/store/mc/RunIISummer20UL17NanoAODv9/QCD_Pt-600To800_MuEnrichedPt5_TuneCP5_13TeV-pythia8/NANOAODSIM/106X_mc2017_realistic_v9-v2/80000/0FDD733E-787D-E342-B32B-8F2F7E168BD7.root
