/eos/lyoeos.in2p3.fr/grid/cms/store/data/Run2017C/MuonEG/NANOAOD/UL2017_MiniAODv2_NanoAODv9-v1/120000/0A8B762A-E961-6149-BAB2-AF5B7031A684.root
/eos/lyoeos.in2p3.fr/grid/cms/store/data/Run2017C/MuonEG/NANOAOD/UL2017_MiniAODv2_NanoAODv9-v1/120000/1F01A450-BB45-7647-B32A-31B97363D702.root
/eos/lyoeos.in2p3.fr/grid/cms/store/data/Run2017C/MuonEG/NANOAOD/UL2017_MiniAODv2_NanoAODv9-v1/120000/2C210650-FE5E-A74D-98C9-F009218E4627.root
/eos/lyoeos.in2p3.fr/grid/cms/store/data/Run2017C/MuonEG/NANOAOD/UL2017_MiniAODv2_NanoAODv9-v1/120000/2C3DFA2F-705A-D24A-99C3-48E85C96E299.root
/eos/lyoeos.in2p3.fr/grid/cms/store/data/Run2017C/MuonEG/NANOAOD/UL2017_MiniAODv2_NanoAODv9-v1/120000/35DEEC7A-29BF-2D4E-A7CE-EC452318009C.root
/eos/lyoeos.in2p3.fr/grid/cms/store/data/Run2017C/MuonEG/NANOAOD/UL2017_MiniAODv2_NanoAODv9-v1/120000/40D5A823-1536-CB47-98D5-2DE77D061731.root
/eos/lyoeos.in2p3.fr/grid/cms/store/data/Run2017C/MuonEG/NANOAOD/UL2017_MiniAODv2_NanoAODv9-v1/120000/44158C16-5D1D-9E40-B382-DD93DB4141C8.root
/eos/lyoeos.in2p3.fr/grid/cms/store/data/Run2017C/MuonEG/NANOAOD/UL2017_MiniAODv2_NanoAODv9-v1/120000/577C861E-4464-2A41-9811-ED7B691359BE.root
/eos/lyoeos.in2p3.fr/grid/cms/store/data/Run2017C/MuonEG/NANOAOD/UL2017_MiniAODv2_NanoAODv9-v1/120000/6476DD87-BBBA-9640-BB9B-C6DB9C90A543.root
/eos/lyoeos.in2p3.fr/grid/cms/store/data/Run2017C/MuonEG/NANOAOD/UL2017_MiniAODv2_NanoAODv9-v1/120000/7ADF3E67-56DF-B14F-AC41-A56D1B5B4673.root
/eos/lyoeos.in2p3.fr/grid/cms/store/data/Run2017C/MuonEG/NANOAOD/UL2017_MiniAODv2_NanoAODv9-v1/120000/A7B31388-B73B-F84F-B8B4-0CAE42BEBE62.root
/eos/lyoeos.in2p3.fr/grid/cms/store/data/Run2017C/MuonEG/NANOAOD/UL2017_MiniAODv2_NanoAODv9-v1/120000/C44CC9E3-2453-D54E-A43E-734678216FF5.root
/eos/lyoeos.in2p3.fr/grid/cms/store/data/Run2017C/MuonEG/NANOAOD/UL2017_MiniAODv2_NanoAODv9-v1/120000/D115046F-D0F7-524B-96DD-898995DB7A6D.root
/eos/lyoeos.in2p3.fr/grid/cms/store/data/Run2017C/MuonEG/NANOAOD/UL2017_MiniAODv2_NanoAODv9-v1/120000/E214B6D6-A81D-AA43-A080-3FD1EFD07438.root
/eos/lyoeos.in2p3.fr/grid/cms/store/data/Run2017C/MuonEG/NANOAOD/UL2017_MiniAODv2_NanoAODv9-v1/280000/18F464DE-091D-084C-AFE3-43F4DE953AD6.root
/eos/lyoeos.in2p3.fr/grid/cms/store/data/Run2017C/MuonEG/NANOAOD/UL2017_MiniAODv2_NanoAODv9-v1/280000/E6D30734-B86B-F24F-B1ED-2829DC332260.root
/eos/lyoeos.in2p3.fr/grid/cms/store/data/Run2017C/MuonEG/NANOAOD/UL2017_MiniAODv2_NanoAODv9-v1/280000/FA10F632-5411-A14B-8220-1122C8BBA704.root
