/eos/lyoeos.in2p3.fr/grid/cms/store/mc/RunIISummer20UL17NanoAODv9/WW_TuneCP5_13TeV-pythia8/NANOAODSIM/106X_mc2017_realistic_v9-v1/120000/1721E017-92D1-F04B-8320-81473F16BC79.root
/eos/lyoeos.in2p3.fr/grid/cms/store/mc/RunIISummer20UL17NanoAODv9/WW_TuneCP5_13TeV-pythia8/NANOAODSIM/106X_mc2017_realistic_v9-v1/120000/79EB0418-2F30-C048-AA68-96840AF4A28E.root
/eos/lyoeos.in2p3.fr/grid/cms/store/mc/RunIISummer20UL17NanoAODv9/WW_TuneCP5_13TeV-pythia8/NANOAODSIM/106X_mc2017_realistic_v9-v1/120000/FDBADD8E-5D09-9F47-84A1-B4FC42F06601.root
/eos/lyoeos.in2p3.fr/grid/cms/store/mc/RunIISummer20UL17NanoAODv9/WW_TuneCP5_13TeV-pythia8/NANOAODSIM/106X_mc2017_realistic_v9-v1/130000/AB0B905F-50F3-ED45-9CAD-9237B8246986.root
/eos/lyoeos.in2p3.fr/grid/cms/store/mc/RunIISummer20UL17NanoAODv9/WW_TuneCP5_13TeV-pythia8/NANOAODSIM/106X_mc2017_realistic_v9-v1/280000/1DB581DE-0FFE-B445-8DA1-53E4FC5F1110.root
/eos/lyoeos.in2p3.fr/grid/cms/store/mc/RunIISummer20UL17NanoAODv9/WW_TuneCP5_13TeV-pythia8/NANOAODSIM/106X_mc2017_realistic_v9-v1/280000/29A847FD-CCB5-7549-855D-2F850B7038FF.root
/eos/lyoeos.in2p3.fr/grid/cms/store/mc/RunIISummer20UL17NanoAODv9/WW_TuneCP5_13TeV-pythia8/NANOAODSIM/106X_mc2017_realistic_v9-v1/280000/38D8D7E0-D379-E94A-9DCD-45BA483C7310.root
/eos/lyoeos.in2p3.fr/grid/cms/store/mc/RunIISummer20UL17NanoAODv9/WW_TuneCP5_13TeV-pythia8/NANOAODSIM/106X_mc2017_realistic_v9-v1/280000/39EC8C80-9A76-D54A-BB4E-6239F770EE41.root
/eos/lyoeos.in2p3.fr/grid/cms/store/mc/RunIISummer20UL17NanoAODv9/WW_TuneCP5_13TeV-pythia8/NANOAODSIM/106X_mc2017_realistic_v9-v1/280000/4BA1BC6F-3A38-6E4F-9EF5-0FE1D9079A9D.root
/eos/lyoeos.in2p3.fr/grid/cms/store/mc/RunIISummer20UL17NanoAODv9/WW_TuneCP5_13TeV-pythia8/NANOAODSIM/106X_mc2017_realistic_v9-v1/280000/54D093D1-7302-304E-ACF0-B4E40DEFDEC2.root
/eos/lyoeos.in2p3.fr/grid/cms/store/mc/RunIISummer20UL17NanoAODv9/WW_TuneCP5_13TeV-pythia8/NANOAODSIM/106X_mc2017_realistic_v9-v1/280000/80C8980F-EC4D-3549-B5A5-43A99A9CBA02.root
/eos/lyoeos.in2p3.fr/grid/cms/store/mc/RunIISummer20UL17NanoAODv9/WW_TuneCP5_13TeV-pythia8/NANOAODSIM/106X_mc2017_realistic_v9-v1/280000/A70C2777-AC14-CC40-BBBF-42861CD138F6.root
/eos/lyoeos.in2p3.fr/grid/cms/store/mc/RunIISummer20UL17NanoAODv9/WW_TuneCP5_13TeV-pythia8/NANOAODSIM/106X_mc2017_realistic_v9-v1/280000/CE54284E-8FAA-624F-9DBF-4A938475F03B.root
/eos/lyoeos.in2p3.fr/grid/cms/store/mc/RunIISummer20UL17NanoAODv9/WW_TuneCP5_13TeV-pythia8/NANOAODSIM/106X_mc2017_realistic_v9-v1/280000/FDAECC18-B189-AE49-833F-29124CE4B433.root
/eos/lyoeos.in2p3.fr/grid/cms/store/mc/RunIISummer20UL17NanoAODv9/WW_TuneCP5_13TeV-pythia8/NANOAODSIM/106X_mc2017_realistic_v9-v1/70000/BFBD421D-7CF0-7A45-85BA-C5E5CD953A3F.root
/eos/lyoeos.in2p3.fr/grid/cms/store/mc/RunIISummer20UL17NanoAODv9/WW_TuneCP5_13TeV-pythia8/NANOAODSIM/106X_mc2017_realistic_v9-v1/70000/D83F9914-A804-BE49-A96A-8CF3348829D3.root
