/eos/lyoeos.in2p3.fr/grid/cms/store/mc/RunIISummer20UL17NanoAODv9/QCD_Pt-1000_MuEnrichedPt5_TuneCP5_13TeV-pythia8/NANOAODSIM/106X_mc2017_realistic_v9-v2/2520000/30A5AE8B-FDE0-6F4D-A174-E56E74FF6B99.root
/eos/lyoeos.in2p3.fr/grid/cms/store/mc/RunIISummer20UL17NanoAODv9/QCD_Pt-1000_MuEnrichedPt5_TuneCP5_13TeV-pythia8/NANOAODSIM/106X_mc2017_realistic_v9-v2/2520000/3AE59872-F622-7B48-AE4A-F8D9D5F33142.root
/eos/lyoeos.in2p3.fr/grid/cms/store/mc/RunIISummer20UL17NanoAODv9/QCD_Pt-1000_MuEnrichedPt5_TuneCP5_13TeV-pythia8/NANOAODSIM/106X_mc2017_realistic_v9-v2/2520000/3B04BDFF-4C5F-2E43-A893-1CF141C9C4AE.root
/eos/lyoeos.in2p3.fr/grid/cms/store/mc/RunIISummer20UL17NanoAODv9/QCD_Pt-1000_MuEnrichedPt5_TuneCP5_13TeV-pythia8/NANOAODSIM/106X_mc2017_realistic_v9-v2/2520000/4158368A-E4B2-244F-ADA8-62802A9418F4.root
/eos/lyoeos.in2p3.fr/grid/cms/store/mc/RunIISummer20UL17NanoAODv9/QCD_Pt-1000_MuEnrichedPt5_TuneCP5_13TeV-pythia8/NANOAODSIM/106X_mc2017_realistic_v9-v2/2520000/63BFDEF0-DC1A-034C-8E2F-1D3C333D7746.root
/eos/lyoeos.in2p3.fr/grid/cms/store/mc/RunIISummer20UL17NanoAODv9/QCD_Pt-1000_MuEnrichedPt5_TuneCP5_13TeV-pythia8/NANOAODSIM/106X_mc2017_realistic_v9-v2/2520000/7380C038-EB06-A648-9DA0-63E958BB6F37.root
/eos/lyoeos.in2p3.fr/grid/cms/store/mc/RunIISummer20UL17NanoAODv9/QCD_Pt-1000_MuEnrichedPt5_TuneCP5_13TeV-pythia8/NANOAODSIM/106X_mc2017_realistic_v9-v2/2520000/7A58F683-9954-4E45-BC55-7295CB53A176.root
/eos/lyoeos.in2p3.fr/grid/cms/store/mc/RunIISummer20UL17NanoAODv9/QCD_Pt-1000_MuEnrichedPt5_TuneCP5_13TeV-pythia8/NANOAODSIM/106X_mc2017_realistic_v9-v2/2520000/93F362D7-370D-994F-8734-406FFCF6ED9E.root
/eos/lyoeos.in2p3.fr/grid/cms/store/mc/RunIISummer20UL17NanoAODv9/QCD_Pt-1000_MuEnrichedPt5_TuneCP5_13TeV-pythia8/NANOAODSIM/106X_mc2017_realistic_v9-v2/2520000/A3F5B01B-73D3-1441-812C-B3B1C29BDCB0.root
/eos/lyoeos.in2p3.fr/grid/cms/store/mc/RunIISummer20UL17NanoAODv9/QCD_Pt-1000_MuEnrichedPt5_TuneCP5_13TeV-pythia8/NANOAODSIM/106X_mc2017_realistic_v9-v2/2520000/A7AFB8B9-0A82-3842-9698-2E8F040D7C68.root
/eos/lyoeos.in2p3.fr/grid/cms/store/mc/RunIISummer20UL17NanoAODv9/QCD_Pt-1000_MuEnrichedPt5_TuneCP5_13TeV-pythia8/NANOAODSIM/106X_mc2017_realistic_v9-v2/2520000/CDE070ED-1420-4948-9631-0EDECE61E662.root
/eos/lyoeos.in2p3.fr/grid/cms/store/mc/RunIISummer20UL17NanoAODv9/QCD_Pt-1000_MuEnrichedPt5_TuneCP5_13TeV-pythia8/NANOAODSIM/106X_mc2017_realistic_v9-v2/2520000/EE9BE531-B58E-2846-9052-B3F6B2FF6812.root
/eos/lyoeos.in2p3.fr/grid/cms/store/mc/RunIISummer20UL17NanoAODv9/QCD_Pt-1000_MuEnrichedPt5_TuneCP5_13TeV-pythia8/NANOAODSIM/106X_mc2017_realistic_v9-v2/2530000/09304D9E-3976-8245-931C-52112DF32F79.root
/eos/lyoeos.in2p3.fr/grid/cms/store/mc/RunIISummer20UL17NanoAODv9/QCD_Pt-1000_MuEnrichedPt5_TuneCP5_13TeV-pythia8/NANOAODSIM/106X_mc2017_realistic_v9-v2/2530000/20D0629F-BCEE-E34C-A0DC-9DD8B321DCCB.root
/eos/lyoeos.in2p3.fr/grid/cms/store/mc/RunIISummer20UL17NanoAODv9/QCD_Pt-1000_MuEnrichedPt5_TuneCP5_13TeV-pythia8/NANOAODSIM/106X_mc2017_realistic_v9-v2/2530000/491AD107-4B7A-F74D-A3E6-D516E73D6CD8.root
/eos/lyoeos.in2p3.fr/grid/cms/store/mc/RunIISummer20UL17NanoAODv9/QCD_Pt-1000_MuEnrichedPt5_TuneCP5_13TeV-pythia8/NANOAODSIM/106X_mc2017_realistic_v9-v2/2530000/A8946B60-98A8-6E48-BFAC-B2A5E7DF8F96.root
/eos/lyoeos.in2p3.fr/grid/cms/store/mc/RunIISummer20UL17NanoAODv9/QCD_Pt-1000_MuEnrichedPt5_TuneCP5_13TeV-pythia8/NANOAODSIM/106X_mc2017_realistic_v9-v2/2530000/BB21024B-056E-1045-8D91-6C7E98E85CFA.root
/eos/lyoeos.in2p3.fr/grid/cms/store/mc/RunIISummer20UL17NanoAODv9/QCD_Pt-1000_MuEnrichedPt5_TuneCP5_13TeV-pythia8/NANOAODSIM/106X_mc2017_realistic_v9-v2/260000/05A3D186-6904-D84C-8475-222F0AFE70D0.root
/eos/lyoeos.in2p3.fr/grid/cms/store/mc/RunIISummer20UL17NanoAODv9/QCD_Pt-1000_MuEnrichedPt5_TuneCP5_13TeV-pythia8/NANOAODSIM/106X_mc2017_realistic_v9-v2/260000/2B97D411-10AD-B641-9FD8-73B61CC763E9.root
/eos/lyoeos.in2p3.fr/grid/cms/store/mc/RunIISummer20UL17NanoAODv9/QCD_Pt-1000_MuEnrichedPt5_TuneCP5_13TeV-pythia8/NANOAODSIM/106X_mc2017_realistic_v9-v2/260000/56102D7C-2D20-C846-95EA-90838820B632.root
/eos/lyoeos.in2p3.fr/grid/cms/store/mc/RunIISummer20UL17NanoAODv9/QCD_Pt-1000_MuEnrichedPt5_TuneCP5_13TeV-pythia8/NANOAODSIM/106X_mc2017_realistic_v9-v2/260000/5F7E6777-12DE-1040-ADE8-FAC3E305921C.root
/eos/lyoeos.in2p3.fr/grid/cms/store/mc/RunIISummer20UL17NanoAODv9/QCD_Pt-1000_MuEnrichedPt5_TuneCP5_13TeV-pythia8/NANOAODSIM/106X_mc2017_realistic_v9-v2/260000/64957B09-FDCE-1C4E-8B67-6A348B393BDA.root
/eos/lyoeos.in2p3.fr/grid/cms/store/mc/RunIISummer20UL17NanoAODv9/QCD_Pt-1000_MuEnrichedPt5_TuneCP5_13TeV-pythia8/NANOAODSIM/106X_mc2017_realistic_v9-v2/260000/6D624B9B-1D79-2D4B-A749-967223946912.root
/eos/lyoeos.in2p3.fr/grid/cms/store/mc/RunIISummer20UL17NanoAODv9/QCD_Pt-1000_MuEnrichedPt5_TuneCP5_13TeV-pythia8/NANOAODSIM/106X_mc2017_realistic_v9-v2/260000/7B460944-B77B-4148-84C7-7C835F793F0E.root
/eos/lyoeos.in2p3.fr/grid/cms/store/mc/RunIISummer20UL17NanoAODv9/QCD_Pt-1000_MuEnrichedPt5_TuneCP5_13TeV-pythia8/NANOAODSIM/106X_mc2017_realistic_v9-v2/260000/8E15377B-8665-8646-96FB-5520EB038248.root
/eos/lyoeos.in2p3.fr/grid/cms/store/mc/RunIISummer20UL17NanoAODv9/QCD_Pt-1000_MuEnrichedPt5_TuneCP5_13TeV-pythia8/NANOAODSIM/106X_mc2017_realistic_v9-v2/260000/A36C2BCC-6F82-1B4C-BB74-16528301C340.root
/eos/lyoeos.in2p3.fr/grid/cms/store/mc/RunIISummer20UL17NanoAODv9/QCD_Pt-1000_MuEnrichedPt5_TuneCP5_13TeV-pythia8/NANOAODSIM/106X_mc2017_realistic_v9-v2/260000/A4826926-349E-1840-AE78-8704D987235C.root
/eos/lyoeos.in2p3.fr/grid/cms/store/mc/RunIISummer20UL17NanoAODv9/QCD_Pt-1000_MuEnrichedPt5_TuneCP5_13TeV-pythia8/NANOAODSIM/106X_mc2017_realistic_v9-v2/260000/C5C75F96-C6DD-E745-8D52-8EA35C43EBC2.root
/eos/lyoeos.in2p3.fr/grid/cms/store/mc/RunIISummer20UL17NanoAODv9/QCD_Pt-1000_MuEnrichedPt5_TuneCP5_13TeV-pythia8/NANOAODSIM/106X_mc2017_realistic_v9-v2/260000/C5F8E926-27A3-2548-B968-3CCA1B39C9FB.root
/eos/lyoeos.in2p3.fr/grid/cms/store/mc/RunIISummer20UL17NanoAODv9/QCD_Pt-1000_MuEnrichedPt5_TuneCP5_13TeV-pythia8/NANOAODSIM/106X_mc2017_realistic_v9-v2/260000/C736257B-9363-2149-9C6B-C2AC1CA71E63.root
/eos/lyoeos.in2p3.fr/grid/cms/store/mc/RunIISummer20UL17NanoAODv9/QCD_Pt-1000_MuEnrichedPt5_TuneCP5_13TeV-pythia8/NANOAODSIM/106X_mc2017_realistic_v9-v2/260000/CDC8F4A2-4260-BE42-B81F-B3581AE96280.root
/eos/lyoeos.in2p3.fr/grid/cms/store/mc/RunIISummer20UL17NanoAODv9/QCD_Pt-1000_MuEnrichedPt5_TuneCP5_13TeV-pythia8/NANOAODSIM/106X_mc2017_realistic_v9-v2/260000/D7264E4F-73D8-414C-9FE1-0243E8D5B478.root
/eos/lyoeos.in2p3.fr/grid/cms/store/mc/RunIISummer20UL17NanoAODv9/QCD_Pt-1000_MuEnrichedPt5_TuneCP5_13TeV-pythia8/NANOAODSIM/106X_mc2017_realistic_v9-v2/260000/E855264B-7802-1142-BE20-67783B4AB5E1.root
/eos/lyoeos.in2p3.fr/grid/cms/store/mc/RunIISummer20UL17NanoAODv9/QCD_Pt-1000_MuEnrichedPt5_TuneCP5_13TeV-pythia8/NANOAODSIM/106X_mc2017_realistic_v9-v2/260000/EF8DC2AA-F799-EB46-AC51-4C1A9A9830A6.root
/eos/lyoeos.in2p3.fr/grid/cms/store/mc/RunIISummer20UL17NanoAODv9/QCD_Pt-1000_MuEnrichedPt5_TuneCP5_13TeV-pythia8/NANOAODSIM/106X_mc2017_realistic_v9-v2/260000/F6EF1B22-0D68-EE42-881A-FED752F003CE.root
/eos/lyoeos.in2p3.fr/grid/cms/store/mc/RunIISummer20UL17NanoAODv9/QCD_Pt-1000_MuEnrichedPt5_TuneCP5_13TeV-pythia8/NANOAODSIM/106X_mc2017_realistic_v9-v2/260000/FD098E6C-E619-8D48-BC58-8BCAF7042256.root
/eos/lyoeos.in2p3.fr/grid/cms/store/mc/RunIISummer20UL17NanoAODv9/QCD_Pt-1000_MuEnrichedPt5_TuneCP5_13TeV-pythia8/NANOAODSIM/106X_mc2017_realistic_v9-v2/260000/FD361469-5649-F349-9163-6673A8753A0B.root
/eos/lyoeos.in2p3.fr/grid/cms/store/mc/RunIISummer20UL17NanoAODv9/QCD_Pt-1000_MuEnrichedPt5_TuneCP5_13TeV-pythia8/NANOAODSIM/106X_mc2017_realistic_v9-v2/270000/0B181BDE-C807-D14C-BC78-A3218CEB319D.root
/eos/lyoeos.in2p3.fr/grid/cms/store/mc/RunIISummer20UL17NanoAODv9/QCD_Pt-1000_MuEnrichedPt5_TuneCP5_13TeV-pythia8/NANOAODSIM/106X_mc2017_realistic_v9-v2/270000/E2B3D773-2003-5F42-BD05-BD4F4908218B.root
